s01_u31,71
s01_u32,75
s01_u33,68
s01_u34,55
s01_u35,48
s01_u36,48
s01_u37,41
s01_u38,48
s01_u39,41
s01_u40,71
s01_u41,75
s01_u42,75
s01_u43,105
s01_u44,108
s01_u45,105
s01_u46,65
s01_u47,61
s01_u48,61
s01_u49,65
s01_u50,75
s01_u51,71
s01_u52,55
s01_u53,58
s01_u54,61
s01_u55,85
s01_u56,91
s01_u57,88
s01_u58,88
s01_u59,81
s01_u60,81
s02_u31,65
s02_u32,65
s02_u33,68
s02_u34,41
s02_u35,51
s02_u36,51
s02_u37,35
s02_u38,41
s02_u39,31
s02_u40,55
s02_u41,65
s02_u42,61
s02_u43,85
s02_u44,98
s02_u45,95
s02_u46,38
s02_u47,51
s02_u48,51
s02_u49,68
s02_u50,75
s02_u51,75
s02_u52,38
s02_u53,45
s02_u54,51
s02_u55,78
s02_u56,91
s02_u57,78
s02_u58,68
s02_u59,75
s02_u60,75
s03_u31,95
s03_u32,85
s03_u33,78
s03_u34,58
s03_u35,68
s03_u36,61
s03_u37,28
s03_u38,31
s03_u39,28
s03_u40,65
s03_u41,68
s03_u42,65
s03_u43,78
s03_u44,81
s03_u45,78
s03_u46,35
s03_u47,48
s03_u48,51
s03_u49,58
s03_u50,61
s03_u51,61
s03_u52,41
s03_u53,41
s03_u54,41
s03_u55,75
s03_u56,81
s03_u57,88
s03_u58,71
s03_u59,75
s03_u60,65
s04_u31,81
s04_u32,91
s04_u33,88
s04_u34,51
s04_u35,58
s04_u36,51
s04_u37,38
s04_u38,41
s04_u39,41
s04_u40,68
s04_u41,68
s04_u42,71
s04_u43,88
s04_u44,91
s04_u45,91
s04_u46,51
s04_u47,48
s04_u48,51
s04_u49,58
s04_u50,65
s04_u51,58
s04_u52,51
s04_u53,55
s04_u54,45
s04_u55,88
s04_u56,81
s04_u57,85
s04_u58,78
s04_u59,85
s04_u60,88
s05_u31,71
s05_u32,61
s05_u33,61
s05_u34,51
s05_u35,48
s05_u36,48
s05_u37,28
s05_u38,28
s05_u39,31
s05_u40,51
s05_u41,65
s05_u42,58
s05_u43,75
s05_u44,78
s05_u45,68
s05_u46,45
s05_u47,41
s05_u48,45
s05_u49,48
s05_u50,51
s05_u51,51
s05_u52,41
s05_u53,38
s05_u54,35
s05_u55,68
s05_u56,68
s05_u57,75
s05_u58,58
s05_u59,58
s05_u60,58
s06_u31,88
s06_u32,88
s06_u33,88
s06_u34,48
s06_u35,51
s06_u36,51
s06_u37,45
s06_u38,45
s06_u39,45
s06_u40,48
s06_u41,48
s06_u42,45
s06_u43,85
s06_u44,98
s06_u45,95
s06_u46,65
s06_u47,61
s06_u48,48
s06_u49,65
s06_u50,71
s06_u51,71
s06_u52,41
s06_u53,45
s06_u54,48
s06_u55,71
s06_u56,78
s06_u57,81
s06_u58,71
s06_u59,68
s06_u60,75
s07_u31,78
s07_u32,81
s07_u33,81
s07_u34,48
s07_u35,51
s07_u36,51
s07_u37,41
s07_u38,45
s07_u39,41
s07_u40,71
s07_u41,71
s07_u42,71
s07_u43,85
s07_u44,81
s07_u45,91
s07_u46,61
s07_u47,65
s07_u48,65
s07_u49,71
s07_u50,81
s07_u51,75
s07_u52,51
s07_u53,58
s07_u54,51
s07_u55,105
s07_u56,101
s07_u57,98
s07_u58,65
s07_u59,68
s07_u60,65
s08_u31,55
s08_u32,61
s08_u33,51
s08_u34,45
s08_u35,51
s08_u36,48
s08_u37,38
s08_u38,38
s08_u39,28
s08_u40,55
s08_u41,65
s08_u42,65
s08_u43,78
s08_u44,78
s08_u45,71
s08_u46,35
s08_u47,38
s08_u48,41
s08_u49,45
s08_u50,55
s08_u51,51
s08_u52,35
s08_u53,41
s08_u54,45
s08_u55,88
s08_u56,85
s08_u57,85
s08_u58,58
s08_u59,61
s08_u60,58
s09_u31,68
s09_u32,85
s09_u33,68
s09_u34,55
s09_u35,58
s09_u36,51
s09_u37,41
s09_u38,48
s09_u39,38
s09_u40,75
s09_u41,75
s09_u42,75
s09_u43,88
s09_u44,108
s09_u45,88
s09_u46,51
s09_u47,55
s09_u48,45
s09_u49,65
s09_u50,71
s09_u51,68
s09_u52,55
s09_u53,51
s09_u54,41
s09_u55,98
s09_u56,95
s09_u57,85
s09_u58,81
s09_u59,78
s09_u60,91
s10_u31,81
s10_u32,75
s10_u33,65
s10_u34,48
s10_u35,51
s10_u36,41
s10_u37,48
s10_u38,45
s10_u39,45
s10_u40,68
s10_u41,68
s10_u42,58
s10_u43,85
s10_u44,81
s10_u45,75
s10_u46,48
s10_u47,38
s10_u48,38
s10_u49,75
s10_u50,75
s10_u51,65
s10_u52,55
s10_u53,55
s10_u54,48
s10_u55,91
s10_u56,85
s10_u57,81
s10_u58,78
s10_u59,78
s10_u60,78
s11_u31,71
s11_u32,75
s11_u33,61
s11_u34,38
s11_u35,48
s11_u36,41
s11_u37,35
s11_u38,31
s11_u39,25
s11_u40,61
s11_u41,58
s11_u42,55
s11_u43,85
s11_u44,88
s11_u45,71
s11_u46,41
s11_u47,41
s11_u48,41
s11_u49,61
s11_u50,55
s11_u51,48
s11_u52,48
s11_u53,45
s11_u54,41
s11_u55,81
s11_u56,88
s11_u57,71
s11_u58,75
s11_u59,81
s11_u60,71
s12_u31,98
s12_u32,111
s12_u33,108
s12_u34,55
s12_u35,61
s12_u36,61
s12_u37,38
s12_u38,45
s12_u39,38
s12_u40,58
s12_u41,65
s12_u42,68
s12_u43,75
s12_u44,91
s12_u45,95
s12_u46,55
s12_u47,58
s12_u48,61
s12_u49,55
s12_u50,68
s12_u51,71
s12_u52,48
s12_u53,55
s12_u54,55
s12_u55,71
s12_u56,85
s12_u57,85
s12_u58,71
s12_u59,81
s12_u60,78
s13_u31,85
s13_u32,85
s13_u33,85
s13_u34,51
s13_u35,51
s13_u36,45
s13_u37,35
s13_u38,35
s13_u39,35
s13_u40,68
s13_u41,65
s13_u42,61
s13_u43,78
s13_u44,75
s13_u45,75
s13_u46,51
s13_u47,51
s13_u48,48
s13_u49,65
s13_u50,58
s13_u51,65
s13_u52,45
s13_u53,48
s13_u54,45
s13_u55,85
s13_u56,78
s13_u57,75
s13_u58,61
s13_u59,75
s13_u60,71
s14_u31,51
s14_u32,61
s14_u33,58
s14_u34,38
s14_u35,38
s14_u36,38
s14_u37,28
s14_u38,28
s14_u39,31
s14_u40,35
s14_u41,41
s14_u42,41
s14_u43,58
s14_u44,68
s14_u45,61
s14_u46,35
s14_u47,35
s14_u48,35
s14_u49,45
s14_u50,48
s14_u51,38
s14_u52,35
s14_u53,31
s14_u54,35
s14_u55,65
s14_u56,65
s14_u57,68
s14_u58,55
s14_u59,65
s14_u60,65
s15_u31,48
s15_u32,51
s15_u33,51
s15_u34,31
s15_u35,31
s15_u36,31
s15_u37,28
s15_u38,25
s15_u39,28
s15_u40,41
s15_u41,38
s15_u42,38
s15_u43,58
s15_u44,61
s15_u45,65
s15_u46,28
s15_u47,31
s15_u48,38
s15_u49,58
s15_u50,65
s15_u51,85
s15_u52,35
s15_u53,31
s15_u54,41
s15_u55,61
s15_u56,58
s15_u57,65
s15_u58,58
s15_u59,71
s15_u60,38
s16_u31,71
s16_u32,78
s16_u33,68
s16_u34,48
s16_u35,51
s16_u36,48
s16_u37,31
s16_u38,35
s16_u39,31
s16_u40,78
s16_u41,75
s16_u42,75
s16_u43,88
s16_u44,95
s16_u45,88
s16_u46,51
s16_u47,48
s16_u48,51
s16_u49,61
s16_u50,61
s16_u51,61
s16_u52,45
s16_u53,48
s16_u54,48
s16_u55,75
s16_u56,81
s16_u57,78
s16_u58,78
s16_u59,85
s16_u60,85
s17_u31,78
s17_u32,85
s17_u33,81
s17_u34,51
s17_u35,45
s17_u36,51
s17_u37,31
s17_u38,28
s17_u39,35
s17_u40,65
s17_u41,61
s17_u42,58
s17_u43,78
s17_u44,75
s17_u45,71
s17_u46,45
s17_u47,48
s17_u48,51
s17_u49,55
s17_u50,58
s17_u51,61
s17_u52,51
s17_u53,48
s17_u54,48
s17_u55,81
s17_u56,78
s17_u57,81
s17_u58,75
s17_u59,71
s17_u60,71
s18_u31,88
s18_u32,91
s18_u33,88
s18_u34,58
s18_u35,71
s18_u36,71
s18_u37,38
s18_u38,41
s18_u39,41
s18_u40,58
s18_u41,61
s18_u42,65
s18_u43,91
s18_u44,95
s18_u45,101
s18_u46,48
s18_u47,51
s18_u48,58
s18_u49,58
s18_u50,58
s18_u51,65
s18_u52,51
s18_u53,51
s18_u54,55
s18_u55,95
s18_u56,101
s18_u57,108
s18_u58,75
s18_u59,85
s18_u60,85
s19_u31,71
s19_u32,75
s19_u33,71
s19_u34,45
s19_u35,48
s19_u36,48
s19_u37,35
s19_u38,31
s19_u39,35
s19_u40,45
s19_u41,48
s19_u42,61
s19_u43,75
s19_u44,78
s19_u45,81
s19_u46,35
s19_u47,38
s19_u48,41
s19_u49,51
s19_u50,55
s19_u51,55
s19_u52,45
s19_u53,48
s19_u54,51
s19_u55,68
s19_u56,71
s19_u57,75
s19_u58,68
s19_u59,71
s19_u60,75
s20_u31,55
s20_u32,55
s20_u33,48
s20_u34,41
s20_u35,45
s20_u36,45
s20_u37,35
s20_u38,45
s20_u39,41
s20_u40,68
s20_u41,68
s20_u42,68
s20_u43,88
s20_u44,81
s20_u45,81
s20_u46,55
s20_u47,55
s20_u48,51
s20_u49,91
s20_u50,95
s20_u51,88
s20_u52,38
s20_u53,41
s20_u54,38
s20_u55,85
s20_u56,91
s20_u57,81
s20_u58,68
s20_u59,71
s20_u60,65
s21_u31,61
s21_u32,68
s21_u33,75
s21_u34,51
s21_u35,61
s21_u36,55
s21_u37,45
s21_u38,45
s21_u39,41
s21_u40,68
s21_u41,71
s21_u42,78
s21_u43,101
s21_u44,108
s21_u45,101
s21_u46,48
s21_u47,48
s21_u48,58
s21_u49,61
s21_u50,71
s21_u51,71
s21_u52,51
s21_u53,58
s21_u54,51
s21_u55,88
s21_u56,85
s21_u57,95
s21_u58,85
s21_u59,78
s21_u60,88
s22_u31,65
s22_u32,81
s22_u33,78
s22_u34,38
s22_u35,41
s22_u36,35
s22_u37,21
s22_u38,21
s22_u39,21
s22_u40,38
s22_u41,41
s22_u42,45
s22_u43,68
s22_u44,88
s22_u45,75
s22_u46,35
s22_u47,41
s22_u48,45
s22_u49,65
s22_u50,71
s22_u51,61
s22_u52,38
s22_u53,38
s22_u54,38
s22_u55,78
s22_u56,71
s22_u57,68
s22_u58,65
s22_u59,68
s22_u60,61
s23_u31,71
s23_u32,78
s23_u33,78
s23_u34,41
s23_u35,41
s23_u36,45
s23_u37,28
s23_u38,31
s23_u39,28
s23_u40,61
s23_u41,65
s23_u42,65
s23_u43,81
s23_u44,88
s23_u45,91
s23_u46,35
s23_u47,41
s23_u48,45
s23_u49,58
s23_u50,61
s23_u51,68
s23_u52,41
s23_u53,45
s23_u54,41
s23_u55,81
s23_u56,81
s23_u57,81
s23_u58,71
s23_u59,78
s23_u60,75
s24_u31,88
s24_u32,85
s24_u33,85
s24_u34,51
s24_u35,48
s24_u36,48
s24_u37,35
s24_u38,31
s24_u39,35
s24_u40,68
s24_u41,75
s24_u42,65
s24_u43,91
s24_u44,88
s24_u45,88
s24_u46,41
s24_u47,45
s24_u48,48
s24_u49,68
s24_u50,71
s24_u51,65
s24_u52,48
s24_u53,55
s24_u54,51
s24_u55,81
s24_u56,85
s24_u57,75
s24_u58,75
s24_u59,78
s24_u60,81
s25_u31,68
s25_u32,75
s25_u33,71
s25_u34,48
s25_u35,51
s25_u36,48
s25_u37,31
s25_u38,38
s25_u39,31
s25_u40,65
s25_u41,65
s25_u42,65
s25_u43,78
s25_u44,78
s25_u45,78
s25_u46,41
s25_u47,48
s25_u48,45
s25_u49,45
s25_u50,55
s25_u51,55
s25_u52,45
s25_u53,55
s25_u54,51
s25_u55,85
s25_u56,81
s25_u57,75
s25_u58,68
s25_u59,68
s25_u60,68
s26_u31,75
s26_u32,75
s26_u33,78
s26_u34,41
s26_u35,45
s26_u36,51
s26_u37,28
s26_u38,31
s26_u39,25
s26_u40,51
s26_u41,58
s26_u42,58
s26_u43,85
s26_u44,91
s26_u45,91
s26_u46,35
s26_u47,35
s26_u48,35
s26_u49,51
s26_u50,65
s26_u51,65
s26_u52,48
s26_u53,45
s26_u54,41
s26_u55,81
s26_u56,85
s26_u57,88
s26_u58,61
s26_u59,65
s26_u60,75
s27_u31,61
s27_u32,65
s27_u33,65
s27_u34,41
s27_u35,41
s27_u36,41
s27_u37,41
s27_u38,45
s27_u39,45
s27_u40,45
s27_u41,48
s27_u42,41
s27_u43,78
s27_u44,88
s27_u45,81
s27_u46,31
s27_u47,35
s27_u48,35
s27_u49,61
s27_u50,61
s27_u51,65
s27_u52,45
s27_u53,41
s27_u54,45
s27_u55,75
s27_u56,78
s27_u57,75
s27_u58,68
s27_u59,71
s27_u60,78
s28_u31,88
s28_u32,101
s28_u33,91
s28_u34,65
s28_u35,65
s28_u36,65
s28_u37,35
s28_u38,35
s28_u39,35
s28_u40,65
s28_u41,71
s28_u42,71
s28_u43,91
s28_u44,91
s28_u45,91
s28_u46,45
s28_u47,48
s28_u48,45
s28_u49,91
s28_u50,91
s28_u51,91
s28_u52,51
s28_u53,51
s28_u54,51
s28_u55,101
s28_u56,101
s28_u57,95
s28_u58,68
s28_u59,75
s28_u60,75
s30_u31,75
s30_u32,81
s30_u33,78
s30_u34,48
s30_u35,48
s30_u36,48
s30_u37,35
s30_u38,35
s30_u39,35
s30_u40,51
s30_u41,61
s30_u42,58
s30_u43,78
s30_u44,81
s30_u45,78
s30_u46,38
s30_u47,45
s30_u48,45
s30_u49,41
s30_u50,58
s30_u51,61
s30_u52,45
s30_u53,41
s30_u54,41
s30_u55,75
s30_u56,78
s30_u57,71
s30_u58,58
s30_u59,65
s30_u60,65
s31_u31,75
s31_u32,71
s31_u33,61
s31_u34,45
s31_u35,48
s31_u36,45
s31_u37,38
s31_u38,38
s31_u39,38
s31_u40,58
s31_u41,65
s31_u42,65
s31_u43,85
s31_u44,85
s31_u45,88
s31_u46,41
s31_u47,45
s31_u48,38
s31_u49,91
s31_u50,98
s31_u51,81
s31_u52,41
s31_u53,41
s31_u54,35
s31_u55,95
s31_u56,81
s31_u57,78
s31_u58,78
s31_u59,85
s31_u60,75
s32_u31,78
s32_u32,91
s32_u33,85
s32_u34,58
s32_u35,58
s32_u36,55
s32_u37,38
s32_u38,45
s32_u39,45
s32_u40,75
s32_u41,85
s32_u42,81
s32_u43,91
s32_u44,108
s32_u45,98
s32_u46,45
s32_u47,48
s32_u48,45
s32_u49,101
s32_u50,98
s32_u51,88
s32_u52,45
s32_u53,45
s32_u54,45
s32_u55,101
s32_u56,115
s32_u57,108
s32_u58,91
s32_u59,91
s32_u60,98
s33_u31,75
s33_u32,75
s33_u33,75
s33_u34,48
s33_u35,51
s33_u36,55
s33_u37,38
s33_u38,35
s33_u39,28
s33_u40,61
s33_u41,68
s33_u42,65
s33_u43,78
s33_u44,78
s33_u45,78
s33_u46,48
s33_u47,55
s33_u48,51
s33_u49,51
s33_u50,51
s33_u51,51
s33_u52,45
s33_u53,45
s33_u54,48
s33_u55,81
s33_u56,88
s33_u57,91
s33_u58,71
s33_u59,85
s33_u60,78
s34_u31,61
s34_u32,61
s34_u33,58
s34_u34,48
s34_u35,45
s34_u36,41
s34_u37,35
s34_u38,28
s34_u39,25
s34_u40,51
s34_u41,48
s34_u42,41
s34_u43,81
s34_u44,75
s34_u45,75
s34_u46,45
s34_u47,48
s34_u48,51
s34_u49,58
s34_u50,55
s34_u51,61
s34_u52,45
s34_u53,45
s34_u54,45
s34_u55,85
s34_u56,88
s34_u57,88
s34_u58,75
s34_u59,78
s34_u60,68
s35_u31,81
s35_u32,88
s35_u33,88
s35_u34,58
s35_u35,55
s35_u36,51
s35_u37,35
s35_u38,35
s35_u39,31
s35_u40,65
s35_u41,65
s35_u42,65
s35_u43,85
s35_u44,88
s35_u45,78
s35_u46,48
s35_u47,55
s35_u48,51
s35_u49,65
s35_u50,65
s35_u51,58
s35_u52,55
s35_u53,55
s35_u54,48
s35_u55,85
s35_u56,88
s35_u57,95
s35_u58,81
s35_u59,78
s35_u60,71
s36_u31,78
s36_u32,85
s36_u33,88
s36_u34,48
s36_u35,55
s36_u36,51
s36_u37,38
s36_u38,41
s36_u39,38
s36_u40,68
s36_u41,71
s36_u42,61
s36_u43,88
s36_u44,91
s36_u45,88
s36_u46,48
s36_u47,48
s36_u48,41
s36_u49,68
s36_u50,68
s36_u51,61
s36_u52,51
s36_u53,51
s36_u54,45
s36_u55,95
s36_u56,88
s36_u57,85
s36_u58,78
s36_u59,81
s36_u60,75
s37_u31,68
s37_u32,75
s37_u33,75
s37_u34,41
s37_u35,45
s37_u36,41
s37_u37,35
s37_u38,41
s37_u39,38
s37_u40,58
s37_u41,55
s37_u42,61
s37_u43,75
s37_u44,78
s37_u45,85
s37_u46,45
s37_u47,48
s37_u48,55
s37_u49,55
s37_u50,61
s37_u51,61
s37_u52,41
s37_u53,48
s37_u54,51
s37_u55,68
s37_u56,75
s37_u57,81
s37_u58,61
s37_u59,61
s37_u60,65
s38_u31,65
s38_u32,71
s38_u33,65
s38_u34,41
s38_u35,41
s38_u36,41
s38_u37,28
s38_u38,31
s38_u39,31
s38_u40,51
s38_u41,58
s38_u42,55
s38_u43,75
s38_u44,85
s38_u45,78
s38_u46,31
s38_u47,28
s38_u48,31
s38_u49,61
s38_u50,68
s38_u51,71
s38_u52,41
s38_u53,48
s38_u54,41
s38_u55,78
s38_u56,81
s38_u57,85
s38_u58,71
s38_u59,71
s38_u60,78
s39_u31,75
s39_u32,81
s39_u33,81
s39_u34,51
s39_u35,55
s39_u36,48
s39_u37,41
s39_u38,45
s39_u39,41
s39_u40,71
s39_u41,71
s39_u42,61
s39_u43,88
s39_u44,88
s39_u45,88
s39_u46,61
s39_u47,68
s39_u48,61
s39_u49,68
s39_u50,68
s39_u51,68
s39_u52,55
s39_u53,55
s39_u54,48
s39_u55,95
s39_u56,105
s39_u57,105
s39_u58,78
s39_u59,78
s39_u60,85
s40_u31,65
s40_u32,68
s40_u33,71
s40_u34,38
s40_u35,41
s40_u36,41
s40_u37,35
s40_u38,35
s40_u39,31
s40_u40,48
s40_u41,61
s40_u42,65
s40_u43,75
s40_u44,91
s40_u45,88
s40_u46,41
s40_u47,45
s40_u48,48
s40_u49,58
s40_u50,68
s40_u51,61
s40_u52,45
s40_u53,55
s40_u54,48
s40_u55,85
s40_u56,78
s40_u57,88
s40_u58,58
s40_u59,68
s40_u60,71
s41_u31,51
s41_u32,58
s41_u33,55
s41_u34,35
s41_u35,38
s41_u36,38
s41_u37,28
s41_u38,28
s41_u39,28
s41_u40,45
s41_u41,45
s41_u42,48
s41_u43,65
s41_u44,71
s41_u45,71
s41_u46,31
s41_u47,35
s41_u48,38
s41_u49,48
s41_u50,55
s41_u51,51
s41_u52,41
s41_u53,35
s41_u54,38
s41_u55,65
s41_u56,68
s41_u57,68
s41_u58,55
s41_u59,58
s41_u60,55
