digraph FST {
rankdir = LR;
size = "8.5,11";
label = "";
center = 1;
orientation = Landscape;
ranksep = "0.4";
nodesep = "0.25";
0 [label = "0/1.6275", shape = doublecircle, style = bold, fontsize = 14]
	0 -> 0 [label = "3:3/3.3322", fontsize = 14];
	0 -> 0 [label = "4:4/3.3322", fontsize = 14];
	0 -> 0 [label = "5:5/2.9267", fontsize = 14];
	0 -> 0 [label = "6:6/3.3322", fontsize = 14];
	0 -> 0 [label = "7:7/3.3322", fontsize = 14];
	0 -> 0 [label = "8:8/3.3322", fontsize = 14];
	0 -> 0 [label = "9:9/3.3322", fontsize = 14];
	0 -> 0 [label = "10:10/3.3322", fontsize = 14];
	0 -> 0 [label = "11:11/3.3322", fontsize = 14];
	0 -> 0 [label = "12:12/3.3322", fontsize = 14];
	0 -> 0 [label = "13:13/3.3322", fontsize = 14];
	0 -> 0 [label = "14:14/3.3322", fontsize = 14];
	0 -> 0 [label = "15:15/3.3322", fontsize = 14];
	0 -> 0 [label = "16:16/3.3322", fontsize = 14];
	0 -> 0 [label = "17:17/3.3322", fontsize = 14];
	0 -> 0 [label = "18:18/3.3322", fontsize = 14];
	0 -> 0 [label = "19:19/3.3322", fontsize = 14];
	0 -> 0 [label = "20:20/3.3322", fontsize = 14];
	0 -> 0 [label = "21:21/3.3322", fontsize = 14];
	0 -> 0 [label = "22:22/2.2336", fontsize = 14];
}
