%!PS-Adobe-3.0
%%Creator: graphviz version 2.40.1 (20161225.0304)
%%Title: FST
%%Pages: (atend)
%%BoundingBox: (atend)
%%EndComments
save
%%BeginProlog
/DotDict 200 dict def
DotDict begin

/setupLatin1 {
mark
/EncodingVector 256 array def
 EncodingVector 0

ISOLatin1Encoding 0 255 getinterval putinterval
EncodingVector 45 /hyphen put

% Set up ISO Latin 1 character encoding
/starnetISO {
        dup dup findfont dup length dict begin
        { 1 index /FID ne { def }{ pop pop } ifelse
        } forall
        /Encoding EncodingVector def
        currentdict end definefont
} def
/Times-Roman starnetISO def
/Times-Italic starnetISO def
/Times-Bold starnetISO def
/Times-BoldItalic starnetISO def
/Helvetica starnetISO def
/Helvetica-Oblique starnetISO def
/Helvetica-Bold starnetISO def
/Helvetica-BoldOblique starnetISO def
/Courier starnetISO def
/Courier-Oblique starnetISO def
/Courier-Bold starnetISO def
/Courier-BoldOblique starnetISO def
cleartomark
} bind def

%%BeginResource: procset graphviz 0 0
/coord-font-family /Times-Roman def
/default-font-family /Times-Roman def
/coordfont coord-font-family findfont 8 scalefont def

/InvScaleFactor 1.0 def
/set_scale {
       dup 1 exch div /InvScaleFactor exch def
       scale
} bind def

% styles
/solid { [] 0 setdash } bind def
/dashed { [9 InvScaleFactor mul dup ] 0 setdash } bind def
/dotted { [1 InvScaleFactor mul 6 InvScaleFactor mul] 0 setdash } bind def
/invis {/fill {newpath} def /stroke {newpath} def /show {pop newpath} def} bind def
/bold { 2 setlinewidth } bind def
/filled { } bind def
/unfilled { } bind def
/rounded { } bind def
/diagonals { } bind def
/tapered { } bind def

% hooks for setting color 
/nodecolor { sethsbcolor } bind def
/edgecolor { sethsbcolor } bind def
/graphcolor { sethsbcolor } bind def
/nopcolor {pop pop pop} bind def

/beginpage {	% i j npages
	/npages exch def
	/j exch def
	/i exch def
	/str 10 string def
	npages 1 gt {
		gsave
			coordfont setfont
			0 0 moveto
			(\() show i str cvs show (,) show j str cvs show (\)) show
		grestore
	} if
} bind def

/set_font {
	findfont exch
	scalefont setfont
} def

% draw text fitted to its expected width
/alignedtext {			% width text
	/text exch def
	/width exch def
	gsave
		width 0 gt {
			[] 0 setdash
			text stringwidth pop width exch sub text length div 0 text ashow
		} if
	grestore
} def

/boxprim {				% xcorner ycorner xsize ysize
		4 2 roll
		moveto
		2 copy
		exch 0 rlineto
		0 exch rlineto
		pop neg 0 rlineto
		closepath
} bind def

/ellipse_path {
	/ry exch def
	/rx exch def
	/y exch def
	/x exch def
	matrix currentmatrix
	newpath
	x y translate
	rx ry scale
	0 0 1 0 360 arc
	setmatrix
} bind def

/endpage { showpage } bind def
/showpage { } def

/layercolorseq
	[	% layer color sequence - darkest to lightest
		[0 0 0]
		[.2 .8 .8]
		[.4 .8 .8]
		[.6 .8 .8]
		[.8 .8 .8]
	]
def

/layerlen layercolorseq length def

/setlayer {/maxlayer exch def /curlayer exch def
	layercolorseq curlayer 1 sub layerlen mod get
	aload pop sethsbcolor
	/nodecolor {nopcolor} def
	/edgecolor {nopcolor} def
	/graphcolor {nopcolor} def
} bind def

/onlayer { curlayer ne {invis} if } def

/onlayers {
	/myupper exch def
	/mylower exch def
	curlayer mylower lt
	curlayer myupper gt
	or
	{invis} if
} def

/curlayer 0 def

%%EndResource
%%EndProlog
%%BeginSetup
14 default-font-family set_font
% /arrowlength 10 def
% /arrowwidth 5 def

% make sure pdfmark is harmless for PS-interpreters other than Distiller
/pdfmark where {pop} {userdict /pdfmark /cleartomark load put} ifelse
% make '<<' and '>>' safe on PS Level 1 devices
/languagelevel where {pop languagelevel}{1} ifelse
2 lt {
    userdict (<<) cvn ([) cvn load put
    userdict (>>) cvn ([) cvn load put
} if

%%EndSetup
setupLatin1
%%Page: 1 1
%%PageBoundingBox: 36 346 796 446
%%PageOrientation: Landscape
0 0 1 beginpage
gsave
36 346 760 100 boxprim clip newpath
1 1 set_scale 90 rotate 349.754 -792.493 translate
% 0
gsave
2 setlinewidth
bold
0 0 0 nodecolor
46.2463 46.2463 42.4724 42.4724 ellipse_path stroke
2 setlinewidth
bold
0 0 0 nodecolor
46.2463 46.2463 46.4938 46.4938 ellipse_path stroke
0 0 0 nodecolor
14 /Times-Roman set_font
21.7463 42.5463 moveto 49 (0/1.6275) alignedtext
grestore
% 0->0
gsave
1 setlinewidth
0 0 0 edgecolor
newpath 44.7866 92.7363 moveto
44.9238 103.01 45.4103 110.4925 46.2463 110.4925 curveto
46.7687 110.4925 47.1547 107.5697 47.4042 102.8693 curveto
stroke
0 0 0 edgecolor
newpath 50.9066 102.836 moveto
47.7059 92.7363 lineto
43.9097 102.6277 lineto
closepath fill
1 setlinewidth
solid
0 0 0 edgecolor
newpath 50.9066 102.836 moveto
47.7059 92.7363 lineto
43.9097 102.6277 lineto
closepath stroke
0 0 0 edgecolor
14 /Times-Roman set_font
16.7463 114.2925 moveto 59 (3:3/3.3322) alignedtext
grestore
% 0->0
gsave
1 setlinewidth
0 0 0 edgecolor
newpath 43.2726 92.7492 moveto
43.0675 112.0941 44.0588 128.4925 46.2463 128.4925 curveto
48.0407 128.4925 49.0301 117.4578 49.2146 102.8138 curveto
stroke
0 0 0 edgecolor
newpath 52.7145 102.751 moveto
49.2199 92.7492 lineto
45.7145 102.7473 lineto
closepath fill
1 setlinewidth
solid
0 0 0 edgecolor
newpath 52.7145 102.751 moveto
49.2199 92.7492 lineto
45.7145 102.7473 lineto
closepath stroke
0 0 0 edgecolor
14 /Times-Roman set_font
16.7463 132.2925 moveto 59 (4:4/3.3322) alignedtext
grestore
% 0->0
gsave
1 setlinewidth
0 0 0 edgecolor
newpath 42.0364 92.3892 moveto
41.0812 120.2233 42.4845 146.4925 46.2463 146.4925 curveto
49.5524 146.4925 51.0368 126.2002 50.6994 102.3881 curveto
stroke
0 0 0 edgecolor
newpath 54.1984 102.3011 moveto
50.4561 92.3892 lineto
47.2005 102.4714 lineto
closepath fill
1 setlinewidth
solid
0 0 0 edgecolor
newpath 54.1984 102.3011 moveto
50.4561 92.3892 lineto
47.2005 102.4714 lineto
closepath stroke
0 0 0 edgecolor
14 /Times-Roman set_font
16.7463 150.2925 moveto 59 (5:5/2.9267) alignedtext
grestore
% 0->0
gsave
1 setlinewidth
0 0 0 edgecolor
newpath 41.0212 92.368 moveto
39.0671 128.0746 40.8088 164.4925 46.2463 164.4925 curveto
51.174 164.4925 53.0664 134.5829 51.9235 102.3987 curveto
stroke
0 0 0 edgecolor
newpath 55.4182 102.2002 moveto
51.4713 92.368 lineto
48.4253 102.5155 lineto
closepath fill
1 setlinewidth
solid
0 0 0 edgecolor
newpath 55.4182 102.2002 moveto
51.4713 92.368 lineto
48.4253 102.5155 lineto
closepath stroke
0 0 0 edgecolor
14 /Times-Roman set_font
16.7463 168.2925 moveto 59 (6:6/3.3322) alignedtext
grestore
% 0->0
gsave
1 setlinewidth
0 0 0 edgecolor
newpath 40.1818 92.3117 moveto
37.0373 135.5692 39.0588 182.4925 46.2463 182.4925 curveto
52.8722 182.4925 55.1078 142.6145 52.9531 102.4932 curveto
stroke
0 0 0 edgecolor
newpath 56.4336 102.0714 moveto
52.3107 92.3117 lineto
49.4474 102.5123 lineto
closepath fill
1 setlinewidth
solid
0 0 0 edgecolor
newpath 56.4336 102.0714 moveto
52.3107 92.3117 lineto
49.4474 102.5123 lineto
closepath stroke
0 0 0 edgecolor
14 /Times-Roman set_font
16.7463 186.2925 moveto 59 (7:7/3.3322) alignedtext
grestore
% 0->0
gsave
1 setlinewidth
0 0 0 edgecolor
newpath 39.4963 92.0381 moveto
34.9963 142.6502 37.2463 200.4925 46.2463 200.4925 curveto
54.6486 200.4925 57.1677 150.0773 53.8034 102.1976 curveto
stroke
0 0 0 edgecolor
newpath 57.2774 101.7295 moveto
52.9963 92.0381 lineto
50.2994 102.2839 lineto
closepath fill
1 setlinewidth
solid
0 0 0 edgecolor
newpath 57.2774 101.7295 moveto
52.9963 92.0381 lineto
50.2994 102.2839 lineto
closepath stroke
0 0 0 edgecolor
14 /Times-Roman set_font
16.7463 204.2925 moveto 59 (8:8/3.3322) alignedtext
grestore
% 0->0
gsave
1 setlinewidth
0 0 0 edgecolor
newpath 38.8865 92.1091 moveto
32.9649 149.8001 35.4181 218.4925 46.2463 218.4925 curveto
56.4399 218.4925 59.2114 157.6141 54.5606 102.3474 curveto
stroke
0 0 0 edgecolor
newpath 58.0194 101.741 moveto
53.606 92.1091 lineto
51.0496 102.3909 lineto
closepath fill
1 setlinewidth
solid
0 0 0 edgecolor
newpath 58.0194 101.741 moveto
53.606 92.1091 lineto
51.0496 102.3909 lineto
closepath stroke
0 0 0 edgecolor
14 /Times-Roman set_font
16.7463 222.2925 moveto 59 (9:9/3.3322) alignedtext
grestore
% 0->0
gsave
1 setlinewidth
0 0 0 edgecolor
newpath 38.3661 92.0993 moveto
30.932 156.7413 33.5588 236.4925 46.2463 236.4925 curveto
58.2895 236.4925 61.2677 164.6354 55.1811 102.0516 curveto
stroke
0 0 0 edgecolor
newpath 58.6608 101.6747 moveto
54.1264 92.0993 lineto
51.6998 102.4125 lineto
closepath fill
1 setlinewidth
solid
0 0 0 edgecolor
newpath 58.6608 101.6747 moveto
54.1264 92.0993 lineto
51.6998 102.4125 lineto
closepath stroke
0 0 0 edgecolor
14 /Times-Roman set_font
9.7463 240.2925 moveto 73 (10:10/3.3322) alignedtext
grestore
% 0->0
gsave
1 setlinewidth
0 0 0 edgecolor
newpath 37.954 91.7576 moveto
28.8923 163.2826 31.6564 254.4925 46.2463 254.4925 curveto
60.1522 254.4925 63.3151 171.6331 55.7349 101.9341 curveto
stroke
0 0 0 edgecolor
newpath 59.1822 101.2805 moveto
54.5385 91.7576 lineto
52.2301 102.0978 lineto
closepath fill
1 setlinewidth
solid
0 0 0 edgecolor
newpath 59.1822 101.2805 moveto
54.5385 91.7576 lineto
52.2301 102.0978 lineto
closepath stroke
0 0 0 edgecolor
14 /Times-Roman set_font
9.7463 258.2925 moveto 73 (11:11/3.3322) alignedtext
grestore
% 0->0
gsave
1 setlinewidth
0 0 0 edgecolor
newpath 37.5533 91.778 moveto
26.8642 170.0276 29.7619 272.4925 46.2463 272.4925 curveto
62.0223 272.4925 65.3542 178.644 56.2418 101.989 curveto
stroke
0 0 0 edgecolor
newpath 59.6766 101.2547 moveto
54.9392 91.778 lineto
52.7329 102.1406 lineto
closepath fill
1 setlinewidth
solid
0 0 0 edgecolor
newpath 59.6766 101.2547 moveto
54.9392 91.778 lineto
52.7329 102.1406 lineto
closepath stroke
0 0 0 edgecolor
14 /Times-Roman set_font
9.7463 276.2925 moveto 73 (12:12/3.3322) alignedtext
grestore
% 0->0
gsave
1 setlinewidth
0 0 0 edgecolor
newpath 37.1946 91.8136 moveto
24.8384 176.7077 27.8556 290.4925 46.2463 290.4925 curveto
63.9185 290.4925 67.3949 185.4235 56.6755 101.8858 curveto
stroke
0 0 0 edgecolor
newpath 60.1208 101.247 moveto
55.2979 91.8136 lineto
53.1854 102.1956 lineto
closepath fill
1 setlinewidth
solid
0 0 0 edgecolor
newpath 60.1208 101.247 moveto
55.2979 91.8136 lineto
53.1854 102.1956 lineto
closepath stroke
0 0 0 edgecolor
14 /Times-Roman set_font
9.7463 294.2925 moveto 73 (13:13/3.3322) alignedtext
grestore
% 0->0
gsave
1 setlinewidth
0 0 0 edgecolor
newpath 36.8997 91.6734 moveto
22.8104 183.1621 25.9259 308.4925 46.2463 308.4925 curveto
65.8323 308.4925 69.4345 192.0556 57.0527 101.7157 curveto
stroke
0 0 0 edgecolor
newpath 60.4951 101.0659 moveto
55.5928 91.6734 lineto
53.5679 102.0729 lineto
closepath fill
1 setlinewidth
solid
0 0 0 edgecolor
newpath 60.4951 101.0659 moveto
55.5928 91.6734 lineto
53.5679 102.0729 lineto
closepath stroke
0 0 0 edgecolor
14 /Times-Roman set_font
9.7463 312.2925 moveto 73 (14:14/3.3322) alignedtext
grestore
% 0->0
gsave
1 setlinewidth
0 0 0 edgecolor
newpath 36.6022 91.7586 moveto
20.7894 189.7647 24.0041 326.4925 46.2463 326.4925 curveto
67.7282 326.4925 71.4611 198.9516 57.4451 101.9368 curveto
stroke
0 0 0 edgecolor
newpath 60.8603 101.1154 moveto
55.8903 91.7586 lineto
53.9406 102.1725 lineto
closepath fill
1 setlinewidth
solid
0 0 0 edgecolor
newpath 60.8603 101.1154 moveto
55.8903 91.7586 lineto
53.9406 102.1725 lineto
closepath stroke
0 0 0 edgecolor
14 /Times-Roman set_font
9.7463 330.2925 moveto 73 (15:15/3.3322) alignedtext
grestore
% 0->0
gsave
1 setlinewidth
0 0 0 edgecolor
newpath 36.3917 91.4804 moveto
18.7622 195.9775 22.047 344.4925 46.2463 344.4925 curveto
69.6892 344.4925 73.5046 205.1146 57.6923 101.4 curveto
stroke
0 0 0 edgecolor
newpath 61.1408 100.7996 moveto
56.1008 91.4804 lineto
54.2292 101.9086 lineto
closepath fill
1 setlinewidth
solid
0 0 0 edgecolor
newpath 61.1408 100.7996 moveto
56.1008 91.4804 lineto
54.2292 101.9086 lineto
closepath stroke
0 0 0 edgecolor
14 /Times-Roman set_font
9.7463 348.2925 moveto 73 (16:16/3.3322) alignedtext
grestore
% 0->0
gsave
1 setlinewidth
0 0 0 edgecolor
newpath 36.1402 91.59 moveto
16.7448 202.5132 20.1134 362.4925 46.2463 362.4925 curveto
71.6135 362.4925 75.5308 211.7496 57.9984 101.4601 curveto
stroke
0 0 0 edgecolor
newpath 61.4497 100.878 moveto
56.3523 91.59 lineto
54.5451 102.0295 lineto
closepath fill
1 setlinewidth
solid
0 0 0 edgecolor
newpath 61.4497 100.878 moveto
56.3523 91.59 lineto
54.5451 102.0295 lineto
closepath stroke
0 0 0 edgecolor
14 /Times-Roman set_font
9.7463 366.2925 moveto 73 (17:17/3.3322) alignedtext
grestore
% 0->0
gsave
1 setlinewidth
0 0 0 edgecolor
newpath 35.958 91.4205 moveto
14.7231 208.7433 18.1525 380.4925 46.2463 380.4925 curveto
73.5444 380.4925 77.5554 218.3335 58.2793 101.5141 curveto
stroke
0 0 0 edgecolor
newpath 61.6868 100.6781 moveto
56.5345 91.4205 lineto
54.7891 101.8705 lineto
closepath fill
1 setlinewidth
solid
0 0 0 edgecolor
newpath 61.6868 100.6781 moveto
56.5345 91.4205 lineto
54.7891 101.8705 lineto
closepath stroke
0 0 0 edgecolor
14 /Times-Roman set_font
9.7463 384.2925 moveto 73 (18:18/3.3322) alignedtext
grestore
% 0->0
gsave
1 setlinewidth
0 0 0 edgecolor
newpath 35.7702 91.3854 moveto
12.7054 215.0701 16.1974 398.4925 46.2463 398.4925 curveto
75.5028 398.4925 79.5845 224.6153 58.4913 101.2892 curveto
stroke
0 0 0 edgecolor
newpath 61.9262 100.6141 moveto
56.7223 91.3854 lineto
55.0353 101.845 lineto
closepath fill
1 setlinewidth
solid
0 0 0 edgecolor
newpath 61.9262 100.6141 moveto
56.7223 91.3854 lineto
55.0353 101.845 lineto
closepath stroke
0 0 0 edgecolor
14 /Times-Roman set_font
9.7463 402.2925 moveto 73 (19:19/3.3322) alignedtext
grestore
% 0->0
gsave
1 setlinewidth
0 0 0 edgecolor
newpath 35.5614 91.543 moveto
10.6924 221.5609 14.2541 416.4925 46.2463 416.4925 curveto
77.4261 416.4925 81.6009 231.3341 58.7705 101.568 curveto
stroke
0 0 0 edgecolor
newpath 62.1784 100.7472 moveto
56.9311 91.543 lineto
55.2933 102.0105 lineto
closepath fill
1 setlinewidth
solid
0 0 0 edgecolor
newpath 62.1784 100.7472 moveto
56.9311 91.543 lineto
55.2933 102.0105 lineto
closepath stroke
0 0 0 edgecolor
14 /Times-Roman set_font
9.7463 420.2925 moveto 73 (20:20/3.3322) alignedtext
grestore
% 0->0
gsave
1 setlinewidth
0 0 0 edgecolor
newpath 35.4032 91.504 moveto
8.6768 227.8316 12.2912 434.4925 46.2463 434.4925 curveto
79.3723 434.4925 83.6211 237.7993 58.9926 101.6107 curveto
stroke
0 0 0 edgecolor
newpath 62.3796 100.6836 moveto
57.0893 91.504 lineto
55.5005 101.9791 lineto
closepath fill
1 setlinewidth
solid
0 0 0 edgecolor
newpath 62.3796 100.6836 moveto
57.0893 91.504 lineto
55.5005 101.9791 lineto
closepath stroke
0 0 0 edgecolor
14 /Times-Roman set_font
9.7463 438.2925 moveto 73 (21:21/3.3322) alignedtext
grestore
% 0->0
gsave
1 setlinewidth
0 0 0 edgecolor
newpath 35.2965 91.2705 moveto
6.6588 233.8806 10.3088 452.4925 46.2463 452.4925 curveto
81.3415 452.4925 85.6448 244.0079 59.1563 101.4192 curveto
stroke
0 0 0 edgecolor
newpath 62.5291 100.4251 moveto
57.196 91.2705 lineto
55.6562 101.7528 lineto
closepath fill
1 setlinewidth
solid
0 0 0 edgecolor
newpath 62.5291 100.4251 moveto
57.196 91.2705 lineto
55.6562 101.7528 lineto
closepath stroke
0 0 0 edgecolor
14 /Times-Roman set_font
9.7463 456.2925 moveto 73 (22:22/2.2336) alignedtext
grestore
endpage
showpage
grestore
%%PageTrailer
%%EndPage: 1
%%Trailer
%%Pages: 1
%%BoundingBox: 36 346 796 446
end
restore
%%EOF
