%!PS-Adobe-3.0
%%Creator: graphviz version 2.40.1 (20161225.0304)
%%Title: FST
%%Pages: (atend)
%%BoundingBox: (atend)
%%EndComments
save
%%BeginProlog
/DotDict 200 dict def
DotDict begin

/setupLatin1 {
mark
/EncodingVector 256 array def
 EncodingVector 0

ISOLatin1Encoding 0 255 getinterval putinterval
EncodingVector 45 /hyphen put

% Set up ISO Latin 1 character encoding
/starnetISO {
        dup dup findfont dup length dict begin
        { 1 index /FID ne { def }{ pop pop } ifelse
        } forall
        /Encoding EncodingVector def
        currentdict end definefont
} def
/Times-Roman starnetISO def
/Times-Italic starnetISO def
/Times-Bold starnetISO def
/Times-BoldItalic starnetISO def
/Helvetica starnetISO def
/Helvetica-Oblique starnetISO def
/Helvetica-Bold starnetISO def
/Helvetica-BoldOblique starnetISO def
/Courier starnetISO def
/Courier-Oblique starnetISO def
/Courier-Bold starnetISO def
/Courier-BoldOblique starnetISO def
cleartomark
} bind def

%%BeginResource: procset graphviz 0 0
/coord-font-family /Times-Roman def
/default-font-family /Times-Roman def
/coordfont coord-font-family findfont 8 scalefont def

/InvScaleFactor 1.0 def
/set_scale {
       dup 1 exch div /InvScaleFactor exch def
       scale
} bind def

% styles
/solid { [] 0 setdash } bind def
/dashed { [9 InvScaleFactor mul dup ] 0 setdash } bind def
/dotted { [1 InvScaleFactor mul 6 InvScaleFactor mul] 0 setdash } bind def
/invis {/fill {newpath} def /stroke {newpath} def /show {pop newpath} def} bind def
/bold { 2 setlinewidth } bind def
/filled { } bind def
/unfilled { } bind def
/rounded { } bind def
/diagonals { } bind def
/tapered { } bind def

% hooks for setting color 
/nodecolor { sethsbcolor } bind def
/edgecolor { sethsbcolor } bind def
/graphcolor { sethsbcolor } bind def
/nopcolor {pop pop pop} bind def

/beginpage {	% i j npages
	/npages exch def
	/j exch def
	/i exch def
	/str 10 string def
	npages 1 gt {
		gsave
			coordfont setfont
			0 0 moveto
			(\() show i str cvs show (,) show j str cvs show (\)) show
		grestore
	} if
} bind def

/set_font {
	findfont exch
	scalefont setfont
} def

% draw text fitted to its expected width
/alignedtext {			% width text
	/text exch def
	/width exch def
	gsave
		width 0 gt {
			[] 0 setdash
			text stringwidth pop width exch sub text length div 0 text ashow
		} if
	grestore
} def

/boxprim {				% xcorner ycorner xsize ysize
		4 2 roll
		moveto
		2 copy
		exch 0 rlineto
		0 exch rlineto
		pop neg 0 rlineto
		closepath
} bind def

/ellipse_path {
	/ry exch def
	/rx exch def
	/y exch def
	/x exch def
	matrix currentmatrix
	newpath
	x y translate
	rx ry scale
	0 0 1 0 360 arc
	setmatrix
} bind def

/endpage { showpage } bind def
/showpage { } def

/layercolorseq
	[	% layer color sequence - darkest to lightest
		[0 0 0]
		[.2 .8 .8]
		[.4 .8 .8]
		[.6 .8 .8]
		[.8 .8 .8]
	]
def

/layerlen layercolorseq length def

/setlayer {/maxlayer exch def /curlayer exch def
	layercolorseq curlayer 1 sub layerlen mod get
	aload pop sethsbcolor
	/nodecolor {nopcolor} def
	/edgecolor {nopcolor} def
	/graphcolor {nopcolor} def
} bind def

/onlayer { curlayer ne {invis} if } def

/onlayers {
	/myupper exch def
	/mylower exch def
	curlayer mylower lt
	curlayer myupper gt
	or
	{invis} if
} def

/curlayer 0 def

%%EndResource
%%EndProlog
%%BeginSetup
14 default-font-family set_font
% /arrowlength 10 def
% /arrowwidth 5 def

% make sure pdfmark is harmless for PS-interpreters other than Distiller
/pdfmark where {pop} {userdict /pdfmark /cleartomark load put} ifelse
% make '<<' and '>>' safe on PS Level 1 devices
/languagelevel where {pop languagelevel}{1} ifelse
2 lt {
    userdict (<<) cvn ([) cvn load put
    userdict (>>) cvn ([) cvn load put
} if

%%EndSetup
setupLatin1
%%Page: 1 1
%%PageBoundingBox: 36 164 828 628
%%PageOrientation: Landscape
0 0 1 beginpage
gsave
36 164 792 464 boxprim clip newpath
0.329451 0.329451 set_scale 90 rotate 501.5 -2509.27 translate
% 0
gsave
2 setlinewidth
bold
0 0 0 nodecolor
18 18 18 18 ellipse_path stroke
0 0 0 nodecolor
14 /Times-Roman set_font
14.5 14.3 moveto 7 (0) alignedtext
grestore
% 1
gsave
1 setlinewidth
solid
0 0 0 nodecolor
154 1299 18 18 ellipse_path stroke
1 setlinewidth
solid
0 0 0 nodecolor
154 1299 22 22 ellipse_path stroke
0 0 0 nodecolor
14 /Times-Roman set_font
150.5 1295.3 moveto 7 (1) alignedtext
grestore
% 0->1
gsave
1 setlinewidth
0 0 0 edgecolor
newpath 19.9225 36.1086 moveto
34.7686 175.9457 131.0981 1083.284 150.5712 1266.7034 curveto
stroke
0 0 0 edgecolor
newpath 147.1059 1267.2166 moveto
151.6422 1276.7912 lineto
154.0668 1266.4775 lineto
closepath fill
1 setlinewidth
solid
0 0 0 edgecolor
newpath 147.1059 1267.2166 moveto
151.6422 1276.7912 lineto
154.0668 1266.4775 lineto
closepath stroke
0 0 0 edgecolor
14 /Times-Roman set_font
51 924.8 moveto 66 (0:0/0.69315) alignedtext
grestore
% 2
gsave
1 setlinewidth
solid
0 0 0 nodecolor
1383 1392 18 18 ellipse_path stroke
0 0 0 nodecolor
14 /Times-Roman set_font
1379.5 1388.3 moveto 7 (2) alignedtext
grestore
% 0->2
gsave
1 setlinewidth
0 0 0 edgecolor
newpath 35.9601 14.5282 moveto
61.909 9.8225 111.4446 2 154 2 curveto
154 2 154 2 1225.5 2 curveto
1308.1048 2 1319.3461 63.2934 1350 140 curveto
1373.4502 198.6804 1381.5248 1183.4673 1382.8096 1363.7707 curveto
stroke
0 0 0 edgecolor
newpath 1379.3098 1363.8235 moveto
1382.88 1373.7987 lineto
1386.3097 1363.7744 lineto
closepath fill
1 setlinewidth
solid
0 0 0 edgecolor
newpath 1379.3098 1363.8235 moveto
1382.88 1373.7987 lineto
1386.3097 1363.7744 lineto
closepath stroke
0 0 0 edgecolor
14 /Times-Roman set_font
646.5 5.8 moveto 66 (0:0/0.69315) alignedtext
grestore
% 1->1
gsave
1 setlinewidth
0 0 0 edgecolor
newpath 151.8387 1321.2124 moveto
151.6617 1330.7952 152.3822 1339 154 1339 curveto
154.9859 1339 155.6385 1335.9533 155.9579 1331.4045 curveto
stroke
0 0 0 edgecolor
newpath 159.461 1331.2802 moveto
156.1613 1321.2124 lineto
152.4624 1331.1405 lineto
closepath fill
1 setlinewidth
solid
0 0 0 edgecolor
newpath 159.461 1331.2802 moveto
156.1613 1321.2124 lineto
152.4624 1331.1405 lineto
closepath stroke
0 0 0 edgecolor
14 /Times-Roman set_font
121 1342.8 moveto 66 (5:1/0.69315) alignedtext
grestore
% 1->1
gsave
1 setlinewidth
0 0 0 edgecolor
newpath 150.2661 1320.7173 moveto
148.7222 1338.5157 149.9668 1357 154 1357 curveto
157.2455 1357 158.6853 1345.031 158.3194 1331.0817 curveto
stroke
0 0 0 edgecolor
newpath 161.7924 1330.5039 moveto
157.7339 1320.7173 lineto
154.8036 1330.8988 lineto
closepath fill
1 setlinewidth
solid
0 0 0 edgecolor
newpath 161.7924 1330.5039 moveto
157.7339 1320.7173 lineto
154.8036 1330.8988 lineto
closepath stroke
0 0 0 edgecolor
14 /Times-Roman set_font
117.5 1360.8 moveto 73 (10:2/0.69315) alignedtext
grestore
% 1->1
gsave
1 setlinewidth
0 0 0 edgecolor
newpath 149.1823 1320.7844 moveto
145.7632 1345.9032 147.3691 1375 154 1375 curveto
159.7502 1375 161.7216 1353.1188 159.9141 1330.9257 curveto
stroke
0 0 0 edgecolor
newpath 163.3724 1330.3502 moveto
158.8177 1320.7844 lineto
156.4129 1331.1027 lineto
closepath fill
1 setlinewidth
solid
0 0 0 edgecolor
newpath 163.3724 1330.3502 moveto
158.8177 1320.7844 lineto
156.4129 1331.1027 lineto
closepath stroke
0 0 0 edgecolor
14 /Times-Roman set_font
117.5 1378.8 moveto 73 (82:3/0.69315) alignedtext
grestore
% 1->1
gsave
1 setlinewidth
0 0 0 edgecolor
newpath 148.4164 1320.714 moveto
142.7964 1352.815 144.6576 1393 154 1393 curveto
162.3936 1393 164.7484 1360.563 161.0644 1330.6944 curveto
stroke
0 0 0 edgecolor
newpath 164.5135 1330.092 moveto
159.5836 1320.714 lineto
157.5893 1331.1195 lineto
closepath fill
1 setlinewidth
solid
0 0 0 edgecolor
newpath 164.5135 1330.092 moveto
159.5836 1320.714 lineto
157.5893 1331.1195 lineto
closepath stroke
0 0 0 edgecolor
14 /Times-Roman set_font
117.5 1396.8 moveto 73 (78:3/0.69315) alignedtext
grestore
% 1->1
gsave
1 setlinewidth
0 0 0 edgecolor
newpath 147.9426 1320.1681 moveto
139.8186 1359.0671 141.8377 1411 154 1411 curveto
165.1171 1411 167.7595 1367.6095 161.9271 1330.4443 curveto
stroke
0 0 0 edgecolor
newpath 165.291 1329.38 moveto
160.0574 1320.1681 lineto
158.4041 1330.6332 lineto
closepath fill
1 setlinewidth
solid
0 0 0 edgecolor
newpath 165.291 1329.38 moveto
160.0574 1320.1681 lineto
158.4041 1330.6332 lineto
closepath stroke
0 0 0 edgecolor
14 /Times-Roman set_font
114.5 1414.8 moveto 79 (102:5/0.69315) alignedtext
grestore
% 1->1
gsave
1 setlinewidth
0 0 0 edgecolor
newpath 147.5088 1320.1122 moveto
136.8656 1365.575 139.0293 1429 154 1429 curveto
167.9181 1429 170.7668 1374.1806 162.5463 1329.9401 curveto
stroke
0 0 0 edgecolor
newpath 165.964 1329.1841 moveto
160.4912 1320.1122 lineto
159.1122 1330.6169 lineto
closepath fill
1 setlinewidth
solid
0 0 0 edgecolor
newpath 165.964 1329.1841 moveto
160.4912 1320.1122 lineto
159.1122 1330.6169 lineto
closepath stroke
0 0 0 edgecolor
14 /Times-Roman set_font
114.5 1432.8 moveto 79 (94:12/0.69315) alignedtext
grestore
% 1->2
gsave
1 setlinewidth
0 0 0 edgecolor
newpath 154.3924 1321.1266 moveto
157.1029 1471.3843 173.4582 2336.6712 191 2357 curveto
229.527 2401.648 262.5273 2381 321.5 2381 curveto
321.5 2381 321.5 2381 1225.5 2381 curveto
1281.8521 2381 1313.3845 2399.8353 1350 2357 curveto
1365.6229 2338.7233 1379.7552 1577.7125 1382.5143 1420.3091 curveto
stroke
0 0 0 edgecolor
newpath 1386.0185 1420.0971 moveto
1382.6932 1410.0376 lineto
1379.0195 1419.9752 lineto
closepath fill
1 setlinewidth
solid
0 0 0 edgecolor
newpath 1386.0185 1420.0971 moveto
1382.6932 1410.0376 lineto
1379.0195 1419.9752 lineto
closepath stroke
0 0 0 edgecolor
14 /Times-Roman set_font
737.5 2384.8 moveto 66 (5:1/0.69315) alignedtext
grestore
% 1->2
gsave
1 setlinewidth
0 0 0 edgecolor
newpath 154.4245 1321.2712 moveto
157.2822 1468.7596 174.1109 2299.4534 191 2319 curveto
229.5561 2363.6229 262.5273 2343 321.5 2343 curveto
321.5 2343 321.5 2343 1225.5 2343 curveto
1281.8521 2343 1313.3545 2361.8096 1350 2319 curveto
1364.9888 2301.49 1379.5683 1573.5091 1382.4765 1420.1676 curveto
stroke
0 0 0 edgecolor
newpath 1385.9764 1420.202 moveto
1382.6656 1410.1378 lineto
1378.9776 1420.07 lineto
closepath fill
1 setlinewidth
solid
0 0 0 edgecolor
newpath 1385.9764 1420.202 moveto
1382.6656 1410.1378 lineto
1378.9776 1420.07 lineto
closepath stroke
0 0 0 edgecolor
14 /Times-Roman set_font
734 2346.8 moveto 73 (10:2/0.69315) alignedtext
grestore
% 1->2
gsave
1 setlinewidth
0 0 0 edgecolor
newpath 154.058 1321.3578 moveto
154.5248 1464.1302 158.5568 2243.5049 191 2281 curveto
229.5873 2325.5959 262.5273 2305 321.5 2305 curveto
321.5 2305 321.5 2305 1225.5 2305 curveto
1281.8521 2305 1313.322 2323.7818 1350 2281 curveto
1378.655 2247.5763 1382.4446 1568.2663 1382.9305 1420.2951 curveto
stroke
0 0 0 edgecolor
newpath 1386.4307 1420.2135 moveto
1382.9611 1410.2029 lineto
1379.4307 1420.1922 lineto
closepath fill
1 setlinewidth
solid
0 0 0 edgecolor
newpath 1386.4307 1420.2135 moveto
1382.9611 1410.2029 lineto
1379.4307 1420.1922 lineto
closepath stroke
0 0 0 edgecolor
14 /Times-Roman set_font
734 2308.8 moveto 73 (82:3/0.69315) alignedtext
grestore
% 1->2
gsave
1 setlinewidth
0 0 0 edgecolor
newpath 154.0933 1321.3872 moveto
154.7717 1460.9634 159.8503 2207.0549 191 2243 curveto
229.6211 2287.5667 262.5273 2267 321.5 2267 curveto
321.5 2267 321.5 2267 1225.5 2267 curveto
1281.8521 2267 1313.2866 2285.7514 1350 2243 curveto
1377.3722 2211.126 1382.1533 1564.8113 1382.8809 1420.4349 curveto
stroke
0 0 0 edgecolor
newpath 1386.382 1420.2093 moveto
1382.9299 1410.1927 lineto
1379.382 1420.1758 lineto
closepath fill
1 setlinewidth
solid
0 0 0 edgecolor
newpath 1386.382 1420.2093 moveto
1382.9299 1410.1927 lineto
1379.382 1420.1758 lineto
closepath stroke
0 0 0 edgecolor
14 /Times-Roman set_font
734 2270.8 moveto 73 (78:3/0.69315) alignedtext
grestore
% 1->2
gsave
1 setlinewidth
0 0 0 edgecolor
newpath 154.1313 1321.3608 moveto
155.0274 1457.5312 161.1384 2170.5984 191 2205 curveto
229.6577 2249.535 262.5273 2229 321.5 2229 curveto
321.5 2229 321.5 2229 1225.5 2229 curveto
1281.8521 2229 1313.248 2247.7182 1350 2205 curveto
1376.0971 2174.6664 1381.85 1560.9758 1382.8269 1420.4809 curveto
stroke
0 0 0 edgecolor
newpath 1386.3291 1420.1519 moveto
1382.8961 1410.1287 lineto
1379.3293 1420.105 lineto
closepath fill
1 setlinewidth
solid
0 0 0 edgecolor
newpath 1386.3291 1420.1519 moveto
1382.8961 1410.1287 lineto
1379.3293 1420.105 lineto
closepath stroke
0 0 0 edgecolor
14 /Times-Roman set_font
731 2232.8 moveto 79 (102:5/0.69315) alignedtext
grestore
% 1->2
gsave
1 setlinewidth
0 0 0 edgecolor
newpath 154.125 1321.1308 moveto
154.9771 1454.3411 160.8417 2144.8227 191 2177 curveto
230.8907 2219.5612 263.1672 2191 321.5 2191 curveto
321.5 2191 321.5 2191 1225.5 2191 curveto
1294.8337 2191 1317.6495 2158.3238 1350 2097 curveto
1366.0233 2066.626 1379.2931 1548.6548 1382.3412 1420.5007 curveto
stroke
0 0 0 edgecolor
newpath 1385.8447 1420.3901 moveto
1382.5815 1410.3104 lineto
1378.8466 1420.225 lineto
closepath fill
1 setlinewidth
solid
0 0 0 edgecolor
newpath 1385.8447 1420.3901 moveto
1382.5815 1410.3104 lineto
1378.8466 1420.225 lineto
closepath stroke
0 0 0 edgecolor
14 /Times-Roman set_font
731 2194.8 moveto 79 (94:12/0.69315) alignedtext
grestore
% 47
gsave
1 setlinewidth
solid
0 0 0 nodecolor
321.5 1506 19.4965 19.4965 ellipse_path stroke
0 0 0 nodecolor
14 /Times-Roman set_font
314.5 1502.3 moveto 14 (47) alignedtext
grestore
% 1->47
gsave
1 setlinewidth
0 0 0 edgecolor
newpath 155.4359 1321.1106 moveto
158.7394 1364.7796 168.3992 1459.794 191 1482 curveto
217.4888 1508.0261 262.3637 1510.7915 291.9659 1509.2707 curveto
stroke
0 0 0 edgecolor
newpath 292.3909 1512.7495 moveto
302.1186 1508.5517 lineto
291.8963 1505.767 lineto
closepath fill
1 setlinewidth
solid
0 0 0 edgecolor
newpath 292.3909 1512.7495 moveto
302.1186 1508.5517 lineto
291.8963 1505.767 lineto
closepath stroke
0 0 0 edgecolor
14 /Times-Roman set_font
218 1513.8 moveto 25 (75:4) alignedtext
grestore
% 46
gsave
1 setlinewidth
solid
0 0 0 nodecolor
321.5 2144 19.4965 19.4965 ellipse_path stroke
0 0 0 nodecolor
14 /Times-Roman set_font
314.5 2140.3 moveto 14 (46) alignedtext
grestore
% 1->46
gsave
1 setlinewidth
0 0 0 edgecolor
newpath 154.1374 1321.0372 moveto
155.049 1450.675 161.1425 2109.3129 191 2139 curveto
217.3195 2165.1693 263.34 2159.9151 293.1039 2152.7245 curveto
stroke
0 0 0 edgecolor
newpath 294.1144 2156.0778 moveto
302.8948 2150.1486 lineto
292.3334 2149.3082 lineto
closepath fill
1 setlinewidth
solid
0 0 0 edgecolor
newpath 294.1144 2156.0778 moveto
302.8948 2150.1486 lineto
292.3334 2149.3082 lineto
closepath stroke
0 0 0 edgecolor
14 /Times-Roman set_font
218 2161.8 moveto 25 (67:4) alignedtext
grestore
% 55
gsave
1 setlinewidth
solid
0 0 0 nodecolor
321.5 2087 19.4965 19.4965 ellipse_path stroke
0 0 0 nodecolor
14 /Times-Roman set_font
314.5 2083.3 moveto 14 (55) alignedtext
grestore
% 1->55
gsave
1 setlinewidth
0 0 0 edgecolor
newpath 154.3069 1321.3439 moveto
156.0926 1444.3363 165.9463 2034.3572 191 2063 curveto
203.8642 2077.7071 256.984 2083.4614 291.359 2085.6701 curveto
stroke
0 0 0 edgecolor
newpath 291.6019 2089.1898 moveto
301.7863 2086.2695 lineto
292.0037 2082.2013 lineto
closepath fill
1 setlinewidth
solid
0 0 0 edgecolor
newpath 291.6019 2089.1898 moveto
301.7863 2086.2695 lineto
292.0037 2082.2013 lineto
closepath stroke
0 0 0 edgecolor
14 /Times-Roman set_font
218 2086.8 moveto 25 (71:5) alignedtext
grestore
% 29
gsave
1 setlinewidth
solid
0 0 0 nodecolor
321.5 1109 19.4965 19.4965 ellipse_path stroke
0 0 0 nodecolor
14 /Times-Roman set_font
314.5 1105.3 moveto 14 (29) alignedtext
grestore
% 1->29
gsave
1 setlinewidth
0 0 0 edgecolor
newpath 155.6656 1276.844 moveto
159.2834 1235.082 169.337 1147.0999 191 1127 curveto
218.0267 1101.9234 262.7621 1101.2909 292.1872 1104.261 curveto
stroke
0 0 0 edgecolor
newpath 291.9265 1107.7549 moveto
302.2741 1105.4796 lineto
292.7661 1100.8054 lineto
closepath fill
1 setlinewidth
solid
0 0 0 edgecolor
newpath 291.9265 1107.7549 moveto
302.2741 1105.4796 lineto
292.7661 1100.8054 lineto
closepath stroke
0 0 0 edgecolor
14 /Times-Roman set_font
215 1130.8 moveto 31 (119:6) alignedtext
grestore
% 35
gsave
1 setlinewidth
solid
0 0 0 nodecolor
321.5 920 19.4965 19.4965 ellipse_path stroke
0 0 0 nodecolor
14 /Times-Roman set_font
314.5 916.3 moveto 14 (35) alignedtext
grestore
% 1->35
gsave
1 setlinewidth
0 0 0 edgecolor
newpath 154.7057 1276.847 moveto
157.2973 1202.0931 167.3946 962.4446 191 938 curveto
204.4755 924.0453 257.3964 920.6809 291.5677 919.9991 curveto
stroke
0 0 0 edgecolor
newpath 291.9769 923.494 moveto
301.9297 919.8619 lineto
291.8842 916.4947 lineto
closepath fill
1 setlinewidth
solid
0 0 0 edgecolor
newpath 291.9769 923.494 moveto
301.9297 919.8619 lineto
291.8842 916.4947 lineto
closepath stroke
0 0 0 edgecolor
14 /Times-Roman set_font
215 941.8 moveto 31 (119:6) alignedtext
grestore
% 18
gsave
1 setlinewidth
solid
0 0 0 nodecolor
321.5 1721 19.4965 19.4965 ellipse_path stroke
0 0 0 nodecolor
14 /Times-Roman set_font
314.5 1717.3 moveto 14 (18) alignedtext
grestore
% 1->18
gsave
1 setlinewidth
0 0 0 edgecolor
newpath 154.808 1321.0319 moveto
157.7663 1396.5677 169.0006 1641.9058 191 1669 curveto
214.2137 1697.5897 236.004 1679.8394 270 1694 curveto
278.4396 1697.5154 287.3531 1701.9225 295.3489 1706.1505 curveto
stroke
0 0 0 edgecolor
newpath 293.7714 1709.2766 moveto
304.2304 1710.9674 lineto
297.1086 1703.1233 lineto
closepath fill
1 setlinewidth
solid
0 0 0 edgecolor
newpath 293.7714 1709.2766 moveto
304.2304 1710.9674 lineto
297.1086 1703.1233 lineto
closepath stroke
0 0 0 edgecolor
14 /Times-Roman set_font
218 1697.8 moveto 25 (35:7) alignedtext
grestore
% 16
gsave
1 setlinewidth
solid
0 0 0 nodecolor
321.5 1664 19.4965 19.4965 ellipse_path stroke
0 0 0 nodecolor
14 /Times-Roman set_font
314.5 1660.3 moveto 14 (16) alignedtext
grestore
% 1->16
gsave
1 setlinewidth
0 0 0 edgecolor
newpath 155.0962 1321.1167 moveto
158.7421 1390.8179 171.3534 1602.6774 191 1626 curveto
197.6417 1633.8844 256.0245 1648.7115 292.4149 1657.329 curveto
stroke
0 0 0 edgecolor
newpath 291.9428 1660.8131 moveto
302.4776 1659.6868 lineto
293.5398 1653.9977 lineto
closepath fill
1 setlinewidth
solid
0 0 0 edgecolor
newpath 291.9428 1660.8131 moveto
302.4776 1659.6868 lineto
293.5398 1653.9977 lineto
closepath stroke
0 0 0 edgecolor
14 /Times-Roman set_font
218 1655.8 moveto 25 (35:7) alignedtext
grestore
% 25
gsave
1 setlinewidth
solid
0 0 0 nodecolor
321.5 1052 19.4965 19.4965 ellipse_path stroke
0 0 0 nodecolor
14 /Times-Roman set_font
314.5 1048.3 moveto 14 (25) alignedtext
grestore
% 1->25
gsave
1 setlinewidth
0 0 0 edgecolor
newpath 154.8588 1276.7302 moveto
157.2073 1227.7167 165.3779 1112.6605 191 1085 curveto
216.6004 1057.3628 261.7058 1051.4467 291.6004 1050.8549 curveto
stroke
0 0 0 edgecolor
newpath 291.8644 1054.3548 moveto
301.8618 1050.8473 lineto
291.8592 1047.3548 lineto
closepath fill
1 setlinewidth
solid
0 0 0 edgecolor
newpath 291.8644 1054.3548 moveto
301.8618 1050.8473 lineto
291.8592 1047.3548 lineto
closepath stroke
0 0 0 edgecolor
14 /Times-Roman set_font
218 1088.8 moveto 25 (35:8) alignedtext
grestore
% 53
gsave
1 setlinewidth
solid
0 0 0 nodecolor
321.5 610 19.4965 19.4965 ellipse_path stroke
0 0 0 nodecolor
14 /Times-Roman set_font
314.5 606.3 moveto 14 (53) alignedtext
grestore
% 1->53
gsave
1 setlinewidth
0 0 0 edgecolor
newpath 154.4967 1276.8374 moveto
157.104 1164.6631 169.8974 663.8482 191 639 curveto
215.4592 610.1995 261.5878 606.3019 291.932 607.281 curveto
stroke
0 0 0 edgecolor
newpath 291.7783 610.7777 moveto
301.9455 607.7979 lineto
292.1392 603.787 lineto
closepath fill
1 setlinewidth
solid
0 0 0 edgecolor
newpath 291.7783 610.7777 moveto
301.9455 607.7979 lineto
292.1392 603.787 lineto
closepath stroke
0 0 0 edgecolor
14 /Times-Roman set_font
218 642.8 moveto 25 (51:9) alignedtext
grestore
% 13
gsave
1 setlinewidth
solid
0 0 0 nodecolor
321.5 1241 19.4965 19.4965 ellipse_path stroke
0 0 0 nodecolor
14 /Times-Roman set_font
314.5 1237.3 moveto 14 (13) alignedtext
grestore
% 1->13
gsave
1 setlinewidth
0 0 0 edgecolor
newpath 164.8554 1279.7011 moveto
171.205 1270.3105 180.1182 1259.8178 191 1254 curveto
222.3748 1237.2259 264.0683 1236.0857 291.7946 1237.7435 curveto
stroke
0 0 0 edgecolor
newpath 291.8045 1241.2542 moveto
302.0409 1238.5216 lineto
292.3346 1234.2743 lineto
closepath fill
1 setlinewidth
solid
0 0 0 edgecolor
newpath 291.8045 1241.2542 moveto
302.0409 1238.5216 lineto
292.3346 1234.2743 lineto
closepath stroke
0 0 0 edgecolor
14 /Times-Roman set_font
215 1257.8 moveto 31 (51:10) alignedtext
grestore
% 10
gsave
1 setlinewidth
solid
0 0 0 nodecolor
321.5 1335 19.4965 19.4965 ellipse_path stroke
0 0 0 nodecolor
14 /Times-Roman set_font
314.5 1331.3 moveto 14 (10) alignedtext
grestore
% 1->10
gsave
1 setlinewidth
0 0 0 edgecolor
newpath 176.0447 1301.2093 moveto
199.5578 1303.8461 237.7735 1308.9395 270 1317 curveto
277.7943 1318.9495 286.0778 1321.5834 293.6705 1324.2341 curveto
stroke
0 0 0 edgecolor
newpath 292.5605 1327.5546 moveto
303.1547 1327.6723 lineto
294.9462 1320.9737 lineto
closepath fill
1 setlinewidth
solid
0 0 0 edgecolor
newpath 292.5605 1327.5546 moveto
303.1547 1327.6723 lineto
294.9462 1320.9737 lineto
closepath stroke
0 0 0 edgecolor
14 /Times-Roman set_font
215 1320.8 moveto 31 (51:10) alignedtext
grestore
% 3
gsave
1 setlinewidth
solid
0 0 0 nodecolor
321.5 1937 18 18 ellipse_path stroke
0 0 0 nodecolor
14 /Times-Roman set_font
318 1933.3 moveto 7 (3) alignedtext
grestore
% 1->3
gsave
1 setlinewidth
0 0 0 edgecolor
newpath 154.6843 1321.0544 moveto
158.0042 1425.1855 173.0088 1863.533 191 1886 curveto
213.858 1914.5446 236.1861 1895.0751 270 1909 curveto
279.1618 1912.7729 288.8037 1917.7259 297.2354 1922.4156 curveto
stroke
0 0 0 edgecolor
newpath 295.7337 1925.5889 moveto
306.1507 1927.5217 lineto
299.2126 1919.5146 lineto
closepath fill
1 setlinewidth
solid
0 0 0 edgecolor
newpath 295.7337 1925.5889 moveto
306.1507 1927.5217 lineto
299.2126 1919.5146 lineto
closepath stroke
0 0 0 edgecolor
14 /Times-Roman set_font
215 1912.8 moveto 31 (51:11) alignedtext
grestore
% 9
gsave
1 setlinewidth
solid
0 0 0 nodecolor
321.5 1883 18 18 ellipse_path stroke
0 0 0 nodecolor
14 /Times-Roman set_font
318 1879.3 moveto 7 (9) alignedtext
grestore
% 1->9
gsave
1 setlinewidth
0 0 0 edgecolor
newpath 154.1396 1321.2989 moveto
154.9201 1414.7212 159.9286 1771.5676 191 1810 curveto
213.991 1838.4376 240.6268 1811.217 270 1833 curveto
279.8026 1840.2696 276.6287 1847.1197 285 1856 curveto
288.756 1859.9843 293.1613 1863.7945 297.5869 1867.2316 curveto
stroke
0 0 0 edgecolor
newpath 295.8135 1870.2699 moveto
305.9571 1873.3292 lineto
299.9352 1864.612 lineto
closepath fill
1 setlinewidth
solid
0 0 0 edgecolor
newpath 295.8135 1870.2699 moveto
305.9571 1873.3292 lineto
299.9352 1864.612 lineto
closepath stroke
0 0 0 edgecolor
14 /Times-Roman set_font
215 1836.8 moveto 31 (15:13) alignedtext
grestore
% 44
gsave
1 setlinewidth
solid
0 0 0 nodecolor
321.5 352 19.4965 19.4965 ellipse_path stroke
0 0 0 nodecolor
14 /Times-Roman set_font
314.5 348.3 moveto 14 (44) alignedtext
grestore
% 1->44
gsave
1 setlinewidth
0 0 0 edgecolor
newpath 154.0853 1276.95 moveto
154.7152 1139.478 159.5487 404.6693 191 370 curveto
216.0179 342.4224 261.9946 342.6411 292.1542 346.4552 curveto
stroke
0 0 0 edgecolor
newpath 291.6999 349.926 moveto
302.1021 347.9146 lineto
292.716 343.0001 lineto
closepath fill
1 setlinewidth
solid
0 0 0 edgecolor
newpath 291.6999 349.926 moveto
302.1021 347.9146 lineto
292.716 343.0001 lineto
closepath stroke
0 0 0 edgecolor
14 /Times-Roman set_font
215 373.8 moveto 31 (15:14) alignedtext
grestore
% 49
gsave
1 setlinewidth
solid
0 0 0 nodecolor
321.5 207 19.4965 19.4965 ellipse_path stroke
0 0 0 nodecolor
14 /Times-Roman set_font
314.5 203.3 moveto 14 (49) alignedtext
grestore
% 1->49
gsave
1 setlinewidth
0 0 0 edgecolor
newpath 154.3761 1276.5297 moveto
156.9782 1123.9393 172.7406 245.2365 191 225 curveto
215.9438 197.3553 261.9407 197.5923 292.1247 201.4286 curveto
stroke
0 0 0 edgecolor
newpath 291.6778 204.9004 moveto
302.0813 202.8958 lineto
292.6984 197.9752 lineto
closepath fill
1 setlinewidth
solid
0 0 0 edgecolor
newpath 291.6778 204.9004 moveto
302.0813 202.8958 lineto
292.6984 197.9752 lineto
closepath stroke
0 0 0 edgecolor
14 /Times-Roman set_font
215 228.8 moveto 31 (39:15) alignedtext
grestore
% 51
gsave
1 setlinewidth
solid
0 0 0 nodecolor
321.5 49 19.4965 19.4965 ellipse_path stroke
0 0 0 nodecolor
14 /Times-Roman set_font
314.5 45.3 moveto 14 (51) alignedtext
grestore
% 1->51
gsave
1 setlinewidth
0 0 0 edgecolor
newpath 154.2884 1276.9104 moveto
156.4669 1113.5656 170.8 98.8765 191 75 curveto
215.2919 46.2868 261.466 43.5789 291.8655 45.4125 curveto
stroke
0 0 0 edgecolor
newpath 291.6513 48.9064 moveto
301.8986 46.2153 lineto
292.2097 41.9288 lineto
closepath fill
1 setlinewidth
solid
0 0 0 edgecolor
newpath 291.6513 48.9064 moveto
301.8986 46.2153 lineto
292.2097 41.9288 lineto
closepath stroke
0 0 0 edgecolor
14 /Times-Roman set_font
215 78.8 moveto 31 (39:15) alignedtext
grestore
% 56
gsave
1 setlinewidth
solid
0 0 0 nodecolor
321.5 1828 19.4965 19.4965 ellipse_path stroke
0 0 0 nodecolor
14 /Times-Roman set_font
314.5 1824.3 moveto 14 (56) alignedtext
grestore
% 1->56
gsave
1 setlinewidth
0 0 0 edgecolor
newpath 154.4349 1321.0447 moveto
156.2843 1405.0241 164.6484 1701.8214 191 1734 curveto
214.1693 1762.2925 242.9721 1732.3671 270 1757 curveto
283.4198 1769.2306 274.6604 1780.0744 285 1795 curveto
288.6151 1800.2185 293.207 1805.188 297.904 1809.6134 curveto
stroke
0 0 0 edgecolor
newpath 295.9272 1812.5349 moveto
305.7541 1816.4951 lineto
300.5417 1807.2712 lineto
closepath fill
1 setlinewidth
solid
0 0 0 edgecolor
newpath 295.9272 1812.5349 moveto
305.7541 1816.4951 lineto
300.5417 1807.2712 lineto
closepath stroke
0 0 0 edgecolor
14 /Times-Roman set_font
215 1760.8 moveto 31 (27:16) alignedtext
grestore
% 57
gsave
1 setlinewidth
solid
0 0 0 nodecolor
321.5 2030 19.4965 19.4965 ellipse_path stroke
0 0 0 nodecolor
14 /Times-Roman set_font
314.5 2026.3 moveto 14 (57) alignedtext
grestore
% 1->57
gsave
1 setlinewidth
0 0 0 edgecolor
newpath 154.4791 1321.3106 moveto
157.0447 1436.5775 169.837 1960.321 191 1987 curveto
213.7262 2015.6497 235.3673 1998.2586 270 2010 curveto
277.7055 2012.6124 285.9591 2015.6895 293.5515 2018.6365 curveto
stroke
0 0 0 edgecolor
newpath 292.4632 2021.9696 moveto
303.0498 2022.3856 lineto
295.0332 2015.4585 lineto
closepath fill
1 setlinewidth
solid
0 0 0 edgecolor
newpath 292.4632 2021.9696 moveto
303.0498 2022.3856 lineto
295.0332 2015.4585 lineto
closepath stroke
0 0 0 edgecolor
14 /Times-Roman set_font
215 2013.8 moveto 31 (27:17) alignedtext
grestore
% 4
gsave
1 setlinewidth
solid
0 0 0 nodecolor
321.5 665 18 18 ellipse_path stroke
0 0 0 nodecolor
14 /Times-Roman set_font
318 661.3 moveto 7 (4) alignedtext
grestore
% 1->4
gsave
1 setlinewidth
0 0 0 edgecolor
newpath 154.5443 1276.8381 moveto
157.2889 1169.0866 170.3003 704.1939 191 682 curveto
216.6763 654.4703 263.3597 655.3356 293.3731 659.4489 curveto
stroke
0 0 0 edgecolor
newpath 293.1831 662.9622 moveto
303.6066 661.0647 lineto
294.2749 656.0478 lineto
closepath fill
1 setlinewidth
solid
0 0 0 edgecolor
newpath 293.1831 662.9622 moveto
303.6066 661.0647 lineto
294.2749 656.0478 lineto
closepath stroke
0 0 0 edgecolor
14 /Times-Roman set_font
215 685.8 moveto 31 (23:18) alignedtext
grestore
% 7
gsave
1 setlinewidth
solid
0 0 0 nodecolor
321.5 808 18 18 ellipse_path stroke
0 0 0 nodecolor
14 /Times-Roman set_font
318 804.3 moveto 7 (7) alignedtext
grestore
% 1->7
gsave
1 setlinewidth
0 0 0 edgecolor
newpath 154.1223 1276.9995 moveto
154.8278 1188.0382 159.5605 858.1064 191 825 curveto
216.923 797.7026 263.5356 798.5011 293.4671 802.5374 curveto
stroke
0 0 0 edgecolor
newpath 293.2513 806.0458 moveto
303.6705 804.1249 lineto
294.3275 799.1291 lineto
closepath fill
1 setlinewidth
solid
0 0 0 edgecolor
newpath 293.2513 806.0458 moveto
303.6705 804.1249 lineto
294.3275 799.1291 lineto
closepath stroke
0 0 0 edgecolor
14 /Times-Roman set_font
215 828.8 moveto 31 (55:19) alignedtext
grestore
% 43
gsave
1 setlinewidth
solid
0 0 0 nodecolor
321.5 1449 19.4965 19.4965 ellipse_path stroke
0 0 0 nodecolor
14 /Times-Roman set_font
314.5 1445.3 moveto 14 (43) alignedtext
grestore
% 1->43
gsave
1 setlinewidth
0 0 0 edgecolor
newpath 155.7274 1321.1862 moveto
158.8 1345.5211 167.3306 1384.1477 191 1407 curveto
217.3994 1432.488 235.1167 1419.6105 270 1431 curveto
277.6376 1433.4937 285.8683 1436.3111 293.4604 1438.964 curveto
stroke
0 0 0 edgecolor
newpath 292.3747 1442.2923 moveto
302.9695 1442.3156 lineto
294.7016 1435.6904 lineto
closepath fill
1 setlinewidth
solid
0 0 0 edgecolor
newpath 292.3747 1442.2923 moveto
302.9695 1442.3156 lineto
294.7016 1435.6904 lineto
closepath stroke
0 0 0 edgecolor
14 /Times-Roman set_font
215 1434.8 moveto 31 (55:20) alignedtext
grestore
% 42
gsave
1 setlinewidth
solid
0 0 0 nodecolor
321.5 1392 19.4965 19.4965 ellipse_path stroke
0 0 0 nodecolor
14 /Times-Roman set_font
314.5 1388.3 moveto 14 (42) alignedtext
grestore
% 1->42
gsave
1 setlinewidth
0 0 0 edgecolor
newpath 169.0021 1315.1589 moveto
175.3033 1321.1618 183.0187 1327.5794 191 1332 curveto
222.9898 1349.7183 237.122 1338.99 270 1355 curveto
279.9476 1359.844 290.0218 1366.587 298.5902 1372.9915 curveto
stroke
0 0 0 edgecolor
newpath 296.549 1375.8377 moveto
306.5961 1379.2003 lineto
300.8388 1370.3062 lineto
closepath fill
1 setlinewidth
solid
0 0 0 edgecolor
newpath 296.549 1375.8377 moveto
306.5961 1379.2003 lineto
300.8388 1370.3062 lineto
closepath stroke
0 0 0 edgecolor
14 /Times-Roman set_font
215 1358.8 moveto 31 (55:20) alignedtext
grestore
% 41
gsave
1 setlinewidth
solid
0 0 0 nodecolor
321.5 863 19.4965 19.4965 ellipse_path stroke
0 0 0 nodecolor
14 /Times-Roman set_font
314.5 859.3 moveto 14 (41) alignedtext
grestore
% 1->41
gsave
1 setlinewidth
0 0 0 edgecolor
newpath 154.6397 1276.7386 moveto
157.1148 1197.3244 167.138 931.1092 191 902 curveto
192.6614 899.9732 254.6372 882.0414 292.5721 871.2116 curveto
stroke
0 0 0 edgecolor
newpath 293.9061 874.4709 moveto
302.5641 868.3644 lineto
291.9878 867.7388 lineto
closepath fill
1 setlinewidth
solid
0 0 0 edgecolor
newpath 293.9061 874.4709 moveto
302.5641 868.3644 lineto
291.9878 867.7388 lineto
closepath stroke
0 0 0 edgecolor
14 /Times-Roman set_font
215 905.8 moveto 31 (55:20) alignedtext
grestore
% 20
gsave
1 setlinewidth
solid
0 0 0 nodecolor
321.5 446 19.4965 19.4965 ellipse_path stroke
0 0 0 nodecolor
14 /Times-Roman set_font
314.5 442.3 moveto 14 (20) alignedtext
grestore
% 1->20
gsave
1 setlinewidth
0 0 0 edgecolor
newpath 154.1555 1276.9302 moveto
155.1713 1147.0978 161.7623 487.4366 191 457 curveto
216.6434 430.3051 262.45 433.1149 292.4029 438.6985 curveto
stroke
0 0 0 edgecolor
newpath 291.7751 442.1427 moveto
302.2773 440.7454 lineto
293.1959 435.2884 lineto
closepath fill
1 setlinewidth
solid
0 0 0 edgecolor
newpath 291.7751 442.1427 moveto
302.2773 440.7454 lineto
293.1959 435.2884 lineto
closepath stroke
0 0 0 edgecolor
14 /Times-Roman set_font
211.5 460.8 moveto 38 (123:21) alignedtext
grestore
% 60
gsave
1 setlinewidth
solid
0 0 0 nodecolor
321.5 503 19.4965 19.4965 ellipse_path stroke
0 0 0 nodecolor
14 /Times-Roman set_font
314.5 499.3 moveto 14 (60) alignedtext
grestore
% 1->60
gsave
1 setlinewidth
0 0 0 edgecolor
newpath 154.1607 1276.967 moveto
155.1898 1150.2442 161.7752 518.9171 191 491 curveto
218.3447 464.8788 265.1927 477.7351 294.6916 489.9668 curveto
stroke
0 0 0 edgecolor
newpath 293.4132 493.2278 moveto
303.9773 494.0338 lineto
296.2216 486.8158 lineto
closepath fill
1 setlinewidth
solid
0 0 0 edgecolor
newpath 293.4132 493.2278 moveto
303.9773 494.0338 lineto
296.2216 486.8158 lineto
closepath stroke
0 0 0 edgecolor
14 /Times-Roman set_font
211.5 494.8 moveto 38 (107:22) alignedtext
grestore
% 2->1
gsave
1 setlinewidth
0 0 0 edgecolor
newpath 1382.8303 1373.7325 moveto
1381.5318 1239.4956 1372.6059 409.5068 1350 362 curveto
1318.5254 295.8553 1298.7515 254 1225.5 254 curveto
321.5 254 321.5 254 321.5 254 curveto
260.9653 254 228.0468 245.1254 191 293 curveto
160.5503 332.3494 154.9951 1097.9045 154.1399 1266.3886 curveto
stroke
0 0 0 edgecolor
newpath 150.6389 1266.5919 moveto
154.0901 1276.6088 lineto
157.6388 1266.626 lineto
closepath fill
1 setlinewidth
solid
0 0 0 edgecolor
newpath 150.6389 1266.5919 moveto
154.0901 1276.6088 lineto
157.6388 1266.626 lineto
closepath stroke
0 0 0 edgecolor
14 /Times-Roman set_font
761.5 257.8 moveto 18 (1:0) alignedtext
grestore
% 48
gsave
1 setlinewidth
solid
0 0 0 nodecolor
503.5 1506 19.4965 19.4965 ellipse_path stroke
0 0 0 nodecolor
14 /Times-Roman set_font
496.5 1502.3 moveto 14 (48) alignedtext
grestore
% 47->48
gsave
1 setlinewidth
0 0 0 edgecolor
newpath 341.3237 1506 moveto
373.2714 1506 436.3363 1506 473.7131 1506 curveto
stroke
0 0 0 edgecolor
newpath 473.9763 1509.5001 moveto
483.9763 1506 lineto
473.9762 1502.5001 lineto
closepath fill
1 setlinewidth
solid
0 0 0 edgecolor
newpath 473.9763 1509.5001 moveto
483.9763 1506 lineto
473.9762 1502.5001 lineto
closepath stroke
0 0 0 edgecolor
14 /Times-Roman set_font
397 1509.8 moveto 31 (105:0) alignedtext
grestore
% 46->1
gsave
1 setlinewidth
0 0 0 edgecolor
newpath 304.2239 2134.8896 moveto
294.3928 2129.9767 281.7336 2124.0987 270 2120 curveto
235.9078 2108.0913 213.999 2128.8414 191 2101 curveto
166.1016 2070.8593 156.4247 1477.4129 154.4143 1331.2949 curveto
stroke
0 0 0 edgecolor
newpath 157.9126 1331.1331 moveto
154.2777 1321.1813 lineto
150.9132 1331.2277 lineto
closepath fill
1 setlinewidth
solid
0 0 0 edgecolor
newpath 157.9126 1331.1331 moveto
154.2777 1321.1813 lineto
150.9132 1331.2277 lineto
closepath stroke
0 0 0 edgecolor
14 /Times-Roman set_font
194 2123.8 moveto 73 (16:0/0.69315) alignedtext
grestore
% 46->2
gsave
1 setlinewidth
0 0 0 edgecolor
newpath 341.1556 2143.1061 moveto
374.5241 2141.6679 444.3909 2139 503.5 2139 curveto
503.5 2139 503.5 2139 1225.5 2139 curveto
1297.0324 2139 1317.7466 2100.8483 1350 2037 curveto
1378.0391 1981.4942 1382.2637 1537.8219 1382.8918 1420.418 curveto
stroke
0 0 0 edgecolor
newpath 1386.3932 1420.1158 moveto
1382.9421 1410.0988 lineto
1379.3933 1420.0816 lineto
closepath fill
1 setlinewidth
solid
0 0 0 edgecolor
newpath 1386.3932 1420.1158 moveto
1382.9421 1410.0988 lineto
1379.3933 1420.0816 lineto
closepath stroke
0 0 0 edgecolor
14 /Times-Roman set_font
828 2142.8 moveto 73 (16:0/0.69315) alignedtext
grestore
% 55->1
gsave
1 setlinewidth
0 0 0 edgecolor
newpath 306.0071 2075.1317 moveto
299.4323 2069.9824 291.7448 2063.811 285 2058 curveto
278.0912 2052.0478 278.0312 2048.3197 270 2044 curveto
238.1962 2026.8939 214.066 2052.7859 191 2025 curveto
168.5826 1997.9954 157.1848 1469.6255 154.5841 1331.7016 curveto
stroke
0 0 0 edgecolor
newpath 158.0774 1331.3061 moveto
154.3921 1321.3729 lineto
151.0786 1331.4362 lineto
closepath fill
1 setlinewidth
solid
0 0 0 edgecolor
newpath 158.0774 1331.3061 moveto
154.3921 1321.3729 lineto
151.0786 1331.4362 lineto
closepath stroke
0 0 0 edgecolor
14 /Times-Roman set_font
194 2047.8 moveto 73 (96:0/0.69315) alignedtext
grestore
% 55->2
gsave
1 setlinewidth
0 0 0 edgecolor
newpath 341.1556 2086.1061 moveto
374.5241 2084.6679 444.3909 2082 503.5 2082 curveto
503.5 2082 503.5 2082 1225.5 2082 curveto
1298.1721 2082 1317.6744 2041.0868 1350 1976 curveto
1374.8381 1925.9891 1381.3556 1530.8252 1382.6987 1420.5115 curveto
stroke
0 0 0 edgecolor
newpath 1386.2023 1420.2194 moveto
1382.8193 1410.1792 lineto
1379.2027 1420.1377 lineto
closepath fill
1 setlinewidth
solid
0 0 0 edgecolor
newpath 1386.2023 1420.2194 moveto
1382.8193 1410.1792 lineto
1379.2027 1420.1377 lineto
closepath stroke
0 0 0 edgecolor
14 /Times-Roman set_font
828 2085.8 moveto 73 (96:0/0.69315) alignedtext
grestore
% 30
gsave
1 setlinewidth
solid
0 0 0 nodecolor
503.5 1113 19.4965 19.4965 ellipse_path stroke
0 0 0 nodecolor
14 /Times-Roman set_font
496.5 1109.3 moveto 14 (30) alignedtext
grestore
% 29->30
gsave
1 setlinewidth
0 0 0 edgecolor
newpath 341.3237 1109.4357 moveto
373.2714 1110.1378 436.3363 1111.5239 473.7131 1112.3453 curveto
stroke
0 0 0 edgecolor
newpath 473.9017 1115.8502 moveto
483.9763 1112.5709 lineto
474.0556 1108.8519 lineto
closepath fill
1 setlinewidth
solid
0 0 0 edgecolor
newpath 473.9017 1115.8502 moveto
483.9763 1112.5709 lineto
474.0556 1108.8519 lineto
closepath stroke
0 0 0 edgecolor
14 /Times-Roman set_font
400 1115.8 moveto 25 (49:0) alignedtext
grestore
% 36
gsave
1 setlinewidth
solid
0 0 0 nodecolor
503.5 907 19.4965 19.4965 ellipse_path stroke
0 0 0 nodecolor
14 /Times-Roman set_font
496.5 903.3 moveto 14 (36) alignedtext
grestore
% 35->36
gsave
1 setlinewidth
0 0 0 edgecolor
newpath 340.9772 918.6088 moveto
372.7764 916.3374 436.0529 911.8177 473.5818 909.137 curveto
stroke
0 0 0 edgecolor
newpath 474.1626 912.6045 moveto
483.8878 908.4009 lineto
473.6638 905.6223 lineto
closepath fill
1 setlinewidth
solid
0 0 0 edgecolor
newpath 474.1626 912.6045 moveto
483.8878 908.4009 lineto
473.6638 905.6223 lineto
closepath stroke
0 0 0 edgecolor
14 /Times-Roman set_font
400 920.8 moveto 25 (49:0) alignedtext
grestore
% 19
gsave
1 setlinewidth
solid
0 0 0 nodecolor
503.5 1721 19.4965 19.4965 ellipse_path stroke
0 0 0 nodecolor
14 /Times-Roman set_font
496.5 1717.3 moveto 14 (19) alignedtext
grestore
% 18->19
gsave
1 setlinewidth
0 0 0 edgecolor
newpath 341.3237 1721 moveto
373.2714 1721 436.3363 1721 473.7131 1721 curveto
stroke
0 0 0 edgecolor
newpath 473.9763 1724.5001 moveto
483.9763 1721 lineto
473.9762 1717.5001 lineto
closepath fill
1 setlinewidth
solid
0 0 0 edgecolor
newpath 473.9763 1724.5001 moveto
483.9763 1721 lineto
473.9762 1717.5001 lineto
closepath stroke
0 0 0 edgecolor
14 /Times-Roman set_font
397 1724.8 moveto 31 (121:0) alignedtext
grestore
% 17
gsave
1 setlinewidth
solid
0 0 0 nodecolor
503.5 1612 19.4965 19.4965 ellipse_path stroke
0 0 0 nodecolor
14 /Times-Roman set_font
496.5 1608.3 moveto 14 (17) alignedtext
grestore
% 16->17
gsave
1 setlinewidth
0 0 0 edgecolor
newpath 340.2917 1658.6309 moveto
372.1701 1649.5228 437.044 1630.9874 474.6914 1620.231 curveto
stroke
0 0 0 edgecolor
newpath 475.8842 1623.5304 moveto
484.5379 1617.4178 lineto
473.9611 1616.7997 lineto
closepath fill
1 setlinewidth
solid
0 0 0 edgecolor
newpath 475.8842 1623.5304 moveto
484.5379 1617.4178 lineto
473.9611 1616.7997 lineto
closepath stroke
0 0 0 edgecolor
14 /Times-Roman set_font
400 1652.8 moveto 25 (61:0) alignedtext
grestore
% 26
gsave
1 setlinewidth
solid
0 0 0 nodecolor
503.5 1056 19.4965 19.4965 ellipse_path stroke
0 0 0 nodecolor
14 /Times-Roman set_font
496.5 1052.3 moveto 14 (26) alignedtext
grestore
% 25->26
gsave
1 setlinewidth
0 0 0 edgecolor
newpath 341.3237 1052.4357 moveto
373.2714 1053.1378 436.3363 1054.5239 473.7131 1055.3453 curveto
stroke
0 0 0 edgecolor
newpath 473.9017 1058.8502 moveto
483.9763 1055.5709 lineto
474.0556 1051.8519 lineto
closepath fill
1 setlinewidth
solid
0 0 0 edgecolor
newpath 473.9017 1058.8502 moveto
483.9763 1055.5709 lineto
474.0556 1051.8519 lineto
closepath stroke
0 0 0 edgecolor
14 /Times-Roman set_font
400 1058.8 moveto 25 (61:0) alignedtext
grestore
% 54
gsave
1 setlinewidth
solid
0 0 0 nodecolor
503.5 610 19.4965 19.4965 ellipse_path stroke
0 0 0 nodecolor
14 /Times-Roman set_font
496.5 606.3 moveto 14 (54) alignedtext
grestore
% 53->54
gsave
1 setlinewidth
0 0 0 edgecolor
newpath 341.3237 610 moveto
373.2714 610 436.3363 610 473.7131 610 curveto
stroke
0 0 0 edgecolor
newpath 473.9763 613.5001 moveto
483.9763 610 lineto
473.9762 606.5001 lineto
closepath fill
1 setlinewidth
solid
0 0 0 edgecolor
newpath 473.9763 613.5001 moveto
483.9763 610 lineto
473.9762 606.5001 lineto
closepath stroke
0 0 0 edgecolor
14 /Times-Roman set_font
400 613.8 moveto 25 (69:0) alignedtext
grestore
% 14
gsave
1 setlinewidth
solid
0 0 0 nodecolor
503.5 1245 19.4965 19.4965 ellipse_path stroke
0 0 0 nodecolor
14 /Times-Roman set_font
496.5 1241.3 moveto 14 (14) alignedtext
grestore
% 13->14
gsave
1 setlinewidth
0 0 0 edgecolor
newpath 341.3237 1241.4357 moveto
373.2714 1242.1378 436.3363 1243.5239 473.7131 1244.3453 curveto
stroke
0 0 0 edgecolor
newpath 473.9017 1247.8502 moveto
483.9763 1244.5709 lineto
474.0556 1240.8519 lineto
closepath fill
1 setlinewidth
solid
0 0 0 edgecolor
newpath 473.9017 1247.8502 moveto
483.9763 1244.5709 lineto
474.0556 1240.8519 lineto
closepath stroke
0 0 0 edgecolor
14 /Times-Roman set_font
397 1247.8 moveto 31 (105:0) alignedtext
grestore
% 11
gsave
1 setlinewidth
solid
0 0 0 nodecolor
503.5 1339 19.4965 19.4965 ellipse_path stroke
0 0 0 nodecolor
14 /Times-Roman set_font
496.5 1335.3 moveto 14 (11) alignedtext
grestore
% 10->11
gsave
1 setlinewidth
0 0 0 edgecolor
newpath 341.3237 1335.4357 moveto
373.2714 1336.1378 436.3363 1337.5239 473.7131 1338.3453 curveto
stroke
0 0 0 edgecolor
newpath 473.9017 1341.8502 moveto
483.9763 1338.5709 lineto
474.0556 1334.8519 lineto
closepath fill
1 setlinewidth
solid
0 0 0 edgecolor
newpath 473.9017 1341.8502 moveto
483.9763 1338.5709 lineto
474.0556 1334.8519 lineto
closepath stroke
0 0 0 edgecolor
14 /Times-Roman set_font
400 1341.8 moveto 25 (81:0) alignedtext
grestore
% 3->1
gsave
1 setlinewidth
0 0 0 edgecolor
newpath 303.6876 1941.5644 moveto
275.3373 1947.6384 220.1804 1954.3764 191 1924 curveto
170.284 1902.4349 157.8408 1456.0122 154.7572 1331.1783 curveto
stroke
0 0 0 edgecolor
newpath 158.2543 1331.0129 moveto
154.5114 1321.1012 lineto
151.2563 1331.1836 lineto
closepath fill
1 setlinewidth
solid
0 0 0 edgecolor
newpath 158.2543 1331.0129 moveto
154.5114 1321.1012 lineto
151.2563 1331.1836 lineto
closepath stroke
0 0 0 edgecolor
14 /Times-Roman set_font
194 1949.8 moveto 73 (64:0/0.69315) alignedtext
grestore
% 3->2
gsave
1 setlinewidth
0 0 0 edgecolor
newpath 339.5761 1936.0092 moveto
372.2745 1934.3051 443.4327 1931 503.5 1931 curveto
503.5 1931 503.5 1931 1225.5 1931 curveto
1303.9104 1931 1317.2084 1877.2243 1350 1806 curveto
1366.049 1771.1412 1378.2272 1507.9424 1381.8733 1420.2955 curveto
stroke
0 0 0 edgecolor
newpath 1385.3809 1420.1797 moveto
1382.2939 1410.0445 lineto
1378.3868 1419.8926 lineto
closepath fill
1 setlinewidth
solid
0 0 0 edgecolor
newpath 1385.3809 1420.1797 moveto
1382.2939 1410.0445 lineto
1378.3868 1419.8926 lineto
closepath stroke
0 0 0 edgecolor
14 /Times-Roman set_font
828 1934.8 moveto 73 (64:0/0.69315) alignedtext
grestore
% 9->1
gsave
1 setlinewidth
0 0 0 edgecolor
newpath 303.9559 1878.865 moveto
269.2074 1870.5974 194.6494 1852.4395 191 1848 curveto
174.527 1827.9605 159.3674 1446.583 155.1547 1331.563 curveto
stroke
0 0 0 edgecolor
newpath 158.6422 1331.151 moveto
154.7815 1321.2846 lineto
151.6468 1331.4051 lineto
closepath fill
1 setlinewidth
solid
0 0 0 edgecolor
newpath 158.6422 1331.151 moveto
154.7815 1321.2846 lineto
151.6468 1331.4051 lineto
closepath stroke
0 0 0 edgecolor
14 /Times-Roman set_font
191 1873.8 moveto 79 (128:0/0.69315) alignedtext
grestore
% 9->2
gsave
1 setlinewidth
0 0 0 edgecolor
newpath 339.571 1881.679 moveto
372.2614 1879.4067 443.4073 1875 503.5 1875 curveto
503.5 1875 503.5 1875 1225.5 1875 curveto
1312.4809 1875 1316.5862 1804.3069 1350 1724 curveto
1372.7053 1669.43 1380.1817 1490.8731 1382.2803 1420.6932 curveto
stroke
0 0 0 edgecolor
newpath 1385.7873 1420.4912 moveto
1382.5724 1410.3959 lineto
1378.7901 1420.2926 lineto
closepath fill
1 setlinewidth
solid
0 0 0 edgecolor
newpath 1385.7873 1420.4912 moveto
1382.5724 1410.3959 lineto
1378.7901 1420.2926 lineto
closepath stroke
0 0 0 edgecolor
14 /Times-Roman set_font
825 1878.8 moveto 79 (128:0/0.69315) alignedtext
grestore
% 45
gsave
1 setlinewidth
solid
0 0 0 nodecolor
503.5 352 19.4965 19.4965 ellipse_path stroke
0 0 0 nodecolor
14 /Times-Roman set_font
496.5 348.3 moveto 14 (45) alignedtext
grestore
% 44->45
gsave
1 setlinewidth
0 0 0 edgecolor
newpath 341.3237 352 moveto
373.2714 352 436.3363 352 473.7131 352 curveto
stroke
0 0 0 edgecolor
newpath 473.9763 355.5001 moveto
483.9763 352 lineto
473.9762 348.5001 lineto
closepath fill
1 setlinewidth
solid
0 0 0 edgecolor
newpath 473.9763 355.5001 moveto
483.9763 352 lineto
473.9762 348.5001 lineto
closepath stroke
0 0 0 edgecolor
14 /Times-Roman set_font
397 355.8 moveto 31 (129:0) alignedtext
grestore
% 50
gsave
1 setlinewidth
solid
0 0 0 nodecolor
503.5 207 19.4965 19.4965 ellipse_path stroke
0 0 0 nodecolor
14 /Times-Roman set_font
496.5 203.3 moveto 14 (50) alignedtext
grestore
% 49->50
gsave
1 setlinewidth
0 0 0 edgecolor
newpath 341.3237 207 moveto
373.2714 207 436.3363 207 473.7131 207 curveto
stroke
0 0 0 edgecolor
newpath 473.9763 210.5001 moveto
483.9763 207 lineto
473.9762 203.5001 lineto
closepath fill
1 setlinewidth
solid
0 0 0 edgecolor
newpath 473.9763 210.5001 moveto
483.9763 207 lineto
473.9762 203.5001 lineto
closepath stroke
0 0 0 edgecolor
14 /Times-Roman set_font
400 210.8 moveto 25 (93:0) alignedtext
grestore
% 52
gsave
1 setlinewidth
solid
0 0 0 nodecolor
503.5 104 19.4965 19.4965 ellipse_path stroke
0 0 0 nodecolor
14 /Times-Roman set_font
496.5 100.3 moveto 14 (52) alignedtext
grestore
% 51->52
gsave
1 setlinewidth
0 0 0 edgecolor
newpath 341.0407 50.944 moveto
367.0272 53.9636 414.0897 60.957 452 75 curveto
460.9486 78.3148 470.1921 83.0484 478.3352 87.7325 curveto
stroke
0 0 0 edgecolor
newpath 476.6112 90.7797 moveto
486.9872 92.9217 lineto
480.2117 84.7766 lineto
closepath fill
1 setlinewidth
solid
0 0 0 edgecolor
newpath 476.6112 90.7797 moveto
486.9872 92.9217 lineto
480.2117 84.7766 lineto
closepath stroke
0 0 0 edgecolor
14 /Times-Roman set_font
397 78.8 moveto 31 (129:0) alignedtext
grestore
% 56->1
gsave
1 setlinewidth
0 0 0 edgecolor
newpath 305.4869 1816.0378 moveto
295.6518 1809.1325 282.5676 1800.7119 270 1795 curveto
236.7083 1779.8691 214.0731 1800.371 191 1772 curveto
163.2957 1737.9344 156.0733 1432.4619 154.4333 1331.3431 curveto
stroke
0 0 0 edgecolor
newpath 157.9296 1331.0713 moveto
154.2755 1321.1266 lineto
150.9305 1331.1794 lineto
closepath fill
1 setlinewidth
solid
0 0 0 edgecolor
newpath 157.9296 1331.0713 moveto
154.2755 1321.1266 lineto
150.9305 1331.1794 lineto
closepath stroke
0 0 0 edgecolor
14 /Times-Roman set_font
191 1798.8 moveto 79 (128:0/0.69315) alignedtext
grestore
% 56->2
gsave
1 setlinewidth
0 0 0 edgecolor
newpath 341.1277 1825.6759 moveto
374.455 1821.9366 444.2627 1815 503.5 1815 curveto
503.5 1815 503.5 1815 1225.5 1815 curveto
1328.6994 1815 1314.116 1715.7598 1350 1619 curveto
1363.3435 1583.0197 1375.2989 1472.5625 1380.3939 1420.1558 curveto
stroke
0 0 0 edgecolor
newpath 1383.8785 1420.4823 moveto
1381.3474 1410.1942 lineto
1376.9104 1419.8152 lineto
closepath fill
1 setlinewidth
solid
0 0 0 edgecolor
newpath 1383.8785 1420.4823 moveto
1381.3474 1410.1942 lineto
1376.9104 1419.8152 lineto
closepath stroke
0 0 0 edgecolor
14 /Times-Roman set_font
825 1818.8 moveto 79 (128:0/0.69315) alignedtext
grestore
% 58
gsave
1 setlinewidth
solid
0 0 0 nodecolor
503.5 2030 19.4965 19.4965 ellipse_path stroke
0 0 0 nodecolor
14 /Times-Roman set_font
496.5 2026.3 moveto 14 (58) alignedtext
grestore
% 57->58
gsave
1 setlinewidth
0 0 0 edgecolor
newpath 341.3237 2030 moveto
373.2714 2030 436.3363 2030 473.7131 2030 curveto
stroke
0 0 0 edgecolor
newpath 473.9763 2033.5001 moveto
483.9763 2030 lineto
473.9762 2026.5001 lineto
closepath fill
1 setlinewidth
solid
0 0 0 edgecolor
newpath 473.9763 2033.5001 moveto
483.9763 2030 lineto
473.9762 2026.5001 lineto
closepath stroke
0 0 0 edgecolor
14 /Times-Roman set_font
400 2033.8 moveto 25 (73:0) alignedtext
grestore
% 5
gsave
1 setlinewidth
solid
0 0 0 nodecolor
503.5 665 18 18 ellipse_path stroke
0 0 0 nodecolor
14 /Times-Roman set_font
500 661.3 moveto 7 (5) alignedtext
grestore
% 4->5
gsave
1 setlinewidth
0 0 0 edgecolor
newpath 339.6162 665 moveto
371.3677 665 437.2829 665 475.1296 665 curveto
stroke
0 0 0 edgecolor
newpath 475.4571 668.5001 moveto
485.457 665 lineto
475.457 661.5001 lineto
closepath fill
1 setlinewidth
solid
0 0 0 edgecolor
newpath 475.4571 668.5001 moveto
485.457 665 lineto
475.457 661.5001 lineto
closepath stroke
0 0 0 edgecolor
14 /Times-Roman set_font
400 668.8 moveto 25 (69:0) alignedtext
grestore
% 8
gsave
1 setlinewidth
solid
0 0 0 nodecolor
503.5 808 18 18 ellipse_path stroke
0 0 0 nodecolor
14 /Times-Roman set_font
500 804.3 moveto 7 (8) alignedtext
grestore
% 7->8
gsave
1 setlinewidth
0 0 0 edgecolor
newpath 339.6162 808 moveto
371.3677 808 437.2829 808 475.1296 808 curveto
stroke
0 0 0 edgecolor
newpath 475.4571 811.5001 moveto
485.457 808 lineto
475.457 804.5001 lineto
closepath fill
1 setlinewidth
solid
0 0 0 edgecolor
newpath 475.4571 811.5001 moveto
485.457 808 lineto
475.457 804.5001 lineto
closepath stroke
0 0 0 edgecolor
14 /Times-Roman set_font
400 811.8 moveto 25 (93:0) alignedtext
grestore
% 43->1
gsave
1 setlinewidth
0 0 0 edgecolor
newpath 302.7153 1454.967 moveto
275.0208 1462.4924 223.0594 1471.5876 191 1446 curveto
173.28 1431.8571 162.652 1370.1615 157.5966 1331.3306 curveto
stroke
0 0 0 edgecolor
newpath 161.0247 1330.5347 moveto
156.3172 1321.0431 lineto
154.0782 1331.3986 lineto
closepath fill
1 setlinewidth
solid
0 0 0 edgecolor
newpath 161.0247 1330.5347 moveto
156.3172 1321.0431 lineto
154.0782 1331.3986 lineto
closepath stroke
0 0 0 edgecolor
14 /Times-Roman set_font
194 1466.8 moveto 73 (80:0/0.69315) alignedtext
grestore
% 43->2
gsave
1 setlinewidth
0 0 0 edgecolor
newpath 341.1587 1448.4637 moveto
374.5318 1447.6008 444.4052 1446 503.5 1446 curveto
503.5 1446 503.5 1446 1225.5 1446 curveto
1274.5367 1446 1327.7451 1422.2877 1358.0635 1406.2894 curveto
stroke
0 0 0 edgecolor
newpath 1359.9464 1409.2499 moveto
1367.0685 1401.4061 lineto
1356.6094 1403.0965 lineto
closepath fill
1 setlinewidth
solid
0 0 0 edgecolor
newpath 1359.9464 1409.2499 moveto
1367.0685 1401.4061 lineto
1356.6094 1403.0965 lineto
closepath stroke
0 0 0 edgecolor
14 /Times-Roman set_font
828 1449.8 moveto 73 (80:0/0.69315) alignedtext
grestore
% 42->1
gsave
1 setlinewidth
0 0 0 edgecolor
newpath 301.9559 1390.8203 moveto
269.9989 1388.5492 208.3749 1382.6337 191 1370 curveto
177.6642 1360.3032 168.7428 1344.3478 163.0082 1330.0162 curveto
stroke
0 0 0 edgecolor
newpath 166.2371 1328.6539 moveto
159.5321 1320.4506 lineto
159.6581 1331.0447 lineto
closepath fill
1 setlinewidth
solid
0 0 0 edgecolor
newpath 166.2371 1328.6539 moveto
159.5321 1320.4506 lineto
159.6581 1331.0447 lineto
closepath stroke
0 0 0 edgecolor
14 /Times-Roman set_font
191 1391.8 moveto 79 (120:0/0.69315) alignedtext
grestore
% 42->2
gsave
1 setlinewidth
0 0 0 edgecolor
newpath 341.1605 1392 moveto
374.5361 1392 444.4132 1392 503.5 1392 curveto
503.5 1392 503.5 1392 1225.5 1392 curveto
1270.5061 1392 1322.7463 1392 1354.3139 1392 curveto
stroke
0 0 0 edgecolor
newpath 1354.5718 1395.5001 moveto
1364.5718 1392 lineto
1354.5718 1388.5001 lineto
closepath fill
1 setlinewidth
solid
0 0 0 edgecolor
newpath 1354.5718 1395.5001 moveto
1364.5718 1392 lineto
1354.5718 1388.5001 lineto
closepath stroke
0 0 0 edgecolor
14 /Times-Roman set_font
825 1395.8 moveto 79 (120:0/0.69315) alignedtext
grestore
% 41->1
gsave
1 setlinewidth
0 0 0 edgecolor
newpath 303.1654 855.5607 moveto
275.0983 845.5263 221.5317 831.9334 191 860 curveto
161.1831 887.4095 155.3774 1169.9851 154.2615 1266.7236 curveto
stroke
0 0 0 edgecolor
newpath 150.761 1266.7597 moveto
154.1547 1276.7963 lineto
157.7606 1266.834 lineto
closepath fill
1 setlinewidth
solid
0 0 0 edgecolor
newpath 150.761 1266.7597 moveto
154.1547 1276.7963 lineto
157.7606 1266.834 lineto
closepath stroke
0 0 0 edgecolor
14 /Times-Roman set_font
194 863.8 moveto 73 (88:0/0.69315) alignedtext
grestore
% 41->2
gsave
1 setlinewidth
0 0 0 edgecolor
newpath 341.1535 861.9273 moveto
374.5188 860.2015 444.3811 857 503.5 857 curveto
503.5 857 503.5 857 1225.5 857 curveto
1301.129 857 1317.127 904.8889 1350 973 curveto
1366.9169 1008.0509 1378.5571 1275.7 1381.966 1363.9059 curveto
stroke
0 0 0 edgecolor
newpath 1378.4714 1364.1169 moveto
1382.3494 1373.9765 lineto
1385.4664 1363.8506 lineto
closepath fill
1 setlinewidth
solid
0 0 0 edgecolor
newpath 1378.4714 1364.1169 moveto
1382.3494 1373.9765 lineto
1385.4664 1363.8506 lineto
closepath stroke
0 0 0 edgecolor
14 /Times-Roman set_font
828 860.8 moveto 73 (88:0/0.69315) alignedtext
grestore
% 21
gsave
1 setlinewidth
solid
0 0 0 nodecolor
503.5 446 19.4965 19.4965 ellipse_path stroke
0 0 0 nodecolor
14 /Times-Roman set_font
496.5 442.3 moveto 14 (21) alignedtext
grestore
% 20->21
gsave
1 setlinewidth
0 0 0 edgecolor
newpath 341.3237 446 moveto
373.2714 446 436.3363 446 473.7131 446 curveto
stroke
0 0 0 edgecolor
newpath 473.9763 449.5001 moveto
483.9763 446 lineto
473.9762 442.5001 lineto
closepath fill
1 setlinewidth
solid
0 0 0 edgecolor
newpath 473.9763 449.5001 moveto
483.9763 446 lineto
473.9762 442.5001 lineto
closepath stroke
0 0 0 edgecolor
14 /Times-Roman set_font
397 449.8 moveto 31 (105:0) alignedtext
grestore
% 60->1
gsave
1 setlinewidth
0 0 0 edgecolor
newpath 301.7685 504.0463 moveto
268.9087 506.2374 205.1726 512.5471 191 529 curveto
166.5785 557.3509 156.5868 1123.9707 154.4527 1266.6217 curveto
stroke
0 0 0 edgecolor
newpath 150.9492 1266.8402 moveto
154.3018 1276.8906 lineto
157.9485 1266.9431 lineto
closepath fill
1 setlinewidth
solid
0 0 0 edgecolor
newpath 150.9492 1266.8402 moveto
154.3018 1276.8906 lineto
157.9485 1266.9431 lineto
closepath stroke
0 0 0 edgecolor
14 /Times-Roman set_font
194 532.8 moveto 73 (88:0/0.69315) alignedtext
grestore
% 60->2
gsave
1 setlinewidth
0 0 0 edgecolor
newpath 340.8504 505.6472 moveto
374.0549 509.9534 444.0543 518 503.5 518 curveto
503.5 518 503.5 518 1225.5 518 curveto
1300.8268 518 1318.308 564.6645 1350 633 curveto
1365.6358 666.7144 1379.3217 1229.5207 1382.3689 1363.5277 curveto
stroke
0 0 0 edgecolor
newpath 1378.8757 1363.8731 moveto
1382.6005 1373.7916 lineto
1385.8739 1363.7151 lineto
closepath fill
1 setlinewidth
solid
0 0 0 edgecolor
newpath 1378.8757 1363.8731 moveto
1382.6005 1373.7916 lineto
1385.8739 1363.7151 lineto
closepath stroke
0 0 0 edgecolor
14 /Times-Roman set_font
828 521.8 moveto 73 (88:0/0.69315) alignedtext
grestore
% 6
gsave
1 setlinewidth
solid
0 0 0 nodecolor
679.5 711 18 18 ellipse_path stroke
0 0 0 nodecolor
14 /Times-Roman set_font
676 707.3 moveto 7 (6) alignedtext
grestore
% 5->6
gsave
1 setlinewidth
0 0 0 edgecolor
newpath 521.7136 665.3588 moveto
546.4083 666.3189 591.6064 669.7665 628 682 curveto
637.5713 685.2173 647.3939 690.2463 655.8605 695.2187 curveto
stroke
0 0 0 edgecolor
newpath 654.0893 698.2385 moveto
664.4392 700.5037 lineto
657.761 692.2786 lineto
closepath fill
1 setlinewidth
solid
0 0 0 edgecolor
newpath 654.0893 698.2385 moveto
664.4392 700.5037 lineto
657.761 692.2786 lineto
closepath stroke
0 0 0 edgecolor
14 /Times-Roman set_font
579 685.8 moveto 25 (45:0) alignedtext
grestore
% 6->1
gsave
1 setlinewidth
0 0 0 edgecolor
newpath 661.3801 709.4767 moveto
581.0256 703.1452 257.8861 682.2811 191 750 curveto
172.7504 768.4768 158.8045 1151.7908 155.0213 1266.713 curveto
stroke
0 0 0 edgecolor
newpath 151.5145 1266.8668 moveto
154.6871 1276.9754 lineto
158.5108 1267.0947 lineto
closepath fill
1 setlinewidth
solid
0 0 0 edgecolor
newpath 151.5145 1266.8668 moveto
154.6871 1276.9754 lineto
158.5108 1267.0947 lineto
closepath stroke
0 0 0 edgecolor
14 /Times-Roman set_font
376 707.8 moveto 73 (48:0/0.69315) alignedtext
grestore
% 6->2
gsave
1 setlinewidth
0 0 0 edgecolor
newpath 696.9671 715.4367 moveto
729.6325 723.3319 802.2934 739 864.5 739 curveto
864.5 739 864.5 739 1225.5 739 curveto
1286.3568 739 1315.719 745.7171 1350 796 curveto
1366.1525 819.6923 1379.0448 1248.0293 1382.2381 1363.5162 curveto
stroke
0 0 0 edgecolor
newpath 1378.7442 1363.7912 moveto
1382.5166 1373.6917 lineto
1385.7416 1363.5996 lineto
closepath fill
1 setlinewidth
solid
0 0 0 edgecolor
newpath 1378.7442 1363.7912 moveto
1382.5166 1373.6917 lineto
1385.7416 1363.5996 lineto
closepath stroke
0 0 0 edgecolor
14 /Times-Roman set_font
1010 742.8 moveto 73 (48:0/0.69315) alignedtext
grestore
% 8->1
gsave
1 setlinewidth
0 0 0 edgecolor
newpath 487.1753 799.9905 moveto
433.6281 774.9648 262.6619 705.2166 191 797 curveto
162.143 833.9595 155.6656 1161.8039 154.3257 1266.8018 curveto
stroke
0 0 0 edgecolor
newpath 150.8259 1266.769 moveto
154.2051 1276.8105 lineto
157.8254 1266.8534 lineto
closepath fill
1 setlinewidth
solid
0 0 0 edgecolor
newpath 150.8259 1266.769 moveto
154.2051 1276.8105 lineto
157.8254 1266.8534 lineto
closepath stroke
0 0 0 edgecolor
14 /Times-Roman set_font
285 760.8 moveto 73 (16:0/0.69315) alignedtext
grestore
% 8->2
gsave
1 setlinewidth
0 0 0 edgecolor
newpath 521.7417 808.3438 moveto
553.701 808.9156 621.8991 810 679.5 810 curveto
679.5 810 679.5 810 1225.5 810 curveto
1282.7441 810 1313.7448 798.7004 1350 843 curveto
1366.6264 863.3155 1379.0426 1253.9748 1382.2101 1363.6086 curveto
stroke
0 0 0 edgecolor
newpath 1378.7194 1363.9875 moveto
1382.5035 1373.8835 lineto
1385.7165 1363.7876 lineto
closepath fill
1 setlinewidth
solid
0 0 0 edgecolor
newpath 1378.7194 1363.9875 moveto
1382.5035 1373.8835 lineto
1385.7165 1363.7876 lineto
closepath stroke
0 0 0 edgecolor
14 /Times-Roman set_font
919 813.8 moveto 73 (16:0/0.69315) alignedtext
grestore
% 12
gsave
1 setlinewidth
solid
0 0 0 nodecolor
679.5 1339 19.4965 19.4965 ellipse_path stroke
0 0 0 nodecolor
14 /Times-Roman set_font
672.5 1335.3 moveto 14 (12) alignedtext
grestore
% 11->12
gsave
1 setlinewidth
0 0 0 edgecolor
newpath 523.0075 1339 moveto
553.6667 1339 613.3538 1339 649.5009 1339 curveto
stroke
0 0 0 edgecolor
newpath 649.9051 1342.5001 moveto
659.9051 1339 lineto
649.9051 1335.5001 lineto
closepath fill
1 setlinewidth
solid
0 0 0 edgecolor
newpath 649.9051 1342.5001 moveto
659.9051 1339 lineto
649.9051 1335.5001 lineto
closepath stroke
0 0 0 edgecolor
14 /Times-Roman set_font
576 1342.8 moveto 31 (113:0) alignedtext
grestore
% 12->1
gsave
1 setlinewidth
0 0 0 edgecolor
newpath 660.2474 1334.1343 moveto
633.4796 1327.5996 583.4109 1316.2081 540 1311 curveto
420.7555 1296.694 390.063 1302.9625 270 1300 curveto
241.7156 1299.3021 209.5414 1299.069 186.2644 1299.0008 curveto
stroke
0 0 0 edgecolor
newpath 186.2488 1295.5008 moveto
176.2415 1298.9799 lineto
186.2342 1302.5008 lineto
closepath fill
1 setlinewidth
solid
0 0 0 edgecolor
newpath 186.2488 1295.5008 moveto
176.2415 1298.9799 lineto
186.2342 1302.5008 lineto
closepath stroke
0 0 0 edgecolor
14 /Times-Roman set_font
373 1306.8 moveto 79 (116:0/0.69315) alignedtext
grestore
% 12->2
gsave
1 setlinewidth
0 0 0 edgecolor
newpath 699.2102 1339.7059 moveto
733.0229 1340.8542 804.2646 1343 864.5 1343 curveto
864.5 1343 864.5 1343 1225.5 1343 curveto
1274.0791 1343 1327.4363 1364.5167 1357.9073 1379.0337 curveto
stroke
0 0 0 edgecolor
newpath 1356.4406 1382.2125 moveto
1366.9612 1383.4649 lineto
1359.5178 1375.9251 lineto
closepath fill
1 setlinewidth
solid
0 0 0 edgecolor
newpath 1356.4406 1382.2125 moveto
1366.9612 1383.4649 lineto
1359.5178 1375.9251 lineto
closepath stroke
0 0 0 edgecolor
14 /Times-Roman set_font
1007 1346.8 moveto 79 (116:0/0.69315) alignedtext
grestore
% 15
gsave
1 setlinewidth
solid
0 0 0 nodecolor
679.5 1245 19.4965 19.4965 ellipse_path stroke
0 0 0 nodecolor
14 /Times-Roman set_font
672.5 1241.3 moveto 14 (15) alignedtext
grestore
% 14->15
gsave
1 setlinewidth
0 0 0 edgecolor
newpath 523.0075 1245 moveto
553.6667 1245 613.3538 1245 649.5009 1245 curveto
stroke
0 0 0 edgecolor
newpath 649.9051 1248.5001 moveto
659.9051 1245 lineto
649.9051 1241.5001 lineto
closepath fill
1 setlinewidth
solid
0 0 0 edgecolor
newpath 649.9051 1248.5001 moveto
659.9051 1245 lineto
649.9051 1241.5001 lineto
closepath stroke
0 0 0 edgecolor
14 /Times-Roman set_font
576 1248.8 moveto 31 (113:0) alignedtext
grestore
% 15->1
gsave
1 setlinewidth
0 0 0 edgecolor
newpath 660.2608 1240.018 moveto
633.5085 1233.3483 583.4578 1221.801 540 1217 curveto
482.7385 1210.674 329.9628 1208.0387 285 1213 curveto
242.4506 1217.695 225.4238 1208.554 191 1234 curveto
179.2676 1242.6725 170.7065 1256.2536 164.7929 1268.7639 curveto
stroke
0 0 0 edgecolor
newpath 161.5453 1267.4557 moveto
160.7782 1278.0227 lineto
167.9676 1270.2405 lineto
closepath fill
1 setlinewidth
solid
0 0 0 edgecolor
newpath 161.5453 1267.4557 moveto
160.7782 1278.0227 lineto
167.9676 1270.2405 lineto
closepath stroke
0 0 0 edgecolor
14 /Times-Roman set_font
373 1215.8 moveto 79 (116:0/0.69315) alignedtext
grestore
% 15->2
gsave
1 setlinewidth
0 0 0 edgecolor
newpath 698.5695 1249.1257 moveto
732.0026 1255.9877 803.4501 1269 864.5 1269 curveto
864.5 1269 864.5 1269 1225.5 1269 curveto
1289.3073 1269 1342.7232 1332.4827 1367.7462 1368.2343 curveto
stroke
0 0 0 edgecolor
newpath 1364.9667 1370.3711 moveto
1373.4853 1376.6707 lineto
1370.7545 1366.4338 lineto
closepath fill
1 setlinewidth
solid
0 0 0 edgecolor
newpath 1364.9667 1370.3711 moveto
1373.4853 1376.6707 lineto
1370.7545 1366.4338 lineto
closepath stroke
0 0 0 edgecolor
14 /Times-Roman set_font
1007 1272.8 moveto 79 (116:0/0.69315) alignedtext
grestore
% 17->1
gsave
1 setlinewidth
0 0 0 edgecolor
newpath 483.7588 1611.8636 moveto
421.3546 1610.9839 230.1574 1604.7064 191 1561 curveto
175.9009 1544.1467 162.1264 1398.0359 156.5817 1331.6178 curveto
stroke
0 0 0 edgecolor
newpath 160.0413 1330.9817 moveto
155.7334 1321.3023 lineto
153.0649 1331.5555 lineto
closepath fill
1 setlinewidth
solid
0 0 0 edgecolor
newpath 160.0413 1330.9817 moveto
155.7334 1321.3023 lineto
153.0649 1331.5555 lineto
closepath stroke
0 0 0 edgecolor
14 /Times-Roman set_font
285 1609.8 moveto 73 (12:0/0.69315) alignedtext
grestore
% 17->2
gsave
1 setlinewidth
0 0 0 edgecolor
newpath 522.2953 1606.1003 moveto
554.2509 1596.6083 621.3654 1579 679.5 1579 curveto
679.5 1579 679.5 1579 1225.5 1579 curveto
1293.0047 1579 1309.6966 1546.1528 1350 1492 curveto
1365.7806 1470.7968 1374.262 1441.6489 1378.6557 1420.2921 curveto
stroke
0 0 0 edgecolor
newpath 1382.1431 1420.6845 moveto
1380.548 1410.2105 lineto
1375.2632 1419.3931 lineto
closepath fill
1 setlinewidth
solid
0 0 0 edgecolor
newpath 1382.1431 1420.6845 moveto
1380.548 1410.2105 lineto
1375.2632 1419.3931 lineto
closepath stroke
0 0 0 edgecolor
14 /Times-Roman set_font
919 1582.8 moveto 73 (12:0/0.69315) alignedtext
grestore
% 19->1
gsave
1 setlinewidth
0 0 0 edgecolor
newpath 485.2577 1729.0405 moveto
475.5626 1732.9759 463.335 1737.4123 452 1740 curveto
379.5345 1756.5434 355.1398 1773.6037 285 1749 curveto
276.9438 1746.174 277.4607 1741.1505 270 1737 curveto
237.4471 1718.8903 213.842 1738.4261 191 1709 curveto
167.999 1679.369 157.8398 1422.6064 154.9286 1331.1667 curveto
stroke
0 0 0 edgecolor
newpath 158.425 1330.9938 moveto
154.6165 1321.1072 lineto
151.4284 1331.211 lineto
closepath fill
1 setlinewidth
solid
0 0 0 edgecolor
newpath 158.425 1330.9938 moveto
154.6165 1321.1072 lineto
151.4284 1331.211 lineto
closepath stroke
0 0 0 edgecolor
14 /Times-Roman set_font
285 1764.8 moveto 73 (12:0/0.69315) alignedtext
grestore
% 19->2
gsave
1 setlinewidth
0 0 0 edgecolor
newpath 520.9818 1712.1789 moveto
552.0493 1697.3431 619.2821 1669 679.5 1669 curveto
679.5 1669 679.5 1669 1225.5 1669 curveto
1339.1577 1669 1371.8271 1490.5875 1380.2971 1420.1328 curveto
stroke
0 0 0 edgecolor
newpath 1383.7774 1420.5035 moveto
1381.4179 1410.1747 lineto
1376.8213 1419.7205 lineto
closepath fill
1 setlinewidth
solid
0 0 0 edgecolor
newpath 1383.7774 1420.5035 moveto
1381.4179 1410.1747 lineto
1376.8213 1419.7205 lineto
closepath stroke
0 0 0 edgecolor
14 /Times-Roman set_font
919 1672.8 moveto 73 (12:0/0.69315) alignedtext
grestore
% 22
gsave
1 setlinewidth
solid
0 0 0 nodecolor
679.5 446 19.4965 19.4965 ellipse_path stroke
0 0 0 nodecolor
14 /Times-Roman set_font
672.5 442.3 moveto 14 (22) alignedtext
grestore
% 21->22
gsave
1 setlinewidth
0 0 0 edgecolor
newpath 523.0075 446 moveto
553.6667 446 613.3538 446 649.5009 446 curveto
stroke
0 0 0 edgecolor
newpath 649.9051 449.5001 moveto
659.9051 446 lineto
649.9051 442.5001 lineto
closepath fill
1 setlinewidth
solid
0 0 0 edgecolor
newpath 649.9051 449.5001 moveto
659.9051 446 lineto
649.9051 442.5001 lineto
closepath stroke
0 0 0 edgecolor
14 /Times-Roman set_font
576 449.8 moveto 31 (113:0) alignedtext
grestore
% 23
gsave
1 setlinewidth
solid
0 0 0 nodecolor
864.5 446 19.4965 19.4965 ellipse_path stroke
0 0 0 nodecolor
14 /Times-Roman set_font
857.5 442.3 moveto 14 (23) alignedtext
grestore
% 22->23
gsave
1 setlinewidth
0 0 0 edgecolor
newpath 699.2982 446 moveto
731.7064 446 796.279 446 834.3884 446 curveto
stroke
0 0 0 edgecolor
newpath 834.8441 449.5001 moveto
844.8441 446 lineto
834.8441 442.5001 lineto
closepath fill
1 setlinewidth
solid
0 0 0 edgecolor
newpath 834.8441 449.5001 moveto
844.8441 446 lineto
834.8441 442.5001 lineto
closepath stroke
0 0 0 edgecolor
14 /Times-Roman set_font
758 449.8 moveto 25 (49:0) alignedtext
grestore
% 24
gsave
1 setlinewidth
solid
0 0 0 nodecolor
1046.5 446 19.4965 19.4965 ellipse_path stroke
0 0 0 nodecolor
14 /Times-Roman set_font
1039.5 442.3 moveto 14 (24) alignedtext
grestore
% 23->24
gsave
1 setlinewidth
0 0 0 edgecolor
newpath 884.3237 446 moveto
916.2714 446 979.3363 446 1016.7131 446 curveto
stroke
0 0 0 edgecolor
newpath 1016.9763 449.5001 moveto
1026.9763 446 lineto
1016.9762 442.5001 lineto
closepath fill
1 setlinewidth
solid
0 0 0 edgecolor
newpath 1016.9763 449.5001 moveto
1026.9763 446 lineto
1016.9762 442.5001 lineto
closepath stroke
0 0 0 edgecolor
14 /Times-Roman set_font
943 449.8 moveto 25 (81:0) alignedtext
grestore
% 24->1
gsave
1 setlinewidth
0 0 0 edgecolor
newpath 1028.5561 438.1333 moveto
996.3547 424.7535 926.3411 399 864.5 399 curveto
321.5 399 321.5 399 321.5 399 curveto
261.7817 399 228.8499 384.8085 191 431 curveto
164.0431 463.8979 155.8641 1112.823 154.3012 1266.5496 curveto
stroke
0 0 0 edgecolor
newpath 150.7995 1266.7126 moveto
154.1999 1276.7469 lineto
157.7991 1266.7822 lineto
closepath fill
1 setlinewidth
solid
0 0 0 edgecolor
newpath 150.7995 1266.7126 moveto
154.1999 1276.7469 lineto
157.7991 1266.7822 lineto
closepath stroke
0 0 0 edgecolor
14 /Times-Roman set_font
555 402.8 moveto 73 (16:0/0.69315) alignedtext
grestore
% 24->2
gsave
1 setlinewidth
0 0 0 edgecolor
newpath 1066.0474 442.5461 moveto
1120.8906 434.1098 1276.956 418.9424 1350 504 curveto
1378.6504 537.3625 1382.4435 1215.9269 1382.9303 1363.7358 curveto
stroke
0 0 0 edgecolor
newpath 1379.4305 1363.8278 moveto
1382.961 1373.817 lineto
1386.4305 1363.8064 lineto
closepath fill
1 setlinewidth
solid
0 0 0 edgecolor
newpath 1379.4305 1363.8278 moveto
1382.961 1373.817 lineto
1386.4305 1363.8064 lineto
closepath stroke
0 0 0 edgecolor
14 /Times-Roman set_font
1189 453.8 moveto 73 (16:0/0.69315) alignedtext
grestore
% 27
gsave
1 setlinewidth
solid
0 0 0 nodecolor
679.5 1051 19.4965 19.4965 ellipse_path stroke
0 0 0 nodecolor
14 /Times-Roman set_font
672.5 1047.3 moveto 14 (27) alignedtext
grestore
% 26->27
gsave
1 setlinewidth
0 0 0 edgecolor
newpath 523.0075 1055.4458 moveto
553.6667 1054.5748 613.3538 1052.8792 649.5009 1051.8522 curveto
stroke
0 0 0 edgecolor
newpath 650.0085 1055.3393 moveto
659.9051 1051.5567 lineto
649.8097 1048.3422 lineto
closepath fill
1 setlinewidth
solid
0 0 0 edgecolor
newpath 650.0085 1055.3393 moveto
659.9051 1051.5567 lineto
649.8097 1048.3422 lineto
closepath stroke
0 0 0 edgecolor
14 /Times-Roman set_font
579 1058.8 moveto 25 (13:0) alignedtext
grestore
% 28
gsave
1 setlinewidth
solid
0 0 0 nodecolor
864.5 1051 19.4965 19.4965 ellipse_path stroke
0 0 0 nodecolor
14 /Times-Roman set_font
857.5 1047.3 moveto 14 (28) alignedtext
grestore
% 27->28
gsave
1 setlinewidth
0 0 0 edgecolor
newpath 699.2982 1051 moveto
731.7064 1051 796.279 1051 834.3884 1051 curveto
stroke
0 0 0 edgecolor
newpath 834.8441 1054.5001 moveto
844.8441 1051 lineto
834.8441 1047.5001 lineto
closepath fill
1 setlinewidth
solid
0 0 0 edgecolor
newpath 834.8441 1054.5001 moveto
844.8441 1051 lineto
834.8441 1047.5001 lineto
closepath stroke
0 0 0 edgecolor
14 /Times-Roman set_font
758 1054.8 moveto 25 (85:0) alignedtext
grestore
% 28->1
gsave
1 setlinewidth
0 0 0 edgecolor
newpath 845.401 1046.576 moveto
817.2485 1040.2429 762.8755 1028.7264 716 1023 curveto
600.0523 1008.8355 268.8006 961.8704 191 1049 curveto
176.7041 1065.0101 162.6451 1202.6116 156.8135 1266.5678 curveto
stroke
0 0 0 edgecolor
newpath 153.295 1266.6172 moveto
155.8856 1276.8904 lineto
160.2669 1267.244 lineto
closepath fill
1 setlinewidth
solid
0 0 0 edgecolor
newpath 153.295 1266.6172 moveto
155.8856 1276.8904 lineto
160.2669 1267.244 lineto
closepath stroke
0 0 0 edgecolor
14 /Times-Roman set_font
467 1007.8 moveto 73 (92:0/0.69315) alignedtext
grestore
% 28->2
gsave
1 setlinewidth
0 0 0 edgecolor
newpath 883.9656 1048.7346 moveto
959.9817 1041.117 1238.127 1025.0012 1350 1181 curveto
1370.6338 1209.7723 1378.8473 1313.0516 1381.6883 1363.6535 curveto
stroke
0 0 0 edgecolor
newpath 1378.2064 1364.09 moveto
1382.2297 1373.8911 lineto
1385.1967 1363.7202 lineto
closepath fill
1 setlinewidth
solid
0 0 0 edgecolor
newpath 1378.2064 1364.09 moveto
1382.2297 1373.8911 lineto
1385.1967 1363.7202 lineto
closepath stroke
0 0 0 edgecolor
14 /Times-Roman set_font
1101 1072.8 moveto 73 (92:0/0.69315) alignedtext
grestore
% 31
gsave
1 setlinewidth
solid
0 0 0 nodecolor
679.5 1108 19.4965 19.4965 ellipse_path stroke
0 0 0 nodecolor
14 /Times-Roman set_font
672.5 1104.3 moveto 14 (31) alignedtext
grestore
% 30->31
gsave
1 setlinewidth
0 0 0 edgecolor
newpath 523.0075 1112.4458 moveto
553.6667 1111.5748 613.3538 1109.8792 649.5009 1108.8522 curveto
stroke
0 0 0 edgecolor
newpath 650.0085 1112.3393 moveto
659.9051 1108.5567 lineto
649.8097 1105.3422 lineto
closepath fill
1 setlinewidth
solid
0 0 0 edgecolor
newpath 650.0085 1112.3393 moveto
659.9051 1108.5567 lineto
649.8097 1105.3422 lineto
closepath stroke
0 0 0 edgecolor
14 /Times-Roman set_font
579 1115.8 moveto 25 (29:0) alignedtext
grestore
% 32
gsave
1 setlinewidth
solid
0 0 0 nodecolor
864.5 1113 19.4965 19.4965 ellipse_path stroke
0 0 0 nodecolor
14 /Times-Roman set_font
857.5 1109.3 moveto 14 (32) alignedtext
grestore
% 31->32
gsave
1 setlinewidth
0 0 0 edgecolor
newpath 699.2982 1108.5351 moveto
731.7064 1109.411 796.279 1111.1562 834.3884 1112.1862 curveto
stroke
0 0 0 edgecolor
newpath 834.7532 1115.6972 moveto
844.8441 1112.4688 lineto
834.9424 1108.6998 lineto
closepath fill
1 setlinewidth
solid
0 0 0 edgecolor
newpath 834.7532 1115.6972 moveto
844.8441 1112.4688 lineto
834.9424 1108.6998 lineto
closepath stroke
0 0 0 edgecolor
14 /Times-Roman set_font
758 1115.8 moveto 25 (49:0) alignedtext
grestore
% 33
gsave
1 setlinewidth
solid
0 0 0 nodecolor
1046.5 1115 19.4965 19.4965 ellipse_path stroke
0 0 0 nodecolor
14 /Times-Roman set_font
1039.5 1111.3 moveto 14 (33) alignedtext
grestore
% 32->33
gsave
1 setlinewidth
0 0 0 edgecolor
newpath 884.3237 1113.2178 moveto
916.2714 1113.5689 979.3363 1114.2619 1016.7131 1114.6727 curveto
stroke
0 0 0 edgecolor
newpath 1016.9384 1118.1753 moveto
1026.9763 1114.7855 lineto
1017.0154 1111.1757 lineto
closepath fill
1 setlinewidth
solid
0 0 0 edgecolor
newpath 1016.9384 1118.1753 moveto
1026.9763 1114.7855 lineto
1017.0154 1111.1757 lineto
closepath stroke
0 0 0 edgecolor
14 /Times-Roman set_font
940 1118.8 moveto 31 (109:0) alignedtext
grestore
% 34
gsave
1 setlinewidth
solid
0 0 0 nodecolor
1225.5 1163 19.4965 19.4965 ellipse_path stroke
0 0 0 nodecolor
14 /Times-Roman set_font
1218.5 1159.3 moveto 14 (34) alignedtext
grestore
% 33->34
gsave
1 setlinewidth
0 0 0 edgecolor
newpath 1066.0264 1115.711 moveto
1091.5009 1117.1295 1137.1652 1121.3671 1174 1134 curveto
1183.0267 1137.0958 1192.2915 1141.7695 1200.4302 1146.4662 curveto
stroke
0 0 0 edgecolor
newpath 1198.7008 1149.5106 moveto
1209.0679 1151.6957 lineto
1202.3262 1143.5225 lineto
closepath fill
1 setlinewidth
solid
0 0 0 edgecolor
newpath 1198.7008 1149.5106 moveto
1209.0679 1151.6957 lineto
1202.3262 1143.5225 lineto
closepath stroke
0 0 0 edgecolor
14 /Times-Roman set_font
1125 1137.8 moveto 25 (89:0) alignedtext
grestore
% 34->1
gsave
1 setlinewidth
0 0 0 edgecolor
newpath 1205.8995 1163 moveto
1172.9707 1163 1104.4575 1163 1046.5 1163 curveto
770.5 1163 770.5 1163 770.5 1163 curveto
641.2812 1163 295.5863 1135.1106 191 1211 curveto
173.0347 1224.0359 163.7401 1247.5175 158.9609 1266.9474 curveto
stroke
0 0 0 edgecolor
newpath 155.4914 1266.4326 moveto
156.7975 1276.9466 lineto
162.3331 1267.9128 lineto
closepath fill
1 setlinewidth
solid
0 0 0 edgecolor
newpath 155.4914 1266.4326 moveto
156.7975 1276.9466 lineto
162.3331 1267.9128 lineto
closepath stroke
0 0 0 edgecolor
14 /Times-Roman set_font
643 1166.8 moveto 73 (28:0/0.69315) alignedtext
grestore
% 34->2
gsave
1 setlinewidth
0 0 0 edgecolor
newpath 1244.4592 1169.2824 moveto
1272.2048 1179.4989 1323.4468 1202.4374 1350 1240 curveto
1363.8918 1259.6516 1374.4367 1325.624 1379.5608 1363.888 curveto
stroke
0 0 0 edgecolor
newpath 1376.1003 1364.419 moveto
1380.8606 1373.8841 lineto
1383.0419 1363.5163 lineto
closepath fill
1 setlinewidth
solid
0 0 0 edgecolor
newpath 1376.1003 1364.419 moveto
1380.8606 1373.8841 lineto
1383.0419 1363.5163 lineto
closepath stroke
0 0 0 edgecolor
14 /Times-Roman set_font
1277 1243.8 moveto 73 (28:0/0.69315) alignedtext
grestore
% 37
gsave
1 setlinewidth
solid
0 0 0 nodecolor
679.5 904 19.4965 19.4965 ellipse_path stroke
0 0 0 nodecolor
14 /Times-Roman set_font
672.5 900.3 moveto 14 (37) alignedtext
grestore
% 36->37
gsave
1 setlinewidth
0 0 0 edgecolor
newpath 523.0075 906.6675 moveto
553.6667 906.1449 613.3538 905.1275 649.5009 904.5113 curveto
stroke
0 0 0 edgecolor
newpath 649.9662 908.004 moveto
659.9051 904.334 lineto
649.8469 901.005 lineto
closepath fill
1 setlinewidth
solid
0 0 0 edgecolor
newpath 649.9662 908.004 moveto
659.9051 904.334 lineto
649.8469 901.005 lineto
closepath stroke
0 0 0 edgecolor
14 /Times-Roman set_font
579 910.8 moveto 25 (29:0) alignedtext
grestore
% 38
gsave
1 setlinewidth
solid
0 0 0 nodecolor
864.5 911 19.4965 19.4965 ellipse_path stroke
0 0 0 nodecolor
14 /Times-Roman set_font
857.5 907.3 moveto 14 (38) alignedtext
grestore
% 37->38
gsave
1 setlinewidth
0 0 0 edgecolor
newpath 699.2982 904.7491 moveto
731.7064 905.9754 796.279 908.4187 834.3884 909.8606 curveto
stroke
0 0 0 edgecolor
newpath 834.7189 913.3756 moveto
844.8441 910.2563 lineto
834.9836 906.3806 lineto
closepath fill
1 setlinewidth
solid
0 0 0 edgecolor
newpath 834.7189 913.3756 moveto
844.8441 910.2563 lineto
834.9836 906.3806 lineto
closepath stroke
0 0 0 edgecolor
14 /Times-Roman set_font
758 912.8 moveto 25 (49:0) alignedtext
grestore
% 39
gsave
1 setlinewidth
solid
0 0 0 nodecolor
1046.5 912 19.4965 19.4965 ellipse_path stroke
0 0 0 nodecolor
14 /Times-Roman set_font
1039.5 908.3 moveto 14 (39) alignedtext
grestore
% 38->39
gsave
1 setlinewidth
0 0 0 edgecolor
newpath 884.3237 911.1089 moveto
916.2714 911.2845 979.3363 911.631 1016.7131 911.8363 curveto
stroke
0 0 0 edgecolor
newpath 1016.9572 915.3376 moveto
1026.9763 911.8927 lineto
1016.9957 908.3377 lineto
closepath fill
1 setlinewidth
solid
0 0 0 edgecolor
newpath 1016.9572 915.3376 moveto
1026.9763 911.8927 lineto
1016.9957 908.3377 lineto
closepath stroke
0 0 0 edgecolor
14 /Times-Roman set_font
940 915.8 moveto 31 (109:0) alignedtext
grestore
% 40
gsave
1 setlinewidth
solid
0 0 0 nodecolor
1225.5 959 19.4965 19.4965 ellipse_path stroke
0 0 0 nodecolor
14 /Times-Roman set_font
1218.5 955.3 moveto 14 (40) alignedtext
grestore
% 39->40
gsave
1 setlinewidth
0 0 0 edgecolor
newpath 1066.0242 912.5167 moveto
1091.4963 913.6911 1137.158 917.5226 1174 930 curveto
1183.0385 933.0611 1192.3066 937.7254 1200.4446 942.424 curveto
stroke
0 0 0 edgecolor
newpath 1198.7144 945.468 moveto
1209.0801 947.6599 lineto
1202.3437 939.4823 lineto
closepath fill
1 setlinewidth
solid
0 0 0 edgecolor
newpath 1198.7144 945.468 moveto
1209.0801 947.6599 lineto
1202.3437 939.4823 lineto
closepath stroke
0 0 0 edgecolor
14 /Times-Roman set_font
1125 933.8 moveto 25 (89:0) alignedtext
grestore
% 40->1
gsave
1 setlinewidth
0 0 0 edgecolor
newpath 1205.8995 959 moveto
1172.9707 959 1104.4575 959 1046.5 959 curveto
770.5 959 770.5 959 770.5 959 curveto
316.7277 959 205.9463 992.1957 191 1007 curveto
172.7842 1025.0427 160.389 1194.2629 155.8838 1266.5329 curveto
stroke
0 0 0 edgecolor
newpath 152.3691 1266.6679 moveto
155.2526 1276.8628 lineto
159.3561 1267.0949 lineto
closepath fill
1 setlinewidth
solid
0 0 0 edgecolor
newpath 152.3691 1266.6679 moveto
155.2526 1276.8628 lineto
159.3561 1267.0949 lineto
closepath stroke
0 0 0 edgecolor
14 /Times-Roman set_font
643 963.8 moveto 73 (20:0/0.69315) alignedtext
grestore
% 40->2
gsave
1 setlinewidth
0 0 0 edgecolor
newpath 1244.5587 963.9727 moveto
1272.9227 972.4738 1325.5227 992.7124 1350 1031 curveto
1367.7664 1058.7904 1378.5648 1283.1539 1381.8932 1363.5048 curveto
stroke
0 0 0 edgecolor
newpath 1378.4104 1364.0016 moveto
1382.3132 1373.8514 lineto
1385.4046 1363.7176 lineto
closepath fill
1 setlinewidth
solid
0 0 0 edgecolor
newpath 1378.4104 1364.0016 moveto
1382.3132 1373.8514 lineto
1385.4046 1363.7176 lineto
closepath stroke
0 0 0 edgecolor
14 /Times-Roman set_font
1277 1034.8 moveto 73 (20:0/0.69315) alignedtext
grestore
% 45->1
gsave
1 setlinewidth
0 0 0 edgecolor
newpath 485.8615 343.3268 moveto
430.5542 317.4725 260.1139 248.2967 191 341 curveto
162.7671 378.8692 155.5103 1103.0386 154.2295 1266.4342 curveto
stroke
0 0 0 edgecolor
newpath 150.727 1266.7675 moveto
154.1505 1276.7939 lineto
157.7268 1266.8209 lineto
closepath fill
1 setlinewidth
solid
0 0 0 edgecolor
newpath 150.727 1266.7675 moveto
154.1505 1276.7939 lineto
157.7268 1266.8209 lineto
closepath stroke
0 0 0 edgecolor
14 /Times-Roman set_font
285 303.8 moveto 73 (56:0/0.69315) alignedtext
grestore
% 45->2
gsave
1 setlinewidth
0 0 0 edgecolor
newpath 523.028 352.9171 moveto
555.4976 354.3605 622.6437 357 679.5 357 curveto
679.5 357 679.5 357 1225.5 357 curveto
1295.3729 357 1318.0734 390.8476 1350 453 curveto
1371.2917 494.4491 1380.8673 1210.1953 1382.6771 1363.3184 curveto
stroke
0 0 0 edgecolor
newpath 1379.1822 1363.7791 moveto
1382.7985 1373.7377 lineto
1386.1817 1363.6975 lineto
closepath fill
1 setlinewidth
solid
0 0 0 edgecolor
newpath 1379.1822 1363.7791 moveto
1382.7985 1373.7377 lineto
1386.1817 1363.6975 lineto
closepath stroke
0 0 0 edgecolor
14 /Times-Roman set_font
919 360.8 moveto 73 (56:0/0.69315) alignedtext
grestore
% 48->1
gsave
1 setlinewidth
0 0 0 edgecolor
newpath 485.8399 1514.9954 moveto
433.3036 1540.3527 276.3645 1605.7357 191 1529 curveto
176.4582 1515.9281 162.7722 1391.3526 156.9475 1331.1984 curveto
stroke
0 0 0 edgecolor
newpath 160.418 1330.7207 moveto
155.9849 1321.0979 lineto
153.4496 1331.3849 lineto
closepath fill
1 setlinewidth
solid
0 0 0 edgecolor
newpath 160.418 1330.7207 moveto
155.9849 1321.0979 lineto
153.4496 1331.3849 lineto
closepath stroke
0 0 0 edgecolor
14 /Times-Roman set_font
285 1569.8 moveto 73 (16:0/0.69315) alignedtext
grestore
% 48->2
gsave
1 setlinewidth
0 0 0 edgecolor
newpath 523.0165 1504.3493 moveto
555.4695 1501.751 622.5924 1497 679.5 1497 curveto
679.5 1497 679.5 1497 1225.5 1497 curveto
1283.2252 1497 1305.9958 1497.3608 1350 1460 curveto
1362.3961 1449.4753 1370.5238 1433.206 1375.6107 1419.2198 curveto
stroke
0 0 0 edgecolor
newpath 1378.9902 1420.1471 moveto
1378.7949 1409.554 lineto
1372.3417 1417.9568 lineto
closepath fill
1 setlinewidth
solid
0 0 0 edgecolor
newpath 1378.9902 1420.1471 moveto
1378.7949 1409.554 lineto
1372.3417 1417.9568 lineto
closepath stroke
0 0 0 edgecolor
14 /Times-Roman set_font
919 1500.8 moveto 73 (16:0/0.69315) alignedtext
grestore
% 50->1
gsave
1 setlinewidth
0 0 0 edgecolor
newpath 485.8416 198.312 moveto
430.4752 172.4138 259.8786 103.1218 191 196 curveto
158.3011 240.0922 154.495 1089.3881 154.0565 1266.7185 curveto
stroke
0 0 0 edgecolor
newpath 150.5561 1266.9516 moveto
154.0332 1276.9596 lineto
157.5561 1266.9677 lineto
closepath fill
1 setlinewidth
solid
0 0 0 edgecolor
newpath 150.5561 1266.9516 moveto
154.0332 1276.9596 lineto
157.5561 1266.9677 lineto
closepath stroke
0 0 0 edgecolor
14 /Times-Roman set_font
285 158.8 moveto 73 (28:0/0.69315) alignedtext
grestore
% 50->2
gsave
1 setlinewidth
0 0 0 edgecolor
newpath 523.0299 207.7337 moveto
555.5021 208.8884 622.652 211 679.5 211 curveto
679.5 211 679.5 211 1225.5 211 curveto
1282.3146 211 1314.0421 196.0122 1350 240 curveto
1368.3441 262.4406 1380.5221 1188.5711 1382.6623 1363.6174 curveto
stroke
0 0 0 edgecolor
newpath 1379.165 1363.8703 moveto
1382.7861 1373.8271 lineto
1386.1645 1363.7853 lineto
closepath fill
1 setlinewidth
solid
0 0 0 edgecolor
newpath 1379.165 1363.8703 moveto
1382.7861 1373.8271 lineto
1386.1645 1363.7853 lineto
closepath stroke
0 0 0 edgecolor
14 /Times-Roman set_font
919 214.8 moveto 73 (28:0/0.69315) alignedtext
grestore
% 52->1
gsave
1 setlinewidth
0 0 0 edgecolor
newpath 483.6807 103.5744 moveto
421.0409 102.6951 229.2126 103.7224 191 148 curveto
172.2092 169.7732 157.2984 1082.804 154.4803 1266.8645 curveto
stroke
0 0 0 edgecolor
newpath 150.979 1266.9313 moveto
154.3263 1276.9835 lineto
157.9782 1267.0379 lineto
closepath fill
1 setlinewidth
solid
0 0 0 edgecolor
newpath 150.979 1266.9313 moveto
154.3263 1276.9835 lineto
157.9782 1267.0379 lineto
closepath stroke
0 0 0 edgecolor
14 /Times-Roman set_font
285 117.8 moveto 73 (28:0/0.69315) alignedtext
grestore
% 52->2
gsave
1 setlinewidth
0 0 0 edgecolor
newpath 522.2821 110.0785 moveto
554.2182 119.8581 621.3047 138 679.5 138 curveto
679.5 138 679.5 138 1225.5 138 curveto
1288.337 138 1317.025 151.5103 1350 205 curveto
1365.6962 230.4612 1380.0611 1185.7903 1382.6025 1363.651 curveto
stroke
0 0 0 edgecolor
newpath 1379.1046 1363.8354 moveto
1382.7465 1373.7846 lineto
1386.1039 1363.7359 lineto
closepath fill
1 setlinewidth
solid
0 0 0 edgecolor
newpath 1379.1046 1363.8354 moveto
1382.7465 1373.7846 lineto
1386.1039 1363.7359 lineto
closepath stroke
0 0 0 edgecolor
14 /Times-Roman set_font
919 141.8 moveto 73 (28:0/0.69315) alignedtext
grestore
% 54->1
gsave
1 setlinewidth
0 0 0 edgecolor
newpath 485.7316 601.6126 moveto
430.0386 576.6541 258.579 510.2338 191 604 curveto
171.4158 631.1732 157.9963 1132.8145 154.7574 1266.4955 curveto
stroke
0 0 0 edgecolor
newpath 151.2492 1266.7977 moveto
154.5084 1276.8787 lineto
158.2472 1266.9655 lineto
closepath fill
1 setlinewidth
solid
0 0 0 edgecolor
newpath 151.2492 1266.7977 moveto
154.5084 1276.8787 lineto
158.2472 1266.9655 lineto
closepath stroke
0 0 0 edgecolor
14 /Times-Roman set_font
285 564.8 moveto 73 (32:0/0.69315) alignedtext
grestore
% 54->2
gsave
1 setlinewidth
0 0 0 edgecolor
newpath 522.9869 612.7512 moveto
555.3974 617.0816 622.4606 625 679.5 625 curveto
679.5 625 679.5 625 1225.5 625 curveto
1300.5259 625 1318.0473 671.1184 1350 739 curveto
1376.839 796.0178 1381.9465 1245.4787 1382.829 1363.6284 curveto
stroke
0 0 0 edgecolor
newpath 1379.3295 1363.728 moveto
1382.8998 1373.7031 lineto
1386.3293 1363.6787 lineto
closepath fill
1 setlinewidth
solid
0 0 0 edgecolor
newpath 1379.3295 1363.728 moveto
1382.8998 1373.7031 lineto
1386.3293 1363.6787 lineto
closepath stroke
0 0 0 edgecolor
14 /Times-Roman set_font
919 628.8 moveto 73 (32:0/0.69315) alignedtext
grestore
% 59
gsave
1 setlinewidth
solid
0 0 0 nodecolor
679.5 1983 19.4965 19.4965 ellipse_path stroke
0 0 0 nodecolor
14 /Times-Roman set_font
672.5 1979.3 moveto 14 (59) alignedtext
grestore
% 58->59
gsave
1 setlinewidth
0 0 0 edgecolor
newpath 522.4932 2025.0056 moveto
546.9166 2018.5741 590.6383 2007.0297 628 1997 curveto
635.3826 1995.0181 643.3554 1992.8597 650.7713 1990.8443 curveto
stroke
0 0 0 edgecolor
newpath 651.7015 1994.2185 moveto
660.431 1988.2147 lineto
649.8628 1987.4643 lineto
closepath fill
1 setlinewidth
solid
0 0 0 edgecolor
newpath 651.7015 1994.2185 moveto
660.431 1988.2147 lineto
649.8628 1987.4643 lineto
closepath stroke
0 0 0 edgecolor
14 /Times-Roman set_font
579 2018.8 moveto 25 (97:0) alignedtext
grestore
% 59->1
gsave
1 setlinewidth
0 0 0 edgecolor
newpath 659.8044 1983.6725 moveto
572.687 1986.4476 224.7901 1995.3608 191 1962 curveto
168.3335 1939.6215 157.2251 1461.6219 154.6136 1331.4712 curveto
stroke
0 0 0 edgecolor
newpath 158.1103 1331.2661 moveto
154.4134 1321.3372 lineto
151.1117 1331.4044 lineto
closepath fill
1 setlinewidth
solid
0 0 0 edgecolor
newpath 158.1103 1331.2661 moveto
154.4134 1321.3372 lineto
151.1117 1331.4044 lineto
closepath stroke
0 0 0 edgecolor
14 /Times-Roman set_font
373 1989.8 moveto 79 (128:0/0.69315) alignedtext
grestore
% 59->2
gsave
1 setlinewidth
0 0 0 edgecolor
newpath 699.2115 1982.4706 moveto
733.0262 1981.6093 804.2707 1980 864.5 1980 curveto
864.5 1980 864.5 1980 1225.5 1980 curveto
1282.9783 1980 1313.9397 1989.7594 1350 1945 curveto
1366.606 1924.388 1379.0573 1530.1998 1382.2175 1420.2569 curveto
stroke
0 0 0 edgecolor
newpath 1385.7164 1420.339 moveto
1382.5021 1410.2436 lineto
1378.7193 1420.1401 lineto
closepath fill
1 setlinewidth
solid
0 0 0 edgecolor
newpath 1385.7164 1420.339 moveto
1382.5021 1410.2436 lineto
1378.7193 1420.1401 lineto
closepath stroke
0 0 0 edgecolor
14 /Times-Roman set_font
1007 1983.8 moveto 79 (128:0/0.69315) alignedtext
grestore
endpage
showpage
grestore
%%PageTrailer
%%EndPage: 1
%%Trailer
%%Pages: 1
%%BoundingBox: 36 164 828 628
end
restore
%%EOF
