%!PS-Adobe-3.0
%%Creator: graphviz version 2.40.1 (20161225.0304)
%%Title: FST
%%Pages: (atend)
%%BoundingBox: (atend)
%%EndComments
save
%%BeginProlog
/DotDict 200 dict def
DotDict begin

/setupLatin1 {
mark
/EncodingVector 256 array def
 EncodingVector 0

ISOLatin1Encoding 0 255 getinterval putinterval
EncodingVector 45 /hyphen put

% Set up ISO Latin 1 character encoding
/starnetISO {
        dup dup findfont dup length dict begin
        { 1 index /FID ne { def }{ pop pop } ifelse
        } forall
        /Encoding EncodingVector def
        currentdict end definefont
} def
/Times-Roman starnetISO def
/Times-Italic starnetISO def
/Times-Bold starnetISO def
/Times-BoldItalic starnetISO def
/Helvetica starnetISO def
/Helvetica-Oblique starnetISO def
/Helvetica-Bold starnetISO def
/Helvetica-BoldOblique starnetISO def
/Courier starnetISO def
/Courier-Oblique starnetISO def
/Courier-Bold starnetISO def
/Courier-BoldOblique starnetISO def
cleartomark
} bind def

%%BeginResource: procset graphviz 0 0
/coord-font-family /Times-Roman def
/default-font-family /Times-Roman def
/coordfont coord-font-family findfont 8 scalefont def

/InvScaleFactor 1.0 def
/set_scale {
       dup 1 exch div /InvScaleFactor exch def
       scale
} bind def

% styles
/solid { [] 0 setdash } bind def
/dashed { [9 InvScaleFactor mul dup ] 0 setdash } bind def
/dotted { [1 InvScaleFactor mul 6 InvScaleFactor mul] 0 setdash } bind def
/invis {/fill {newpath} def /stroke {newpath} def /show {pop newpath} def} bind def
/bold { 2 setlinewidth } bind def
/filled { } bind def
/unfilled { } bind def
/rounded { } bind def
/diagonals { } bind def
/tapered { } bind def

% hooks for setting color 
/nodecolor { sethsbcolor } bind def
/edgecolor { sethsbcolor } bind def
/graphcolor { sethsbcolor } bind def
/nopcolor {pop pop pop} bind def

/beginpage {	% i j npages
	/npages exch def
	/j exch def
	/i exch def
	/str 10 string def
	npages 1 gt {
		gsave
			coordfont setfont
			0 0 moveto
			(\() show i str cvs show (,) show j str cvs show (\)) show
		grestore
	} if
} bind def

/set_font {
	findfont exch
	scalefont setfont
} def

% draw text fitted to its expected width
/alignedtext {			% width text
	/text exch def
	/width exch def
	gsave
		width 0 gt {
			[] 0 setdash
			text stringwidth pop width exch sub text length div 0 text ashow
		} if
	grestore
} def

/boxprim {				% xcorner ycorner xsize ysize
		4 2 roll
		moveto
		2 copy
		exch 0 rlineto
		0 exch rlineto
		pop neg 0 rlineto
		closepath
} bind def

/ellipse_path {
	/ry exch def
	/rx exch def
	/y exch def
	/x exch def
	matrix currentmatrix
	newpath
	x y translate
	rx ry scale
	0 0 1 0 360 arc
	setmatrix
} bind def

/endpage { showpage } bind def
/showpage { } def

/layercolorseq
	[	% layer color sequence - darkest to lightest
		[0 0 0]
		[.2 .8 .8]
		[.4 .8 .8]
		[.6 .8 .8]
		[.8 .8 .8]
	]
def

/layerlen layercolorseq length def

/setlayer {/maxlayer exch def /curlayer exch def
	layercolorseq curlayer 1 sub layerlen mod get
	aload pop sethsbcolor
	/nodecolor {nopcolor} def
	/edgecolor {nopcolor} def
	/graphcolor {nopcolor} def
} bind def

/onlayer { curlayer ne {invis} if } def

/onlayers {
	/myupper exch def
	/mylower exch def
	curlayer mylower lt
	curlayer myupper gt
	or
	{invis} if
} def

/curlayer 0 def

%%EndResource
%%EndProlog
%%BeginSetup
14 default-font-family set_font
% /arrowlength 10 def
% /arrowwidth 5 def

% make sure pdfmark is harmless for PS-interpreters other than Distiller
/pdfmark where {pop} {userdict /pdfmark /cleartomark load put} ifelse
% make '<<' and '>>' safe on PS Level 1 devices
/languagelevel where {pop languagelevel}{1} ifelse
2 lt {
    userdict (<<) cvn ([) cvn load put
    userdict (>>) cvn ([) cvn load put
} if

%%EndSetup
setupLatin1
%%Page: 1 1
%%PageBoundingBox: 36 151 828 641
%%PageOrientation: Landscape
0 0 1 beginpage
gsave
36 151 792 490 boxprim clip newpath
0.328086 0.328086 set_scale 90 rotate 464.5 -2519.73 translate
% 0
gsave
2 setlinewidth
bold
0 0 0 nodecolor
18 1857 18 18 ellipse_path stroke
0 0 0 nodecolor
14 /Times-Roman set_font
14.5 1853.3 moveto 7 (0) alignedtext
grestore
% 1
gsave
1 setlinewidth
solid
0 0 0 nodecolor
154 1306 18 18 ellipse_path stroke
1 setlinewidth
solid
0 0 0 nodecolor
154 1306 22 22 ellipse_path stroke
0 0 0 nodecolor
14 /Times-Roman set_font
150.5 1302.3 moveto 7 (1) alignedtext
grestore
% 0->1
gsave
1 setlinewidth
0 0 0 edgecolor
newpath 22.3709 1839.2913 moveto
41.8677 1760.3006 121.0414 1439.5307 146.2509 1337.3954 curveto
stroke
0 0 0 edgecolor
newpath 149.7211 1337.9412 moveto
148.7195 1327.3938 lineto
142.9251 1336.2637 lineto
closepath fill
1 setlinewidth
solid
0 0 0 edgecolor
newpath 149.7211 1337.9412 moveto
148.7195 1327.3938 lineto
142.9251 1336.2637 lineto
closepath stroke
0 0 0 edgecolor
14 /Times-Roman set_font
51 1712.8 moveto 66 (0:0/0.69315) alignedtext
grestore
% 2
gsave
1 setlinewidth
solid
0 0 0 nodecolor
1383 1411 18 18 ellipse_path stroke
0 0 0 nodecolor
14 /Times-Roman set_font
1379.5 1407.3 moveto 7 (2) alignedtext
grestore
% 0->2
gsave
1 setlinewidth
0 0 0 edgecolor
newpath 18.623 1875.0731 moveto
22.3157 1968.3527 45.0583 2391 154 2391 curveto
154 2391 154 2391 1225.5 2391 curveto
1283.8971 2391 1315.1114 2395.8296 1350 2349 curveto
1377.8097 2311.6722 1382.2661 1593.486 1382.9023 1439.7919 curveto
stroke
0 0 0 edgecolor
newpath 1386.4039 1439.347 moveto
1382.9432 1429.3334 lineto
1379.404 1439.3196 lineto
closepath fill
1 setlinewidth
solid
0 0 0 edgecolor
newpath 1386.4039 1439.347 moveto
1382.9432 1429.3334 lineto
1379.404 1439.3196 lineto
closepath stroke
0 0 0 edgecolor
14 /Times-Roman set_font
646.5 2394.8 moveto 66 (0:0/0.69315) alignedtext
grestore
% 1->1
gsave
1 setlinewidth
0 0 0 edgecolor
newpath 152.1474 1328.2124 moveto
151.9958 1337.7952 152.6133 1346 154 1346 curveto
154.845 1346 155.4044 1342.9533 155.6782 1338.4045 curveto
stroke
0 0 0 edgecolor
newpath 159.1809 1338.2708 moveto
155.8526 1328.2124 lineto
152.1819 1338.151 lineto
closepath fill
1 setlinewidth
solid
0 0 0 edgecolor
newpath 159.1809 1338.2708 moveto
155.8526 1328.2124 lineto
152.1819 1338.151 lineto
closepath stroke
0 0 0 edgecolor
14 /Times-Roman set_font
121 1349.8 moveto 66 (5:1/0.69315) alignedtext
grestore
% 1->1
gsave
1 setlinewidth
0 0 0 edgecolor
newpath 150.7773 1328.019 moveto
149.4883 1345.724 150.5625 1364 154 1364 curveto
156.7661 1364 158.002 1352.1659 157.7075 1338.318 curveto
stroke
0 0 0 edgecolor
newpath 161.1891 1337.8434 moveto
157.2227 1328.019 lineto
154.1969 1338.1726 lineto
closepath fill
1 setlinewidth
solid
0 0 0 edgecolor
newpath 161.1891 1337.8434 moveto
157.2227 1328.019 lineto
154.1969 1338.1726 lineto
closepath stroke
0 0 0 edgecolor
14 /Times-Roman set_font
117.5 1367.8 moveto 73 (10:2/0.69315) alignedtext
grestore
% 1->1
gsave
1 setlinewidth
0 0 0 edgecolor
newpath 149.8705 1327.7844 moveto
146.9399 1352.9032 148.3164 1382 154 1382 curveto
158.9287 1382 160.6185 1360.1188 159.0692 1337.9257 curveto
stroke
0 0 0 edgecolor
newpath 162.5373 1337.4188 moveto
158.1295 1327.7844 lineto
155.5672 1338.0647 lineto
closepath fill
1 setlinewidth
solid
0 0 0 edgecolor
newpath 162.5373 1337.4188 moveto
158.1295 1327.7844 lineto
155.5672 1338.0647 lineto
closepath stroke
0 0 0 edgecolor
14 /Times-Roman set_font
117.5 1385.8 moveto 73 (82:3/0.69315) alignedtext
grestore
% 1->1
gsave
1 setlinewidth
0 0 0 edgecolor
newpath 149.2141 1327.714 moveto
144.3969 1359.815 145.9922 1400 154 1400 curveto
161.1945 1400 163.2129 1367.563 160.0552 1337.6944 curveto
stroke
0 0 0 edgecolor
newpath 163.5197 1337.1925 moveto
158.7859 1327.714 lineto
156.5756 1338.0757 lineto
closepath fill
1 setlinewidth
solid
0 0 0 edgecolor
newpath 163.5197 1337.1925 moveto
158.7859 1327.714 lineto
156.5756 1338.0757 lineto
closepath stroke
0 0 0 edgecolor
14 /Times-Roman set_font
117.5 1403.8 moveto 73 (78:3/0.69315) alignedtext
grestore
% 1->1
gsave
1 setlinewidth
0 0 0 edgecolor
newpath 148.7592 1327.4416 moveto
141.8527 1366.3101 143.5996 1418 154 1418 curveto
163.5066 1418 165.7832 1374.8125 160.8297 1337.7055 curveto
stroke
0 0 0 edgecolor
newpath 164.2295 1336.7885 moveto
159.2408 1327.4416 lineto
157.3119 1337.8594 lineto
closepath fill
1 setlinewidth
solid
0 0 0 edgecolor
newpath 164.2295 1336.7885 moveto
159.2408 1327.4416 lineto
157.3119 1337.8594 lineto
closepath stroke
0 0 0 edgecolor
14 /Times-Roman set_font
114.5 1421.8 moveto 79 (102:5/0.69315) alignedtext
grestore
% 1->1
gsave
1 setlinewidth
0 0 0 edgecolor
newpath 148.3738 1327.4238 moveto
139.3219 1372.8643 141.1973 1436 154 1436 curveto
165.8775 1436 168.35 1381.6597 161.4174 1337.5219 curveto
stroke
0 0 0 edgecolor
newpath 164.8191 1336.6588 moveto
159.6262 1327.4238 lineto
157.9267 1337.8815 lineto
closepath fill
1 setlinewidth
solid
0 0 0 edgecolor
newpath 164.8191 1336.6588 moveto
159.6262 1327.4238 lineto
157.9267 1337.8815 lineto
closepath stroke
0 0 0 edgecolor
14 /Times-Roman set_font
114.5 1439.8 moveto 79 (94:12/0.69315) alignedtext
grestore
% 1->1
gsave
1 setlinewidth
0 0 0 edgecolor
newpath 148.1048 1327.2204 moveto
136.7908 1379.1313 138.7559 1454 154 1454 curveto
168.2914 1454 170.9117 1388.1974 161.861 1337.1988 curveto
stroke
0 0 0 edgecolor
newpath 165.2621 1336.3553 moveto
159.8952 1327.2204 lineto
158.3941 1337.7084 lineto
closepath fill
1 setlinewidth
solid
0 0 0 edgecolor
newpath 165.2621 1336.3553 moveto
159.8952 1327.2204 lineto
158.3941 1337.7084 lineto
closepath stroke
0 0 0 edgecolor
14 /Times-Roman set_font
135 1457.8 moveto 38 (131:23) alignedtext
grestore
% 1->2
gsave
1 setlinewidth
0 0 0 edgecolor
newpath 154.0291 1328.1658 moveto
154.3158 1473.2077 157.4197 2282.1428 191 2321 curveto
229.5601 2365.6195 262.5273 2345 321.5 2345 curveto
321.5 2345 321.5 2345 1225.5 2345 curveto
1281.8521 2345 1313.3403 2363.7975 1350 2321 curveto
1379.3477 2286.7387 1382.596 1589.9394 1382.9553 1439.479 curveto
stroke
0 0 0 edgecolor
newpath 1386.4558 1439.2361 moveto
1382.9772 1429.2286 lineto
1379.4558 1439.221 lineto
closepath fill
1 setlinewidth
solid
0 0 0 edgecolor
newpath 1386.4558 1439.2361 moveto
1382.9772 1429.2286 lineto
1379.4558 1439.221 lineto
closepath stroke
0 0 0 edgecolor
14 /Times-Roman set_font
737.5 2348.8 moveto 66 (5:1/0.69315) alignedtext
grestore
% 1->2
gsave
1 setlinewidth
0 0 0 edgecolor
newpath 154.062 1328.2441 moveto
154.5544 1470.29 158.7181 2245.6987 191 2283 curveto
229.5916 2327.5922 262.5273 2307 321.5 2307 curveto
321.5 2307 321.5 2307 1225.5 2307 curveto
1281.8521 2307 1313.3066 2325.7685 1350 2283 curveto
1378.0615 2250.2925 1382.3101 1586.6528 1382.9077 1439.6622 curveto
stroke
0 0 0 edgecolor
newpath 1386.4091 1439.2595 moveto
1382.9473 1429.2462 lineto
1379.4092 1439.2328 lineto
closepath fill
1 setlinewidth
solid
0 0 0 edgecolor
newpath 1386.4091 1439.2595 moveto
1382.9473 1429.2462 lineto
1379.4092 1439.2328 lineto
closepath stroke
0 0 0 edgecolor
14 /Times-Roman set_font
734 2310.8 moveto 73 (10:2/0.69315) alignedtext
grestore
% 1->2
gsave
1 setlinewidth
0 0 0 edgecolor
newpath 154.0975 1328.2687 moveto
154.8019 1467.1061 160.0113 2209.2482 191 2245 curveto
229.6257 2289.5627 262.5273 2269 321.5 2269 curveto
321.5 2269 321.5 2269 1225.5 2269 curveto
1281.8521 2269 1313.2698 2287.7369 1350 2245 curveto
1376.8098 2213.8058 1382.0226 1581.7184 1382.8582 1439.3238 curveto
stroke
0 0 0 edgecolor
newpath 1386.3587 1439.2307 moveto
1382.9149 1429.2112 lineto
1379.3588 1439.1914 lineto
closepath fill
1 setlinewidth
solid
0 0 0 edgecolor
newpath 1386.3587 1439.2307 moveto
1382.9149 1429.2112 lineto
1379.3588 1439.1914 lineto
closepath stroke
0 0 0 edgecolor
14 /Times-Roman set_font
734 2272.8 moveto 73 (82:3/0.69315) alignedtext
grestore
% 1->2
gsave
1 setlinewidth
0 0 0 edgecolor
newpath 154.1357 1328.2375 moveto
155.0582 1463.6569 161.299 2172.7913 191 2207 curveto
229.6627 2251.5306 262.5273 2231 321.5 2231 curveto
321.5 2231 321.5 2231 1225.5 2231 curveto
1281.8521 2231 1313.2295 2249.7023 1350 2207 curveto
1375.5377 2177.3426 1381.7147 1577.7349 1382.8024 1439.3306 curveto
stroke
0 0 0 edgecolor
newpath 1386.3038 1439.1477 moveto
1382.8799 1429.1214 lineto
1379.304 1439.0945 lineto
closepath fill
1 setlinewidth
solid
0 0 0 edgecolor
newpath 1386.3038 1439.1477 moveto
1382.8799 1429.1214 lineto
1379.304 1439.0945 lineto
closepath stroke
0 0 0 edgecolor
14 /Times-Roman set_font
734 2234.8 moveto 73 (78:3/0.69315) alignedtext
grestore
% 1->2
gsave
1 setlinewidth
0 0 0 edgecolor
newpath 154.1722 1328.1771 moveto
155.2933 1460.1421 162.4282 2137.3953 191 2170 curveto
229.8147 2214.2935 262.6061 2193 321.5 2193 curveto
321.5 2193 321.5 2193 1225.5 2193 curveto
1281.8521 2193 1313.1852 2211.6641 1350 2169 curveto
1374.2471 2140.9004 1381.3795 1574.5964 1382.7377 1439.6733 curveto
stroke
0 0 0 edgecolor
newpath 1386.2407 1439.3724 moveto
1382.8388 1429.3386 lineto
1379.2411 1439.3038 lineto
closepath fill
1 setlinewidth
solid
0 0 0 edgecolor
newpath 1386.2407 1439.3724 moveto
1382.8388 1429.3386 lineto
1379.2411 1439.3038 lineto
closepath stroke
0 0 0 edgecolor
14 /Times-Roman set_font
731 2196.8 moveto 79 (102:5/0.69315) alignedtext
grestore
% 1->2
gsave
1 setlinewidth
0 0 0 edgecolor
newpath 154.1535 1328.3446 moveto
155.1499 1458.3131 161.6149 2112.1889 191 2142 curveto
225.6134 2177.1153 363.1931 2155 412.5 2155 curveto
412.5 2155 412.5 2155 1225.5 2155 curveto
1294.8337 2155 1317.5285 2122.2598 1350 2061 curveto
1364.7523 2033.1687 1378.846 1560.5218 1382.2325 1439.1998 curveto
stroke
0 0 0 edgecolor
newpath 1385.7313 1439.29 moveto
1382.5096 1429.1969 lineto
1378.734 1439.0961 lineto
closepath fill
1 setlinewidth
solid
0 0 0 edgecolor
newpath 1385.7313 1439.29 moveto
1382.5096 1429.1969 lineto
1378.734 1439.0961 lineto
closepath stroke
0 0 0 edgecolor
14 /Times-Roman set_font
731 2158.8 moveto 79 (94:12/0.69315) alignedtext
grestore
% 48
gsave
1 setlinewidth
solid
0 0 0 nodecolor
321.5 1518 19.4965 19.4965 ellipse_path stroke
0 0 0 nodecolor
14 /Times-Roman set_font
314.5 1514.3 moveto 14 (48) alignedtext
grestore
% 1->48
gsave
1 setlinewidth
0 0 0 edgecolor
newpath 155.9032 1328.1346 moveto
159.9322 1369.8994 170.6658 1458.1062 191 1480 curveto
216.8869 1507.8723 261.918 1515.7101 291.7183 1517.6928 curveto
stroke
0 0 0 edgecolor
newpath 291.788 1521.2001 moveto
301.9446 1518.1847 lineto
292.1243 1514.2082 lineto
closepath fill
1 setlinewidth
solid
0 0 0 edgecolor
newpath 291.788 1521.2001 moveto
301.9446 1518.1847 lineto
292.1243 1514.2082 lineto
closepath stroke
0 0 0 edgecolor
14 /Times-Roman set_font
218 1519.8 moveto 25 (75:4) alignedtext
grestore
% 47
gsave
1 setlinewidth
solid
0 0 0 nodecolor
321.5 2108 19.4965 19.4965 ellipse_path stroke
0 0 0 nodecolor
14 /Times-Roman set_font
314.5 2104.3 moveto 14 (47) alignedtext
grestore
% 1->47
gsave
1 setlinewidth
0 0 0 edgecolor
newpath 154.3594 1328.1869 moveto
156.4277 1450.3196 167.5499 2036.283 191 2066 curveto
213.6533 2094.7073 235.2689 2077.5531 270 2089 curveto
277.6779 2091.5305 285.9222 2094.4702 293.5144 2097.27 curveto
stroke
0 0 0 edgecolor
newpath 292.4247 2100.5992 moveto
303.0172 2100.824 lineto
294.8768 2094.0427 lineto
closepath fill
1 setlinewidth
solid
0 0 0 edgecolor
newpath 292.4247 2100.5992 moveto
303.0172 2100.824 lineto
294.8768 2094.0427 lineto
closepath stroke
0 0 0 edgecolor
14 /Times-Roman set_font
218 2092.8 moveto 25 (67:4) alignedtext
grestore
% 56
gsave
1 setlinewidth
solid
0 0 0 nodecolor
321.5 2051 19.4965 19.4965 ellipse_path stroke
0 0 0 nodecolor
14 /Times-Roman set_font
314.5 2047.3 moveto 14 (56) alignedtext
grestore
% 1->56
gsave
1 setlinewidth
0 0 0 edgecolor
newpath 154.4835 1328.181 moveto
157.0709 1442.7783 169.9556 1963.479 191 1990 curveto
213.7307 2018.6461 237.2242 1996.7817 270 2013 curveto
280.0087 2017.9526 290.0961 2024.873 298.6578 2031.4531 curveto
stroke
0 0 0 edgecolor
newpath 296.6527 2034.3308 moveto
306.6516 2037.8341 lineto
301.0197 2028.8601 lineto
closepath fill
1 setlinewidth
solid
0 0 0 edgecolor
newpath 296.6527 2034.3308 moveto
306.6516 2037.8341 lineto
301.0197 2028.8601 lineto
closepath stroke
0 0 0 edgecolor
14 /Times-Roman set_font
218 2016.8 moveto 25 (71:5) alignedtext
grestore
% 30
gsave
1 setlinewidth
solid
0 0 0 nodecolor
321.5 1109 19.4965 19.4965 ellipse_path stroke
0 0 0 nodecolor
14 /Times-Roman set_font
314.5 1105.3 moveto 14 (30) alignedtext
grestore
% 1->30
gsave
1 setlinewidth
0 0 0 edgecolor
newpath 156.1481 1283.8254 moveto
160.4669 1243.8558 171.4947 1162.0149 191 1142 curveto
217.1474 1115.1696 261.7226 1109.0016 291.3921 1108.1393 curveto
stroke
0 0 0 edgecolor
newpath 291.6238 1111.6371 moveto
301.5868 1108.0332 lineto
291.5509 1104.6375 lineto
closepath fill
1 setlinewidth
solid
0 0 0 edgecolor
newpath 291.6238 1111.6371 moveto
301.5868 1108.0332 lineto
291.5509 1104.6375 lineto
closepath stroke
0 0 0 edgecolor
14 /Times-Roman set_font
215 1145.8 moveto 31 (119:6) alignedtext
grestore
% 36
gsave
1 setlinewidth
solid
0 0 0 nodecolor
321.5 920 19.4965 19.4965 ellipse_path stroke
0 0 0 nodecolor
14 /Times-Roman set_font
314.5 916.3 moveto 14 (36) alignedtext
grestore
% 1->36
gsave
1 setlinewidth
0 0 0 edgecolor
newpath 154.8526 1283.8514 moveto
157.8834 1210.2485 169.143 977.0599 191 952 curveto
215.7176 923.6602 261.052 918.3229 291.2373 918.256 curveto
stroke
0 0 0 edgecolor
newpath 291.5469 921.7619 moveto
301.6065 918.437 lineto
291.6692 914.7629 lineto
closepath fill
1 setlinewidth
solid
0 0 0 edgecolor
newpath 291.5469 921.7619 moveto
301.6065 918.437 lineto
291.6692 914.7629 lineto
closepath stroke
0 0 0 edgecolor
14 /Times-Roman set_font
215 955.8 moveto 31 (119:6) alignedtext
grestore
% 19
gsave
1 setlinewidth
solid
0 0 0 nodecolor
321.5 1733 19.4965 19.4965 ellipse_path stroke
0 0 0 nodecolor
14 /Times-Roman set_font
314.5 1729.3 moveto 14 (19) alignedtext
grestore
% 1->19
gsave
1 setlinewidth
0 0 0 edgecolor
newpath 154.8896 1328.1758 moveto
158.0381 1401.8736 169.629 1635.4033 191 1661 curveto
214.437 1689.0712 238.8332 1664.8711 270 1684 curveto
278.3075 1689.0988 278.0455 1693.1701 285 1700 curveto
289.4512 1704.3715 294.3333 1708.9345 299.0381 1713.2239 curveto
stroke
0 0 0 edgecolor
newpath 296.9068 1716.0145 moveto
306.6813 1720.1024 lineto
301.5894 1710.8113 lineto
closepath fill
1 setlinewidth
solid
0 0 0 edgecolor
newpath 296.9068 1716.0145 moveto
306.6813 1720.1024 lineto
301.5894 1710.8113 lineto
closepath stroke
0 0 0 edgecolor
14 /Times-Roman set_font
218 1687.8 moveto 25 (35:7) alignedtext
grestore
% 17
gsave
1 setlinewidth
solid
0 0 0 nodecolor
321.5 1575 19.4965 19.4965 ellipse_path stroke
0 0 0 nodecolor
14 /Times-Roman set_font
314.5 1571.3 moveto 14 (17) alignedtext
grestore
% 1->17
gsave
1 setlinewidth
0 0 0 edgecolor
newpath 154.6774 1328.1758 moveto
156.6897 1379.4829 164.2779 1504.3339 191 1535 curveto
216.0957 1563.7997 261.332 1572.1899 291.3928 1574.4547 curveto
stroke
0 0 0 edgecolor
newpath 291.5342 1577.9682 moveto
301.7158 1575.0384 lineto
291.9294 1570.9793 lineto
closepath fill
1 setlinewidth
solid
0 0 0 edgecolor
newpath 291.5342 1577.9682 moveto
301.7158 1575.0384 lineto
291.9294 1570.9793 lineto
closepath stroke
0 0 0 edgecolor
14 /Times-Roman set_font
218 1575.8 moveto 25 (35:7) alignedtext
grestore
% 26
gsave
1 setlinewidth
solid
0 0 0 nodecolor
321.5 977 19.4965 19.4965 ellipse_path stroke
0 0 0 nodecolor
14 /Times-Roman set_font
314.5 973.3 moveto 14 (26) alignedtext
grestore
% 1->26
gsave
1 setlinewidth
0 0 0 edgecolor
newpath 155.0892 1283.8984 moveto
158.6294 1216.2942 170.7658 1015.6151 191 995 curveto
216.8256 968.6881 261.8726 968.376 291.6931 971.7528 curveto
stroke
0 0 0 edgecolor
newpath 291.5509 975.2649 moveto
301.9269 973.1225 lineto
292.4796 968.3268 lineto
closepath fill
1 setlinewidth
solid
0 0 0 edgecolor
newpath 291.5509 975.2649 moveto
301.9269 973.1225 lineto
292.4796 968.3268 lineto
closepath stroke
0 0 0 edgecolor
14 /Times-Roman set_font
218 998.8 moveto 25 (35:8) alignedtext
grestore
% 54
gsave
1 setlinewidth
solid
0 0 0 nodecolor
321.5 522 19.4965 19.4965 ellipse_path stroke
0 0 0 nodecolor
14 /Times-Roman set_font
314.5 518.3 moveto 14 (54) alignedtext
grestore
% 1->54
gsave
1 setlinewidth
0 0 0 edgecolor
newpath 154.32 1283.8374 moveto
156.1765 1161.8424 166.3479 576.5966 191 548 curveto
203.8496 533.0944 257.3976 526.5129 291.7808 523.7777 curveto
stroke
0 0 0 edgecolor
newpath 292.0517 527.2673 moveto
301.7699 523.0474 lineto
291.5412 520.286 lineto
closepath fill
1 setlinewidth
solid
0 0 0 edgecolor
newpath 292.0517 527.2673 moveto
301.7699 523.0474 lineto
291.5412 520.286 lineto
closepath stroke
0 0 0 edgecolor
14 /Times-Roman set_font
218 551.8 moveto 25 (51:9) alignedtext
grestore
% 14
gsave
1 setlinewidth
solid
0 0 0 nodecolor
321.5 1166 19.4965 19.4965 ellipse_path stroke
0 0 0 nodecolor
14 /Times-Roman set_font
314.5 1162.3 moveto 14 (14) alignedtext
grestore
% 1->14
gsave
1 setlinewidth
0 0 0 edgecolor
newpath 157.7439 1284.0706 moveto
163.5781 1252.6079 175.7666 1197.0064 191 1184 curveto
218.8838 1160.1926 263.0207 1159.1438 292.1199 1161.686 curveto
stroke
0 0 0 edgecolor
newpath 291.7878 1165.1703 moveto
302.1023 1162.7495 lineto
292.5294 1158.2097 lineto
closepath fill
1 setlinewidth
solid
0 0 0 edgecolor
newpath 291.7878 1165.1703 moveto
302.1023 1162.7495 lineto
292.5294 1158.2097 lineto
closepath stroke
0 0 0 edgecolor
14 /Times-Roman set_font
215 1187.8 moveto 31 (51:10) alignedtext
grestore
% 11
gsave
1 setlinewidth
solid
0 0 0 nodecolor
321.5 1260 19.4965 19.4965 ellipse_path stroke
0 0 0 nodecolor
14 /Times-Roman set_font
314.5 1256.3 moveto 14 (11) alignedtext
grestore
% 1->11
gsave
1 setlinewidth
0 0 0 edgecolor
newpath 164.225 1286.3012 moveto
170.4993 1276.4541 179.5383 1265.4901 191 1260 curveto
223.0696 1244.6387 264.8677 1248.1129 292.4115 1253.101 curveto
stroke
0 0 0 edgecolor
newpath 291.7295 1256.5339 moveto
302.22 1255.0508 lineto
293.0943 1249.6682 lineto
closepath fill
1 setlinewidth
solid
0 0 0 edgecolor
newpath 291.7295 1256.5339 moveto
302.22 1255.0508 lineto
293.0943 1249.6682 lineto
closepath stroke
0 0 0 edgecolor
14 /Times-Roman set_font
215 1263.8 moveto 31 (51:10) alignedtext
grestore
% 4
gsave
1 setlinewidth
solid
0 0 0 nodecolor
321.5 1902 18 18 ellipse_path stroke
0 0 0 nodecolor
14 /Times-Roman set_font
318 1898.3 moveto 7 (4) alignedtext
grestore
% 1->4
gsave
1 setlinewidth
0 0 0 edgecolor
newpath 154.6151 1328.3245 moveto
157.5919 1432.7079 171.1738 1868.4488 191 1889 curveto
217.0462 1915.9987 263.6234 1913.629 293.514 1908.5108 curveto
stroke
0 0 0 edgecolor
newpath 294.5441 1911.8769 moveto
303.7025 1906.5501 lineto
293.2212 1905.003 lineto
closepath fill
1 setlinewidth
solid
0 0 0 edgecolor
newpath 294.5441 1911.8769 moveto
303.7025 1906.5501 lineto
293.2212 1905.003 lineto
closepath stroke
0 0 0 edgecolor
14 /Times-Roman set_font
215 1914.8 moveto 31 (51:11) alignedtext
grestore
% 10
gsave
1 setlinewidth
solid
0 0 0 nodecolor
321.5 1847 19.4965 19.4965 ellipse_path stroke
0 0 0 nodecolor
14 /Times-Roman set_font
314.5 1843.3 moveto 14 (10) alignedtext
grestore
% 1->10
gsave
1 setlinewidth
0 0 0 edgecolor
newpath 154.1235 1328.1478 moveto
154.8389 1420.9339 159.6207 1775.318 191 1813 curveto
194.3038 1816.9674 255.0264 1831.6128 292.4623 1840.3354 curveto
stroke
0 0 0 edgecolor
newpath 291.8044 1843.7756 moveto
302.3365 1842.6247 lineto
293.3855 1836.9565 lineto
closepath fill
1 setlinewidth
solid
0 0 0 edgecolor
newpath 291.8044 1843.7756 moveto
302.3365 1842.6247 lineto
293.3855 1836.9565 lineto
closepath stroke
0 0 0 edgecolor
14 /Times-Roman set_font
215 1837.8 moveto 31 (15:13) alignedtext
grestore
% 45
gsave
1 setlinewidth
solid
0 0 0 nodecolor
321.5 264 19.4965 19.4965 ellipse_path stroke
0 0 0 nodecolor
14 /Times-Roman set_font
314.5 260.3 moveto 14 (45) alignedtext
grestore
% 1->45
gsave
1 setlinewidth
0 0 0 edgecolor
newpath 154.0353 1283.8184 moveto
154.3618 1138.6721 157.6758 329.1434 191 290 curveto
215.3805 261.3621 261.5306 258.6336 291.9008 260.4424 curveto
stroke
0 0 0 edgecolor
newpath 291.6782 263.9356 moveto
301.9234 261.2364 lineto
292.2311 256.9575 lineto
closepath fill
1 setlinewidth
solid
0 0 0 edgecolor
newpath 291.6782 263.9356 moveto
301.9234 261.2364 lineto
292.2311 256.9575 lineto
closepath stroke
0 0 0 edgecolor
14 /Times-Roman set_font
215 293.8 moveto 31 (15:14) alignedtext
grestore
% 50
gsave
1 setlinewidth
solid
0 0 0 nodecolor
321.5 207 19.4965 19.4965 ellipse_path stroke
0 0 0 nodecolor
14 /Times-Roman set_font
314.5 203.3 moveto 14 (50) alignedtext
grestore
% 1->50
gsave
1 setlinewidth
0 0 0 edgecolor
newpath 154.0291 1283.7659 moveto
154.3161 1134.6106 157.4243 284.2268 191 242 curveto
214.7675 212.1085 261.0843 206.0809 291.6571 205.6538 curveto
stroke
0 0 0 edgecolor
newpath 291.7336 209.1542 moveto
301.7517 205.7064 lineto
291.7701 202.1543 lineto
closepath fill
1 setlinewidth
solid
0 0 0 edgecolor
newpath 291.7336 209.1542 moveto
301.7517 205.7064 lineto
291.7701 202.1543 lineto
closepath stroke
0 0 0 edgecolor
14 /Times-Roman set_font
215 245.8 moveto 31 (39:15) alignedtext
grestore
% 52
gsave
1 setlinewidth
solid
0 0 0 nodecolor
321.5 49 19.4965 19.4965 ellipse_path stroke
0 0 0 nodecolor
14 /Times-Roman set_font
314.5 45.3 moveto 14 (52) alignedtext
grestore
% 1->52
gsave
1 setlinewidth
0 0 0 edgecolor
newpath 154.2862 1283.7841 moveto
156.4486 1119.5054 170.6867 99.0147 191 75 curveto
215.2894 46.2848 261.4642 43.5773 291.8646 45.4117 curveto
stroke
0 0 0 edgecolor
newpath 291.6505 48.9056 moveto
301.8979 46.2147 lineto
292.2091 41.928 lineto
closepath fill
1 setlinewidth
solid
0 0 0 edgecolor
newpath 291.6505 48.9056 moveto
301.8979 46.2147 lineto
292.2091 41.928 lineto
closepath stroke
0 0 0 edgecolor
14 /Times-Roman set_font
215 78.8 moveto 31 (39:15) alignedtext
grestore
% 57
gsave
1 setlinewidth
solid
0 0 0 nodecolor
321.5 1790 19.4965 19.4965 ellipse_path stroke
0 0 0 nodecolor
14 /Times-Roman set_font
314.5 1786.3 moveto 14 (57) alignedtext
grestore
% 1->57
gsave
1 setlinewidth
0 0 0 edgecolor
newpath 154.4553 1328.1276 moveto
156.3688 1411.721 164.9062 1705.1617 191 1737 curveto
214.1804 1765.2835 236.3951 1745.5781 270 1760 curveto
278.8431 1763.7951 288.0577 1768.792 296.2069 1773.6167 curveto
stroke
0 0 0 edgecolor
newpath 294.5207 1776.6881 moveto
304.8783 1778.9175 lineto
298.1717 1770.7156 lineto
closepath fill
1 setlinewidth
solid
0 0 0 edgecolor
newpath 294.5207 1776.6881 moveto
304.8783 1778.9175 lineto
298.1717 1770.7156 lineto
closepath stroke
0 0 0 edgecolor
14 /Times-Roman set_font
215 1763.8 moveto 31 (27:16) alignedtext
grestore
% 58
gsave
1 setlinewidth
solid
0 0 0 nodecolor
321.5 1957 19.4965 19.4965 ellipse_path stroke
0 0 0 nodecolor
14 /Times-Roman set_font
314.5 1953.3 moveto 14 (58) alignedtext
grestore
% 1->58
gsave
1 setlinewidth
0 0 0 edgecolor
newpath 154.5836 1328.2658 moveto
157.5147 1436.5275 171.2718 1903.6809 191 1927 curveto
197.5425 1934.7334 255.6685 1945.8427 292.1051 1952.1462 curveto
stroke
0 0 0 edgecolor
newpath 291.745 1955.6352 moveto
302.1908 1953.8645 lineto
292.9208 1948.7346 lineto
closepath fill
1 setlinewidth
solid
0 0 0 edgecolor
newpath 291.745 1955.6352 moveto
302.1908 1953.8645 lineto
292.9208 1948.7346 lineto
closepath stroke
0 0 0 edgecolor
14 /Times-Roman set_font
215 1950.8 moveto 31 (27:17) alignedtext
grestore
% 5
gsave
1 setlinewidth
solid
0 0 0 nodecolor
321.5 666 18 18 ellipse_path stroke
0 0 0 nodecolor
14 /Times-Roman set_font
318 662.3 moveto 7 (5) alignedtext
grestore
% 1->5
gsave
1 setlinewidth
0 0 0 edgecolor
newpath 154.6166 1283.853 moveto
157.6769 1177.2249 171.856 720.9347 191 698 curveto
215.63 668.4931 262.614 663.7127 292.9744 664.053 curveto
stroke
0 0 0 edgecolor
newpath 293.232 667.5626 moveto
303.3355 664.3738 lineto
293.4486 660.5659 lineto
closepath fill
1 setlinewidth
solid
0 0 0 edgecolor
newpath 293.232 667.5626 moveto
303.3355 664.3738 lineto
293.4486 660.5659 lineto
closepath stroke
0 0 0 edgecolor
14 /Times-Roman set_font
215 701.8 moveto 31 (23:18) alignedtext
grestore
% 8
gsave
1 setlinewidth
solid
0 0 0 nodecolor
321.5 720 18 18 ellipse_path stroke
0 0 0 nodecolor
14 /Times-Roman set_font
318 716.3 moveto 7 (8) alignedtext
grestore
% 1->8
gsave
1 setlinewidth
0 0 0 edgecolor
newpath 154.7077 1283.8809 moveto
158.0489 1182.4135 172.8427 765.5489 191 745 curveto
216.1675 716.5176 262.9971 714.3426 293.1792 716.4099 curveto
stroke
0 0 0 edgecolor
newpath 293.2047 719.9258 moveto
303.4748 717.3226 lineto
293.8229 712.9531 lineto
closepath fill
1 setlinewidth
solid
0 0 0 edgecolor
newpath 293.2047 719.9258 moveto
303.4748 717.3226 lineto
293.8229 712.9531 lineto
closepath stroke
0 0 0 edgecolor
14 /Times-Roman set_font
215 748.8 moveto 31 (55:19) alignedtext
grestore
% 44
gsave
1 setlinewidth
solid
0 0 0 nodecolor
321.5 1411 19.4965 19.4965 ellipse_path stroke
0 0 0 nodecolor
14 /Times-Roman set_font
314.5 1407.3 moveto 14 (44) alignedtext
grestore
% 1->44
gsave
1 setlinewidth
0 0 0 edgecolor
newpath 158.3185 1327.5937 moveto
164.5039 1356.078 176.7279 1403.8031 191 1414 curveto
220.725 1435.2374 264.7604 1428.5389 293.2971 1420.6658 curveto
stroke
0 0 0 edgecolor
newpath 294.4683 1423.9691 moveto
303.0542 1417.7616 lineto
292.4713 1417.26 lineto
closepath fill
1 setlinewidth
solid
0 0 0 edgecolor
newpath 294.4683 1423.9691 moveto
303.0542 1417.7616 lineto
292.4713 1417.26 lineto
closepath stroke
0 0 0 edgecolor
14 /Times-Roman set_font
215 1432.8 moveto 31 (55:20) alignedtext
grestore
% 43
gsave
1 setlinewidth
solid
0 0 0 nodecolor
321.5 1354 19.4965 19.4965 ellipse_path stroke
0 0 0 nodecolor
14 /Times-Roman set_font
314.5 1350.3 moveto 14 (43) alignedtext
grestore
% 1->43
gsave
1 setlinewidth
0 0 0 edgecolor
newpath 169.1033 1322.6593 moveto
175.306 1328.4656 182.9263 1334.4184 191 1338 curveto
223.419 1352.3815 264.5577 1355.1996 291.8894 1355.1931 curveto
stroke
0 0 0 edgecolor
newpath 292.0376 1358.6916 moveto
301.9912 1355.0617 lineto
291.9465 1351.6922 lineto
closepath fill
1 setlinewidth
solid
0 0 0 edgecolor
newpath 292.0376 1358.6916 moveto
301.9912 1355.0617 lineto
291.9465 1351.6922 lineto
closepath stroke
0 0 0 edgecolor
14 /Times-Roman set_font
215 1358.8 moveto 31 (55:20) alignedtext
grestore
% 42
gsave
1 setlinewidth
solid
0 0 0 nodecolor
321.5 826 19.4965 19.4965 ellipse_path stroke
0 0 0 nodecolor
14 /Times-Roman set_font
314.5 822.3 moveto 14 (42) alignedtext
grestore
% 1->42
gsave
1 setlinewidth
0 0 0 edgecolor
newpath 154.8151 1283.8104 moveto
158.3918 1189.3043 173.3097 824.4247 191 808 curveto
219.0083 781.9954 266.058 797.6109 295.355 811.5905 curveto
stroke
0 0 0 edgecolor
newpath 294.049 814.851 moveto
304.5569 816.2062 lineto
297.1876 808.594 lineto
closepath fill
1 setlinewidth
solid
0 0 0 edgecolor
newpath 294.049 814.851 moveto
304.5569 816.2062 lineto
297.1876 808.594 lineto
closepath stroke
0 0 0 edgecolor
14 /Times-Roman set_font
215 811.8 moveto 31 (55:20) alignedtext
grestore
% 21
gsave
1 setlinewidth
solid
0 0 0 nodecolor
321.5 371 19.4965 19.4965 ellipse_path stroke
0 0 0 nodecolor
14 /Times-Roman set_font
314.5 367.3 moveto 14 (21) alignedtext
grestore
% 1->21
gsave
1 setlinewidth
0 0 0 edgecolor
newpath 154.098 1283.7939 moveto
154.8007 1146.9748 159.9789 423.1772 191 389 curveto
216.0251 361.4289 261.9999 361.6459 292.157 365.4578 curveto
stroke
0 0 0 edgecolor
newpath 291.702 368.9284 moveto
302.1041 366.9164 lineto
292.7177 362.0025 lineto
closepath fill
1 setlinewidth
solid
0 0 0 edgecolor
newpath 291.702 368.9284 moveto
302.1041 366.9164 lineto
292.7177 362.0025 lineto
closepath stroke
0 0 0 edgecolor
14 /Times-Roman set_font
211.5 392.8 moveto 38 (123:21) alignedtext
grestore
% 61
gsave
1 setlinewidth
solid
0 0 0 nodecolor
321.5 465 19.4965 19.4965 ellipse_path stroke
0 0 0 nodecolor
14 /Times-Roman set_font
314.5 461.3 moveto 14 (61) alignedtext
grestore
% 1->61
gsave
1 setlinewidth
0 0 0 edgecolor
newpath 154.3042 1283.9475 moveto
156.1241 1158.5015 166.3358 539.3301 191 508 curveto
213.6201 479.2665 235.3673 496.7414 270 485 curveto
277.7055 482.3876 285.9591 479.3105 293.5515 476.3635 curveto
stroke
0 0 0 edgecolor
newpath 295.0332 479.5415 moveto
303.0498 472.6144 lineto
292.4632 473.0304 lineto
closepath fill
1 setlinewidth
solid
0 0 0 edgecolor
newpath 295.0332 479.5415 moveto
303.0498 472.6144 lineto
292.4632 473.0304 lineto
closepath stroke
0 0 0 edgecolor
14 /Times-Roman set_font
211.5 511.8 moveto 38 (107:22) alignedtext
grestore
% 3
gsave
1 setlinewidth
solid
0 0 0 nodecolor
1467 18 18 18 ellipse_path stroke
0 0 0 nodecolor
14 /Times-Roman set_font
1463.5 14.3 moveto 7 (3) alignedtext
grestore
% 2->3
gsave
1 setlinewidth
0 0 0 edgecolor
newpath 1384.0928 1392.8779 moveto
1393.0445 1244.4286 1454.2481 229.4687 1465.2935 46.299 curveto
stroke
0 0 0 edgecolor
newpath 1468.7984 46.3217 moveto
1465.9068 36.1292 lineto
1461.8111 45.9003 lineto
closepath fill
1 setlinewidth
solid
0 0 0 edgecolor
newpath 1468.7984 46.3217 moveto
1465.9068 36.1292 lineto
1461.8111 45.9003 lineto
closepath stroke
0 0 0 edgecolor
14 /Times-Roman set_font
1416 843.8 moveto 18 (1:0) alignedtext
grestore
% 49
gsave
1 setlinewidth
solid
0 0 0 nodecolor
503.5 1466 19.4965 19.4965 ellipse_path stroke
0 0 0 nodecolor
14 /Times-Roman set_font
496.5 1462.3 moveto 14 (49) alignedtext
grestore
% 48->49
gsave
1 setlinewidth
0 0 0 edgecolor
newpath 340.2917 1512.6309 moveto
372.1701 1503.5228 437.044 1484.9874 474.6914 1474.231 curveto
stroke
0 0 0 edgecolor
newpath 475.8842 1477.5304 moveto
484.5379 1471.4178 lineto
473.9611 1470.7997 lineto
closepath fill
1 setlinewidth
solid
0 0 0 edgecolor
newpath 475.8842 1477.5304 moveto
484.5379 1471.4178 lineto
473.9611 1470.7997 lineto
closepath stroke
0 0 0 edgecolor
14 /Times-Roman set_font
397 1506.8 moveto 31 (105:0) alignedtext
grestore
% 47->1
gsave
1 setlinewidth
0 0 0 edgecolor
newpath 302.9284 2114.3085 moveto
274.5443 2122.6401 220.5603 2133.1001 191 2104 curveto
163.2786 2076.7102 155.7274 1484.1901 154.2852 1338.2574 curveto
stroke
0 0 0 edgecolor
newpath 157.7841 1338.1223 moveto
154.1881 1328.1564 lineto
150.7844 1338.1896 lineto
closepath fill
1 setlinewidth
solid
0 0 0 edgecolor
newpath 157.7841 1338.1223 moveto
154.1881 1328.1564 lineto
150.7844 1338.1896 lineto
closepath stroke
0 0 0 edgecolor
14 /Times-Roman set_font
194 2126.8 moveto 73 (16:0/0.69315) alignedtext
grestore
% 47->2
gsave
1 setlinewidth
0 0 0 edgecolor
newpath 341.151 2106.7485 moveto
374.5126 2104.7351 444.3695 2101 503.5 2101 curveto
503.5 2101 503.5 2101 1225.5 2101 curveto
1295.6452 2101 1317.4682 2066.1452 1350 2004 curveto
1376.3504 1953.6632 1381.7889 1550.4232 1382.7918 1439.2776 curveto
stroke
0 0 0 edgecolor
newpath 1386.2925 1439.1993 moveto
1382.8778 1429.1698 lineto
1379.2927 1439.1396 lineto
closepath fill
1 setlinewidth
solid
0 0 0 edgecolor
newpath 1386.2925 1439.1993 moveto
1382.8778 1429.1698 lineto
1379.2927 1439.1396 lineto
closepath stroke
0 0 0 edgecolor
14 /Times-Roman set_font
828 2104.8 moveto 73 (16:0/0.69315) alignedtext
grestore
% 56->1
gsave
1 setlinewidth
0 0 0 edgecolor
newpath 301.7999 2050.4236 moveto
268.9873 2049.0124 205.3205 2044.204 191 2028 curveto
167.886 2001.846 157.0024 1475.8693 154.5482 1338.5575 curveto
stroke
0 0 0 edgecolor
newpath 158.0428 1338.2114 moveto
154.3673 1328.2746 lineto
151.0439 1338.3346 lineto
closepath fill
1 setlinewidth
solid
0 0 0 edgecolor
newpath 158.0428 1338.2114 moveto
154.3673 1328.2746 lineto
151.0439 1338.3346 lineto
closepath stroke
0 0 0 edgecolor
14 /Times-Roman set_font
194 2051.8 moveto 73 (96:0/0.69315) alignedtext
grestore
% 56->2
gsave
1 setlinewidth
0 0 0 edgecolor
newpath 341.1556 2050.1061 moveto
374.5241 2048.6679 444.3909 2046 503.5 2046 curveto
503.5 2046 503.5 2046 1225.5 2046 curveto
1297.0324 2046 1317.4049 2007.6746 1350 1944 curveto
1373.0786 1898.9159 1380.8021 1542.4532 1382.5691 1439.0343 curveto
stroke
0 0 0 edgecolor
newpath 1386.0686 1439.0868 moveto
1382.7347 1429.0302 lineto
1379.0695 1438.9709 lineto
closepath fill
1 setlinewidth
solid
0 0 0 edgecolor
newpath 1386.0686 1439.0868 moveto
1382.7347 1429.0302 lineto
1379.0695 1438.9709 lineto
closepath stroke
0 0 0 edgecolor
14 /Times-Roman set_font
828 2049.8 moveto 73 (96:0/0.69315) alignedtext
grestore
% 31
gsave
1 setlinewidth
solid
0 0 0 nodecolor
503.5 1114 19.4965 19.4965 ellipse_path stroke
0 0 0 nodecolor
14 /Times-Roman set_font
496.5 1110.3 moveto 14 (31) alignedtext
grestore
% 30->31
gsave
1 setlinewidth
0 0 0 edgecolor
newpath 341.3237 1109.5446 moveto
373.2714 1110.4223 436.3363 1112.1548 473.7131 1113.1817 curveto
stroke
0 0 0 edgecolor
newpath 473.8839 1116.6876 moveto
483.9763 1113.4636 lineto
474.0762 1109.6902 lineto
closepath fill
1 setlinewidth
solid
0 0 0 edgecolor
newpath 473.8839 1116.6876 moveto
483.9763 1113.4636 lineto
474.0762 1109.6902 lineto
closepath stroke
0 0 0 edgecolor
14 /Times-Roman set_font
400 1116.8 moveto 25 (49:0) alignedtext
grestore
% 37
gsave
1 setlinewidth
solid
0 0 0 nodecolor
503.5 912 19.4965 19.4965 ellipse_path stroke
0 0 0 nodecolor
14 /Times-Roman set_font
496.5 908.3 moveto 14 (37) alignedtext
grestore
% 36->37
gsave
1 setlinewidth
0 0 0 edgecolor
newpath 341.3237 919.1286 moveto
373.2714 917.7243 436.3363 914.9523 473.7131 913.3093 curveto
stroke
0 0 0 edgecolor
newpath 474.1396 916.794 moveto
483.9763 912.8582 lineto
473.8322 909.8008 lineto
closepath fill
1 setlinewidth
solid
0 0 0 edgecolor
newpath 474.1396 916.794 moveto
483.9763 912.8582 lineto
473.8322 909.8008 lineto
closepath stroke
0 0 0 edgecolor
14 /Times-Roman set_font
400 921.8 moveto 25 (49:0) alignedtext
grestore
% 20
gsave
1 setlinewidth
solid
0 0 0 nodecolor
503.5 1681 19.4965 19.4965 ellipse_path stroke
0 0 0 nodecolor
14 /Times-Roman set_font
496.5 1677.3 moveto 14 (20) alignedtext
grestore
% 19->20
gsave
1 setlinewidth
0 0 0 edgecolor
newpath 340.2917 1727.6309 moveto
372.1701 1718.5228 437.044 1699.9874 474.6914 1689.231 curveto
stroke
0 0 0 edgecolor
newpath 475.8842 1692.5304 moveto
484.5379 1686.4178 lineto
473.9611 1685.7997 lineto
closepath fill
1 setlinewidth
solid
0 0 0 edgecolor
newpath 475.8842 1692.5304 moveto
484.5379 1686.4178 lineto
473.9611 1685.7997 lineto
closepath stroke
0 0 0 edgecolor
14 /Times-Roman set_font
397 1720.8 moveto 31 (121:0) alignedtext
grestore
% 18
gsave
1 setlinewidth
solid
0 0 0 nodecolor
503.5 1575 19.4965 19.4965 ellipse_path stroke
0 0 0 nodecolor
14 /Times-Roman set_font
496.5 1571.3 moveto 14 (18) alignedtext
grestore
% 17->18
gsave
1 setlinewidth
0 0 0 edgecolor
newpath 341.3237 1575 moveto
373.2714 1575 436.3363 1575 473.7131 1575 curveto
stroke
0 0 0 edgecolor
newpath 473.9763 1578.5001 moveto
483.9763 1575 lineto
473.9762 1571.5001 lineto
closepath fill
1 setlinewidth
solid
0 0 0 edgecolor
newpath 473.9763 1578.5001 moveto
483.9763 1575 lineto
473.9762 1571.5001 lineto
closepath stroke
0 0 0 edgecolor
14 /Times-Roman set_font
400 1578.8 moveto 25 (61:0) alignedtext
grestore
% 27
gsave
1 setlinewidth
solid
0 0 0 nodecolor
503.5 969 19.4965 19.4965 ellipse_path stroke
0 0 0 nodecolor
14 /Times-Roman set_font
496.5 965.3 moveto 14 (27) alignedtext
grestore
% 26->27
gsave
1 setlinewidth
0 0 0 edgecolor
newpath 341.3237 976.1286 moveto
373.2714 974.7243 436.3363 971.9523 473.7131 970.3093 curveto
stroke
0 0 0 edgecolor
newpath 474.1396 973.794 moveto
483.9763 969.8582 lineto
473.8322 966.8008 lineto
closepath fill
1 setlinewidth
solid
0 0 0 edgecolor
newpath 474.1396 973.794 moveto
483.9763 969.8582 lineto
473.8322 966.8008 lineto
closepath stroke
0 0 0 edgecolor
14 /Times-Roman set_font
400 978.8 moveto 25 (61:0) alignedtext
grestore
% 55
gsave
1 setlinewidth
solid
0 0 0 nodecolor
503.5 573 19.4965 19.4965 ellipse_path stroke
0 0 0 nodecolor
14 /Times-Roman set_font
496.5 569.3 moveto 14 (55) alignedtext
grestore
% 54->55
gsave
1 setlinewidth
0 0 0 edgecolor
newpath 340.9176 524.2927 moveto
366.7677 527.6984 413.6796 535.1181 452 548 curveto
460.4389 550.8368 469.2777 554.7494 477.2032 558.6375 curveto
stroke
0 0 0 edgecolor
newpath 475.8312 561.8667 moveto
486.3295 563.294 lineto
479.0127 555.6314 lineto
closepath fill
1 setlinewidth
solid
0 0 0 edgecolor
newpath 475.8312 561.8667 moveto
486.3295 563.294 lineto
479.0127 555.6314 lineto
closepath stroke
0 0 0 edgecolor
14 /Times-Roman set_font
400 551.8 moveto 25 (69:0) alignedtext
grestore
% 15
gsave
1 setlinewidth
solid
0 0 0 nodecolor
503.5 1171 19.4965 19.4965 ellipse_path stroke
0 0 0 nodecolor
14 /Times-Roman set_font
496.5 1167.3 moveto 14 (15) alignedtext
grestore
% 14->15
gsave
1 setlinewidth
0 0 0 edgecolor
newpath 341.3237 1166.5446 moveto
373.2714 1167.4223 436.3363 1169.1548 473.7131 1170.1817 curveto
stroke
0 0 0 edgecolor
newpath 473.8839 1173.6876 moveto
483.9763 1170.4636 lineto
474.0762 1166.6902 lineto
closepath fill
1 setlinewidth
solid
0 0 0 edgecolor
newpath 473.8839 1173.6876 moveto
483.9763 1170.4636 lineto
474.0762 1166.6902 lineto
closepath stroke
0 0 0 edgecolor
14 /Times-Roman set_font
397 1173.8 moveto 31 (105:0) alignedtext
grestore
% 12
gsave
1 setlinewidth
solid
0 0 0 nodecolor
503.5 1265 19.4965 19.4965 ellipse_path stroke
0 0 0 nodecolor
14 /Times-Roman set_font
496.5 1261.3 moveto 14 (12) alignedtext
grestore
% 11->12
gsave
1 setlinewidth
0 0 0 edgecolor
newpath 341.3237 1260.5446 moveto
373.2714 1261.4223 436.3363 1263.1548 473.7131 1264.1817 curveto
stroke
0 0 0 edgecolor
newpath 473.8839 1267.6876 moveto
483.9763 1264.4636 lineto
474.0762 1260.6902 lineto
closepath fill
1 setlinewidth
solid
0 0 0 edgecolor
newpath 473.8839 1267.6876 moveto
483.9763 1264.4636 lineto
474.0762 1260.6902 lineto
closepath stroke
0 0 0 edgecolor
14 /Times-Roman set_font
400 1267.8 moveto 25 (81:0) alignedtext
grestore
% 4->1
gsave
1 setlinewidth
0 0 0 edgecolor
newpath 306.8674 1891.1381 moveto
296.9172 1884.2082 283.208 1875.5221 270 1870 curveto
236.6824 1856.0704 214.2995 1878.5904 191 1851 curveto
174.3843 1831.3243 159.3242 1452.5737 155.1449 1338.3407 curveto
stroke
0 0 0 edgecolor
newpath 158.6349 1337.9992 moveto
154.7747 1328.1326 lineto
151.6395 1338.2529 lineto
closepath fill
1 setlinewidth
solid
0 0 0 edgecolor
newpath 158.6349 1337.9992 moveto
154.7747 1328.1326 lineto
151.6395 1338.2529 lineto
closepath stroke
0 0 0 edgecolor
14 /Times-Roman set_font
194 1873.8 moveto 73 (64:0/0.69315) alignedtext
grestore
% 4->2
gsave
1 setlinewidth
0 0 0 edgecolor
newpath 339.5761 1901.0092 moveto
372.2745 1899.3051 443.4327 1896 503.5 1896 curveto
503.5 1896 503.5 1896 1225.5 1896 curveto
1306.1446 1896 1316.7713 1837.4807 1350 1764 curveto
1376.1136 1706.2534 1381.5686 1512.9935 1382.7035 1439.6029 curveto
stroke
0 0 0 edgecolor
newpath 1386.2075 1439.3301 moveto
1382.8463 1429.2826 lineto
1379.2082 1439.2332 lineto
closepath fill
1 setlinewidth
solid
0 0 0 edgecolor
newpath 1386.2075 1439.3301 moveto
1382.8463 1429.2826 lineto
1379.2082 1439.2332 lineto
closepath stroke
0 0 0 edgecolor
14 /Times-Roman set_font
828 1899.8 moveto 73 (64:0/0.69315) alignedtext
grestore
% 10->1
gsave
1 setlinewidth
0 0 0 edgecolor
newpath 305.2124 1835.9407 moveto
298.5034 1830.9281 290.9304 1824.64 285 1818 curveto
276.621 1808.6184 280.2074 1801.3507 270 1794 curveto
240.6955 1772.8968 214.4501 1802.4625 191 1775 curveto
162.7587 1741.9264 155.8987 1439.2419 154.3908 1338.467 curveto
stroke
0 0 0 edgecolor
newpath 157.8878 1338.2275 moveto
154.2465 1328.2781 lineto
150.8885 1338.3267 lineto
closepath fill
1 setlinewidth
solid
0 0 0 edgecolor
newpath 157.8878 1338.2275 moveto
154.2465 1328.2781 lineto
150.8885 1338.3267 lineto
closepath stroke
0 0 0 edgecolor
14 /Times-Roman set_font
191 1797.8 moveto 79 (128:0/0.69315) alignedtext
grestore
% 10->2
gsave
1 setlinewidth
0 0 0 edgecolor
newpath 341.1448 1845.391 moveto
374.4972 1842.8023 444.341 1838 503.5 1838 curveto
503.5 1838 503.5 1838 1225.5 1838 curveto
1315.6031 1838 1315.5676 1761.2645 1350 1678 curveto
1367.6851 1635.2338 1377.7645 1498.6882 1381.4161 1439.1757 curveto
stroke
0 0 0 edgecolor
newpath 1384.9213 1439.1907 moveto
1382.0235 1428.9999 lineto
1377.9338 1438.7735 lineto
closepath fill
1 setlinewidth
solid
0 0 0 edgecolor
newpath 1384.9213 1439.1907 moveto
1382.0235 1428.9999 lineto
1377.9338 1438.7735 lineto
closepath stroke
0 0 0 edgecolor
14 /Times-Roman set_font
825 1841.8 moveto 79 (128:0/0.69315) alignedtext
grestore
% 46
gsave
1 setlinewidth
solid
0 0 0 nodecolor
503.5 314 19.4965 19.4965 ellipse_path stroke
0 0 0 nodecolor
14 /Times-Roman set_font
496.5 310.3 moveto 14 (46) alignedtext
grestore
% 45->46
gsave
1 setlinewidth
0 0 0 edgecolor
newpath 340.8873 266.384 moveto
366.7039 269.8906 413.5788 277.4219 452 290 curveto
460.3976 292.7492 469.224 296.5129 477.1509 300.2447 curveto
stroke
0 0 0 edgecolor
newpath 475.7635 303.4622 moveto
486.2845 304.7103 lineto
478.8381 297.1736 lineto
closepath fill
1 setlinewidth
solid
0 0 0 edgecolor
newpath 475.7635 303.4622 moveto
486.2845 304.7103 lineto
478.8381 297.1736 lineto
closepath stroke
0 0 0 edgecolor
14 /Times-Roman set_font
397 293.8 moveto 31 (129:0) alignedtext
grestore
% 51
gsave
1 setlinewidth
solid
0 0 0 nodecolor
503.5 207 19.4965 19.4965 ellipse_path stroke
0 0 0 nodecolor
14 /Times-Roman set_font
496.5 203.3 moveto 14 (51) alignedtext
grestore
% 50->51
gsave
1 setlinewidth
0 0 0 edgecolor
newpath 341.3237 207 moveto
373.2714 207 436.3363 207 473.7131 207 curveto
stroke
0 0 0 edgecolor
newpath 473.9763 210.5001 moveto
483.9763 207 lineto
473.9762 203.5001 lineto
closepath fill
1 setlinewidth
solid
0 0 0 edgecolor
newpath 473.9763 210.5001 moveto
483.9763 207 lineto
473.9762 203.5001 lineto
closepath stroke
0 0 0 edgecolor
14 /Times-Roman set_font
400 210.8 moveto 25 (93:0) alignedtext
grestore
% 53
gsave
1 setlinewidth
solid
0 0 0 nodecolor
503.5 104 19.4965 19.4965 ellipse_path stroke
0 0 0 nodecolor
14 /Times-Roman set_font
496.5 100.3 moveto 14 (53) alignedtext
grestore
% 52->53
gsave
1 setlinewidth
0 0 0 edgecolor
newpath 341.0407 50.944 moveto
367.0272 53.9636 414.0897 60.957 452 75 curveto
460.9486 78.3148 470.1921 83.0484 478.3352 87.7325 curveto
stroke
0 0 0 edgecolor
newpath 476.6112 90.7797 moveto
486.9872 92.9217 lineto
480.2117 84.7766 lineto
closepath fill
1 setlinewidth
solid
0 0 0 edgecolor
newpath 476.6112 90.7797 moveto
486.9872 92.9217 lineto
480.2117 84.7766 lineto
closepath stroke
0 0 0 edgecolor
14 /Times-Roman set_font
397 78.8 moveto 31 (129:0) alignedtext
grestore
% 57->1
gsave
1 setlinewidth
0 0 0 edgecolor
newpath 304.828 1779.8107 moveto
297.891 1774.8651 290.2486 1768.3905 285 1761 curveto
273.2804 1744.4976 285.007 1731.5819 270 1718 curveto
243.2251 1693.7677 214.6574 1726.2842 191 1699 curveto
167.542 1671.9457 157.7251 1427.115 154.9113 1338.1355 curveto
stroke
0 0 0 edgecolor
newpath 158.408 1337.9698 moveto
154.6024 1328.082 lineto
151.4113 1338.1848 lineto
closepath fill
1 setlinewidth
solid
0 0 0 edgecolor
newpath 158.408 1337.9698 moveto
154.6024 1328.082 lineto
151.4113 1338.1848 lineto
closepath stroke
0 0 0 edgecolor
14 /Times-Roman set_font
191 1721.8 moveto 79 (128:0/0.69315) alignedtext
grestore
% 57->2
gsave
1 setlinewidth
0 0 0 edgecolor
newpath 340.4696 1784.9486 moveto
373.3904 1776.6399 443.3478 1761 503.5 1761 curveto
503.5 1761 503.5 1761 1225.5 1761 curveto
1323.1375 1761 1312.1868 1670.0181 1350 1580 curveto
1369.6402 1533.2445 1377.7418 1474.2442 1380.9727 1439.7584 curveto
stroke
0 0 0 edgecolor
newpath 1384.4877 1439.7333 moveto
1381.859 1429.4697 lineto
1377.5136 1439.1324 lineto
closepath fill
1 setlinewidth
solid
0 0 0 edgecolor
newpath 1384.4877 1439.7333 moveto
1381.859 1429.4697 lineto
1377.5136 1439.1324 lineto
closepath stroke
0 0 0 edgecolor
14 /Times-Roman set_font
825 1764.8 moveto 79 (128:0/0.69315) alignedtext
grestore
% 59
gsave
1 setlinewidth
solid
0 0 0 nodecolor
503.5 1957 19.4965 19.4965 ellipse_path stroke
0 0 0 nodecolor
14 /Times-Roman set_font
496.5 1953.3 moveto 14 (59) alignedtext
grestore
% 58->59
gsave
1 setlinewidth
0 0 0 edgecolor
newpath 341.3237 1957 moveto
373.2714 1957 436.3363 1957 473.7131 1957 curveto
stroke
0 0 0 edgecolor
newpath 473.9763 1960.5001 moveto
483.9763 1957 lineto
473.9762 1953.5001 lineto
closepath fill
1 setlinewidth
solid
0 0 0 edgecolor
newpath 473.9763 1960.5001 moveto
483.9763 1957 lineto
473.9762 1953.5001 lineto
closepath stroke
0 0 0 edgecolor
14 /Times-Roman set_font
400 1960.8 moveto 25 (73:0) alignedtext
grestore
% 6
gsave
1 setlinewidth
solid
0 0 0 nodecolor
503.5 666 18 18 ellipse_path stroke
0 0 0 nodecolor
14 /Times-Roman set_font
500 662.3 moveto 7 (6) alignedtext
grestore
% 5->6
gsave
1 setlinewidth
0 0 0 edgecolor
newpath 339.6162 666 moveto
371.3677 666 437.2829 666 475.1296 666 curveto
stroke
0 0 0 edgecolor
newpath 475.4571 669.5001 moveto
485.457 666 lineto
475.457 662.5001 lineto
closepath fill
1 setlinewidth
solid
0 0 0 edgecolor
newpath 475.4571 669.5001 moveto
485.457 666 lineto
475.457 662.5001 lineto
closepath stroke
0 0 0 edgecolor
14 /Times-Roman set_font
400 669.8 moveto 25 (69:0) alignedtext
grestore
% 9
gsave
1 setlinewidth
solid
0 0 0 nodecolor
503.5 773 18 18 ellipse_path stroke
0 0 0 nodecolor
14 /Times-Roman set_font
500 769.3 moveto 7 (9) alignedtext
grestore
% 8->9
gsave
1 setlinewidth
0 0 0 edgecolor
newpath 339.695 721.6955 moveto
365.3495 724.4834 413.3391 731.166 452 745 curveto
461.329 748.3382 471.0109 753.1871 479.428 757.9148 curveto
stroke
0 0 0 edgecolor
newpath 477.9095 761.0814 moveto
488.3075 763.114 lineto
481.4465 755.0408 lineto
closepath fill
1 setlinewidth
solid
0 0 0 edgecolor
newpath 477.9095 761.0814 moveto
488.3075 763.114 lineto
481.4465 755.0408 lineto
closepath stroke
0 0 0 edgecolor
14 /Times-Roman set_font
400 748.8 moveto 25 (93:0) alignedtext
grestore
% 44->1
gsave
1 setlinewidth
0 0 0 edgecolor
newpath 302.4797 1404.8846 moveto
292.7865 1401.8205 280.7959 1398.1105 270 1395 curveto
235.0897 1384.9417 219.5633 1396.4508 191 1374 curveto
178.8409 1364.4429 170.1371 1349.7385 164.2389 1336.4451 curveto
stroke
0 0 0 edgecolor
newpath 167.4483 1335.0461 moveto
160.4307 1327.1086 lineto
160.9667 1337.6899 lineto
closepath fill
1 setlinewidth
solid
0 0 0 edgecolor
newpath 167.4483 1335.0461 moveto
160.4307 1327.1086 lineto
160.9667 1337.6899 lineto
closepath stroke
0 0 0 edgecolor
14 /Times-Roman set_font
194 1398.8 moveto 73 (80:0/0.69315) alignedtext
grestore
% 44->2
gsave
1 setlinewidth
0 0 0 edgecolor
newpath 341.1605 1411 moveto
374.5361 1411 444.4132 1411 503.5 1411 curveto
503.5 1411 503.5 1411 1225.5 1411 curveto
1270.5061 1411 1322.7463 1411 1354.3139 1411 curveto
stroke
0 0 0 edgecolor
newpath 1354.5718 1414.5001 moveto
1364.5718 1411 lineto
1354.5718 1407.5001 lineto
closepath fill
1 setlinewidth
solid
0 0 0 edgecolor
newpath 1354.5718 1414.5001 moveto
1364.5718 1411 lineto
1354.5718 1407.5001 lineto
closepath stroke
0 0 0 edgecolor
14 /Times-Roman set_font
828 1414.8 moveto 73 (80:0/0.69315) alignedtext
grestore
% 43->1
gsave
1 setlinewidth
0 0 0 edgecolor
newpath 306.8161 1341.1533 moveto
297.0598 1333.379 283.5864 1324.0251 270 1319 curveto
242.9691 1309.0023 210.171 1306.1008 186.3561 1305.4965 curveto
stroke
0 0 0 edgecolor
newpath 186.1439 1301.9935 moveto
176.0993 1305.3632 lineto
186.0529 1308.9929 lineto
closepath fill
1 setlinewidth
solid
0 0 0 edgecolor
newpath 186.1439 1301.9935 moveto
176.0993 1305.3632 lineto
186.0529 1308.9929 lineto
closepath stroke
0 0 0 edgecolor
14 /Times-Roman set_font
191 1322.8 moveto 79 (120:0/0.69315) alignedtext
grestore
% 43->2
gsave
1 setlinewidth
0 0 0 edgecolor
newpath 341.1535 1355.0727 moveto
374.5188 1356.7985 444.3811 1360 503.5 1360 curveto
503.5 1360 503.5 1360 1225.5 1360 curveto
1274.2574 1360 1327.5566 1382.3949 1357.9681 1397.5044 curveto
stroke
0 0 0 edgecolor
newpath 1356.505 1400.6872 moveto
1367.003 1402.1165 lineto
1359.6877 1394.4525 lineto
closepath fill
1 setlinewidth
solid
0 0 0 edgecolor
newpath 1356.505 1400.6872 moveto
1367.003 1402.1165 lineto
1359.6877 1394.4525 lineto
closepath stroke
0 0 0 edgecolor
14 /Times-Roman set_font
825 1363.8 moveto 79 (120:0/0.69315) alignedtext
grestore
% 42->1
gsave
1 setlinewidth
0 0 0 edgecolor
newpath 301.8756 826.1453 moveto
269.1773 826.835 205.6783 830.2279 191 846 curveto
161.9692 877.1941 155.6367 1174.2347 154.3256 1273.716 curveto
stroke
0 0 0 edgecolor
newpath 150.8251 1273.7388 moveto
154.2014 1283.7812 lineto
157.8246 1273.8252 lineto
closepath fill
1 setlinewidth
solid
0 0 0 edgecolor
newpath 150.8251 1273.7388 moveto
154.2014 1283.7812 lineto
157.8246 1273.8252 lineto
closepath stroke
0 0 0 edgecolor
14 /Times-Roman set_font
194 849.8 moveto 73 (88:0/0.69315) alignedtext
grestore
% 42->2
gsave
1 setlinewidth
0 0 0 edgecolor
newpath 341.151 824.7485 moveto
374.5126 822.7351 444.3695 819 503.5 819 curveto
503.5 819 503.5 819 1225.5 819 curveto
1300.8268 819 1317.4351 866.0761 1350 934 curveto
1369.3723 974.4069 1379.5423 1286.0072 1382.2514 1382.5669 curveto
stroke
0 0 0 edgecolor
newpath 1378.7577 1382.8451 moveto
1382.5315 1392.745 lineto
1385.755 1382.6525 lineto
closepath fill
1 setlinewidth
solid
0 0 0 edgecolor
newpath 1378.7577 1382.8451 moveto
1382.5315 1392.745 lineto
1385.755 1382.6525 lineto
closepath stroke
0 0 0 edgecolor
14 /Times-Roman set_font
828 822.8 moveto 73 (88:0/0.69315) alignedtext
grestore
% 22
gsave
1 setlinewidth
solid
0 0 0 nodecolor
503.5 371 19.4965 19.4965 ellipse_path stroke
0 0 0 nodecolor
14 /Times-Roman set_font
496.5 367.3 moveto 14 (22) alignedtext
grestore
% 21->22
gsave
1 setlinewidth
0 0 0 edgecolor
newpath 341.3237 371 moveto
373.2714 371 436.3363 371 473.7131 371 curveto
stroke
0 0 0 edgecolor
newpath 473.9763 374.5001 moveto
483.9763 371 lineto
473.9762 367.5001 lineto
closepath fill
1 setlinewidth
solid
0 0 0 edgecolor
newpath 473.9763 374.5001 moveto
483.9763 371 lineto
473.9762 367.5001 lineto
closepath stroke
0 0 0 edgecolor
14 /Times-Roman set_font
397 374.8 moveto 31 (105:0) alignedtext
grestore
% 61->1
gsave
1 setlinewidth
0 0 0 edgecolor
newpath 302.9982 458.1768 moveto
274.7074 449.0752 220.8463 437.2196 191 466 curveto
161.4313 494.5128 155.2545 1122.4314 154.1945 1273.5192 curveto
stroke
0 0 0 edgecolor
newpath 150.6918 1273.926 moveto
154.1243 1283.9494 lineto
157.6916 1273.9732 lineto
closepath fill
1 setlinewidth
solid
0 0 0 edgecolor
newpath 150.6918 1273.926 moveto
154.1243 1283.9494 lineto
157.6916 1273.9732 lineto
closepath stroke
0 0 0 edgecolor
14 /Times-Roman set_font
194 469.8 moveto 73 (88:0/0.69315) alignedtext
grestore
% 61->2
gsave
1 setlinewidth
0 0 0 edgecolor
newpath 340.4696 470.0514 moveto
373.3904 478.3601 443.3478 494 503.5 494 curveto
503.5 494 503.5 494 1225.5 494 curveto
1295.9192 494 1317.976 529.2838 1350 592 curveto
1368.3313 627.9002 1380.0671 1242.0038 1382.52 1382.5201 curveto
stroke
0 0 0 edgecolor
newpath 1379.0265 1382.9353 moveto
1382.6987 1392.8733 lineto
1386.0255 1382.8143 lineto
closepath fill
1 setlinewidth
solid
0 0 0 edgecolor
newpath 1379.0265 1382.9353 moveto
1382.6987 1392.8733 lineto
1386.0255 1382.8143 lineto
closepath stroke
0 0 0 edgecolor
14 /Times-Roman set_font
828 497.8 moveto 73 (88:0/0.69315) alignedtext
grestore
% 3->1
gsave
1 setlinewidth
0 0 0 edgecolor
newpath 1449.4862 12.6722 moveto
1432.6204 8.0178 1406.3075 2 1383 2 curveto
321.5 2 321.5 2 321.5 2 curveto
260.8366 2 227.7763 -6.2447 191 42 curveto
171.7638 67.2348 157.0886 1078.3143 154.4311 1273.5561 curveto
stroke
0 0 0 edgecolor
newpath 150.929 1273.6961 moveto
154.2934 1283.7426 lineto
157.9284 1273.7908 lineto
closepath fill
1 setlinewidth
solid
0 0 0 edgecolor
newpath 150.929 1273.6961 moveto
154.2934 1283.7426 lineto
157.9284 1273.7908 lineto
closepath stroke
0 0 0 edgecolor
14 /Times-Roman set_font
849 5.8 moveto 31 (132:0) alignedtext
grestore
% 7
gsave
1 setlinewidth
solid
0 0 0 nodecolor
679.5 666 18 18 ellipse_path stroke
0 0 0 nodecolor
14 /Times-Roman set_font
676 662.3 moveto 7 (7) alignedtext
grestore
% 6->7
gsave
1 setlinewidth
0 0 0 edgecolor
newpath 521.6722 666 moveto
552.3158 666 614.4875 666 650.9868 666 curveto
stroke
0 0 0 edgecolor
newpath 651.4267 669.5001 moveto
661.4267 666 lineto
651.4266 662.5001 lineto
closepath fill
1 setlinewidth
solid
0 0 0 edgecolor
newpath 651.4267 669.5001 moveto
661.4267 666 lineto
651.4266 662.5001 lineto
closepath stroke
0 0 0 edgecolor
14 /Times-Roman set_font
579 669.8 moveto 25 (45:0) alignedtext
grestore
% 7->1
gsave
1 setlinewidth
0 0 0 edgecolor
newpath 662.0399 661.5029 moveto
635.7775 654.9942 584.4456 643.2616 540 639 curveto
437.2018 629.1432 242.0541 600.6568 191 662 curveto
171.2695 685.7068 158.0944 1145.6379 154.8057 1273.3533 curveto
stroke
0 0 0 edgecolor
newpath 151.2992 1273.5689 moveto
154.5435 1283.6548 lineto
158.2969 1273.7471 lineto
closepath fill
1 setlinewidth
solid
0 0 0 edgecolor
newpath 151.2992 1273.5689 moveto
154.5435 1283.6548 lineto
158.2969 1273.7471 lineto
closepath stroke
0 0 0 edgecolor
14 /Times-Roman set_font
376 633.8 moveto 73 (48:0/0.69315) alignedtext
grestore
% 7->2
gsave
1 setlinewidth
0 0 0 edgecolor
newpath 696.9266 671.0705 moveto
729.5253 680.0936 802.0806 698 864.5 698 curveto
864.5 698 864.5 698 1225.5 698 curveto
1287.1181 698 1316.0829 707.5566 1350 759 curveto
1367.3917 785.3787 1379.526 1260.6218 1382.3639 1382.6368 curveto
stroke
0 0 0 edgecolor
newpath 1378.8662 1382.7803 moveto
1382.5954 1392.6972 lineto
1385.8644 1382.6193 lineto
closepath fill
1 setlinewidth
solid
0 0 0 edgecolor
newpath 1378.8662 1382.7803 moveto
1382.5954 1392.6972 lineto
1385.8644 1382.6193 lineto
closepath stroke
0 0 0 edgecolor
14 /Times-Roman set_font
1010 701.8 moveto 73 (48:0/0.69315) alignedtext
grestore
% 9->1
gsave
1 setlinewidth
0 0 0 edgecolor
newpath 485.5991 771.0797 moveto
425.4584 765.0581 232.1309 749.3234 191 791 curveto
173.9948 808.2308 159.3389 1163.2011 155.1793 1273.5561 curveto
stroke
0 0 0 edgecolor
newpath 151.6745 1273.6216 moveto
154.799 1283.7452 lineto
158.6696 1273.8827 lineto
closepath fill
1 setlinewidth
solid
0 0 0 edgecolor
newpath 151.6745 1273.6216 moveto
154.799 1283.7452 lineto
158.6696 1273.8827 lineto
closepath stroke
0 0 0 edgecolor
14 /Times-Roman set_font
285 768.8 moveto 73 (16:0/0.69315) alignedtext
grestore
% 9->2
gsave
1 setlinewidth
0 0 0 edgecolor
newpath 521.7425 773 moveto
553.7029 773 621.9028 773 679.5 773 curveto
679.5 773 679.5 773 1225.5 773 curveto
1282.6319 773 1313.7743 760.8214 1350 805 curveto
1368.5263 827.5935 1379.7252 1266.1083 1382.3838 1382.7219 curveto
stroke
0 0 0 edgecolor
newpath 1378.8904 1383.0586 moveto
1382.6144 1392.9774 lineto
1385.8886 1382.9012 lineto
closepath fill
1 setlinewidth
solid
0 0 0 edgecolor
newpath 1378.8904 1383.0586 moveto
1382.6144 1392.9774 lineto
1385.8886 1382.9012 lineto
closepath stroke
0 0 0 edgecolor
14 /Times-Roman set_font
919 776.8 moveto 73 (16:0/0.69315) alignedtext
grestore
% 13
gsave
1 setlinewidth
solid
0 0 0 nodecolor
679.5 1312 19.4965 19.4965 ellipse_path stroke
0 0 0 nodecolor
14 /Times-Roman set_font
672.5 1308.3 moveto 14 (13) alignedtext
grestore
% 12->13
gsave
1 setlinewidth
0 0 0 edgecolor
newpath 522.9966 1265.6087 moveto
547.9518 1266.8823 592.2348 1270.8208 628 1283 curveto
637.0334 1286.0762 646.3001 1290.7445 654.4384 1295.4423 curveto
stroke
0 0 0 edgecolor
newpath 652.7085 1298.4865 moveto
663.0748 1300.6754 lineto
656.3361 1292.4998 lineto
closepath fill
1 setlinewidth
solid
0 0 0 edgecolor
newpath 652.7085 1298.4865 moveto
663.0748 1300.6754 lineto
656.3361 1292.4998 lineto
closepath stroke
0 0 0 edgecolor
14 /Times-Roman set_font
576 1286.8 moveto 31 (113:0) alignedtext
grestore
% 13->1
gsave
1 setlinewidth
0 0 0 edgecolor
newpath 659.8967 1311.4163 moveto
600.935 1309.6936 420.035 1304.6485 270 1303 curveto
234.891 1302.6142 226.0824 1301.5801 191 1303 curveto
189.5109 1303.0603 187.9889 1303.1341 186.4521 1303.2186 curveto
stroke
0 0 0 edgecolor
newpath 186.0308 1299.7389 moveto
176.2871 1303.8995 lineto
186.4987 1306.7233 lineto
closepath fill
1 setlinewidth
solid
0 0 0 edgecolor
newpath 186.0308 1299.7389 moveto
176.2871 1303.8995 lineto
186.4987 1306.7233 lineto
closepath stroke
0 0 0 edgecolor
14 /Times-Roman set_font
373 1310.8 moveto 79 (116:0/0.69315) alignedtext
grestore
% 13->2
gsave
1 setlinewidth
0 0 0 edgecolor
newpath 699.213 1312.1765 moveto
733.03 1312.4636 804.2778 1313 864.5 1313 curveto
864.5 1313 864.5 1313 1225.5 1313 curveto
1282.7441 1313 1305.4906 1310.0027 1350 1346 curveto
1361.9191 1355.6396 1369.9468 1370.7087 1375.0973 1383.9113 curveto
stroke
0 0 0 edgecolor
newpath 1371.8614 1385.2592 moveto
1378.4918 1393.5228 lineto
1378.4619 1382.928 lineto
closepath fill
1 setlinewidth
solid
0 0 0 edgecolor
newpath 1371.8614 1385.2592 moveto
1378.4918 1393.5228 lineto
1378.4619 1382.928 lineto
closepath stroke
0 0 0 edgecolor
14 /Times-Roman set_font
1007 1316.8 moveto 79 (116:0/0.69315) alignedtext
grestore
% 16
gsave
1 setlinewidth
solid
0 0 0 nodecolor
679.5 1218 19.4965 19.4965 ellipse_path stroke
0 0 0 nodecolor
14 /Times-Roman set_font
672.5 1214.3 moveto 14 (16) alignedtext
grestore
% 15->16
gsave
1 setlinewidth
0 0 0 edgecolor
newpath 522.9966 1171.6087 moveto
547.9518 1172.8823 592.2348 1176.8208 628 1189 curveto
637.0334 1192.0762 646.3001 1196.7445 654.4384 1201.4423 curveto
stroke
0 0 0 edgecolor
newpath 652.7085 1204.4865 moveto
663.0748 1206.6754 lineto
656.3361 1198.4998 lineto
closepath fill
1 setlinewidth
solid
0 0 0 edgecolor
newpath 652.7085 1204.4865 moveto
663.0748 1206.6754 lineto
656.3361 1198.4998 lineto
closepath stroke
0 0 0 edgecolor
14 /Times-Roman set_font
576 1192.8 moveto 31 (113:0) alignedtext
grestore
% 16->1
gsave
1 setlinewidth
0 0 0 edgecolor
newpath 659.7535 1217.99 moveto
601.9916 1218.1136 428.3812 1219.5738 285 1232 curveto
242.9821 1235.6415 226.2435 1221.8341 191 1245 curveto
179.841 1252.3349 171.5187 1264.3108 165.623 1275.7177 curveto
stroke
0 0 0 edgecolor
newpath 162.322 1274.5126 moveto
161.2323 1285.0512 lineto
168.6561 1277.4923 lineto
closepath fill
1 setlinewidth
solid
0 0 0 edgecolor
newpath 162.322 1274.5126 moveto
161.2323 1285.0512 lineto
168.6561 1277.4923 lineto
closepath stroke
0 0 0 edgecolor
14 /Times-Roman set_font
373 1229.8 moveto 79 (116:0/0.69315) alignedtext
grestore
% 16->2
gsave
1 setlinewidth
0 0 0 edgecolor
newpath 698.8534 1221.8321 moveto
732.4243 1228.1353 803.6926 1240 864.5 1240 curveto
864.5 1240 864.5 1240 1225.5 1240 curveto
1289.1988 1240 1309.6684 1261.6959 1350 1311 curveto
1366.911 1331.6732 1375.2678 1361.3183 1379.3263 1382.9624 curveto
stroke
0 0 0 edgecolor
newpath 1375.8824 1383.5893 moveto
1380.992 1392.8706 lineto
1382.7856 1382.4287 lineto
closepath fill
1 setlinewidth
solid
0 0 0 edgecolor
newpath 1375.8824 1383.5893 moveto
1380.992 1392.8706 lineto
1382.7856 1382.4287 lineto
closepath stroke
0 0 0 edgecolor
14 /Times-Roman set_font
1007 1243.8 moveto 79 (116:0/0.69315) alignedtext
grestore
% 18->1
gsave
1 setlinewidth
0 0 0 edgecolor
newpath 485.8276 1583.6391 moveto
432.575 1608.2939 272.3305 1672.1575 191 1591 curveto
173.3213 1573.3589 160.6631 1408.9766 155.9863 1338.1814 curveto
stroke
0 0 0 edgecolor
newpath 159.4693 1337.8037 moveto
155.3296 1328.0511 lineto
152.4839 1338.2566 lineto
closepath fill
1 setlinewidth
solid
0 0 0 edgecolor
newpath 159.4693 1337.8037 moveto
155.3296 1328.0511 lineto
152.4839 1338.2566 lineto
closepath stroke
0 0 0 edgecolor
14 /Times-Roman set_font
285 1634.8 moveto 73 (12:0/0.69315) alignedtext
grestore
% 18->2
gsave
1 setlinewidth
0 0 0 edgecolor
newpath 521.9994 1568.6468 moveto
553.7914 1558.3119 621.0221 1539 679.5 1539 curveto
679.5 1539 679.5 1539 1225.5 1539 curveto
1290.4646 1539 1343.549 1472.6052 1368.168 1435.4526 curveto
stroke
0 0 0 edgecolor
newpath 1371.3353 1436.9986 moveto
1373.8037 1426.6953 lineto
1365.4488 1433.2104 lineto
closepath fill
1 setlinewidth
solid
0 0 0 edgecolor
newpath 1371.3353 1436.9986 moveto
1373.8037 1426.6953 lineto
1365.4488 1433.2104 lineto
closepath stroke
0 0 0 edgecolor
14 /Times-Roman set_font
919 1542.8 moveto 73 (12:0/0.69315) alignedtext
grestore
% 20->1
gsave
1 setlinewidth
0 0 0 edgecolor
newpath 483.6881 1680.5052 moveto
421.0706 1678.4894 229.3022 1668.7074 191 1624 curveto
172.609 1602.5336 160.0824 1414.3745 155.7133 1338.0045 curveto
stroke
0 0 0 edgecolor
newpath 159.2067 1337.7872 moveto
155.1512 1327.9993 lineto
152.2177 1338.1799 lineto
closepath fill
1 setlinewidth
solid
0 0 0 edgecolor
newpath 159.2067 1337.7872 moveto
155.1512 1327.9993 lineto
152.2177 1338.1799 lineto
closepath stroke
0 0 0 edgecolor
14 /Times-Roman set_font
285 1674.8 moveto 73 (12:0/0.69315) alignedtext
grestore
% 20->2
gsave
1 setlinewidth
0 0 0 edgecolor
newpath 520.9818 1672.1789 moveto
552.0493 1657.3431 619.2821 1629 679.5 1629 curveto
679.5 1629 679.5 1629 1225.5 1629 curveto
1318.4388 1629 1362.0695 1497.2059 1376.8826 1438.5667 curveto
stroke
0 0 0 edgecolor
newpath 1380.2859 1439.3833 moveto
1379.2435 1428.8399 lineto
1373.4834 1437.7321 lineto
closepath fill
1 setlinewidth
solid
0 0 0 edgecolor
newpath 1380.2859 1439.3833 moveto
1379.2435 1428.8399 lineto
1373.4834 1437.7321 lineto
closepath stroke
0 0 0 edgecolor
14 /Times-Roman set_font
919 1632.8 moveto 73 (12:0/0.69315) alignedtext
grestore
% 23
gsave
1 setlinewidth
solid
0 0 0 nodecolor
679.5 371 19.4965 19.4965 ellipse_path stroke
0 0 0 nodecolor
14 /Times-Roman set_font
672.5 367.3 moveto 14 (23) alignedtext
grestore
% 22->23
gsave
1 setlinewidth
0 0 0 edgecolor
newpath 523.0075 371 moveto
553.6667 371 613.3538 371 649.5009 371 curveto
stroke
0 0 0 edgecolor
newpath 649.9051 374.5001 moveto
659.9051 371 lineto
649.9051 367.5001 lineto
closepath fill
1 setlinewidth
solid
0 0 0 edgecolor
newpath 649.9051 374.5001 moveto
659.9051 371 lineto
649.9051 367.5001 lineto
closepath stroke
0 0 0 edgecolor
14 /Times-Roman set_font
576 374.8 moveto 31 (113:0) alignedtext
grestore
% 24
gsave
1 setlinewidth
solid
0 0 0 nodecolor
864.5 371 19.4965 19.4965 ellipse_path stroke
0 0 0 nodecolor
14 /Times-Roman set_font
857.5 367.3 moveto 14 (24) alignedtext
grestore
% 23->24
gsave
1 setlinewidth
0 0 0 edgecolor
newpath 699.2982 371 moveto
731.7064 371 796.279 371 834.3884 371 curveto
stroke
0 0 0 edgecolor
newpath 834.8441 374.5001 moveto
844.8441 371 lineto
834.8441 367.5001 lineto
closepath fill
1 setlinewidth
solid
0 0 0 edgecolor
newpath 834.8441 374.5001 moveto
844.8441 371 lineto
834.8441 367.5001 lineto
closepath stroke
0 0 0 edgecolor
14 /Times-Roman set_font
758 374.8 moveto 25 (49:0) alignedtext
grestore
% 25
gsave
1 setlinewidth
solid
0 0 0 nodecolor
1046.5 418 19.4965 19.4965 ellipse_path stroke
0 0 0 nodecolor
14 /Times-Roman set_font
1039.5 414.3 moveto 14 (25) alignedtext
grestore
% 24->25
gsave
1 setlinewidth
0 0 0 edgecolor
newpath 884.4196 371.6752 moveto
909.9266 373.0192 955.2244 377.0319 992 389 curveto
1001.9848 392.2494 1012.309 397.2589 1021.2507 402.2054 curveto
stroke
0 0 0 edgecolor
newpath 1019.5869 405.2863 moveto
1029.9961 407.2611 lineto
1023.0903 399.2261 lineto
closepath fill
1 setlinewidth
solid
0 0 0 edgecolor
newpath 1019.5869 405.2863 moveto
1029.9961 407.2611 lineto
1023.0903 399.2261 lineto
closepath stroke
0 0 0 edgecolor
14 /Times-Roman set_font
943 392.8 moveto 25 (81:0) alignedtext
grestore
% 25->1
gsave
1 setlinewidth
0 0 0 edgecolor
newpath 1026.8395 418 moveto
993.4639 418 923.5868 418 864.5 418 curveto
321.5 418 321.5 418 321.5 418 curveto
262.3601 418 229.4829 399.0934 191 444 curveto
163.5152 476.0727 155.7387 1120.9679 154.2788 1273.7486 curveto
stroke
0 0 0 edgecolor
newpath 150.7778 1273.851 moveto
154.1844 1283.8832 lineto
157.7775 1273.9163 lineto
closepath fill
1 setlinewidth
solid
0 0 0 edgecolor
newpath 150.7778 1273.851 moveto
154.1844 1283.8832 lineto
157.7775 1273.9163 lineto
closepath stroke
0 0 0 edgecolor
14 /Times-Roman set_font
555 421.8 moveto 73 (16:0/0.69315) alignedtext
grestore
% 25->2
gsave
1 setlinewidth
0 0 0 edgecolor
newpath 1066.0911 414.8264 moveto
1121.0494 407.1726 1277.3884 394.2039 1350 480 curveto
1364.9544 497.6697 1379.561 1228.7254 1382.4754 1382.7136 curveto
stroke
0 0 0 edgecolor
newpath 1378.9773 1382.8534 moveto
1382.6648 1392.7858 lineto
1385.976 1382.7217 lineto
closepath fill
1 setlinewidth
solid
0 0 0 edgecolor
newpath 1378.9773 1382.8534 moveto
1382.6648 1392.7858 lineto
1385.976 1382.7217 lineto
closepath stroke
0 0 0 edgecolor
14 /Times-Roman set_font
1189 427.8 moveto 73 (16:0/0.69315) alignedtext
grestore
% 28
gsave
1 setlinewidth
solid
0 0 0 nodecolor
679.5 975 19.4965 19.4965 ellipse_path stroke
0 0 0 nodecolor
14 /Times-Roman set_font
672.5 971.3 moveto 14 (28) alignedtext
grestore
% 27->28
gsave
1 setlinewidth
0 0 0 edgecolor
newpath 523.0075 969.665 moveto
553.6667 970.7102 613.3538 972.745 649.5009 973.9773 curveto
stroke
0 0 0 edgecolor
newpath 649.7916 977.4892 moveto
659.9051 974.332 lineto
650.0302 970.4932 lineto
closepath fill
1 setlinewidth
solid
0 0 0 edgecolor
newpath 649.7916 977.4892 moveto
659.9051 974.332 lineto
650.0302 970.4932 lineto
closepath stroke
0 0 0 edgecolor
14 /Times-Roman set_font
579 977.8 moveto 25 (13:0) alignedtext
grestore
% 29
gsave
1 setlinewidth
solid
0 0 0 nodecolor
864.5 1022 19.4965 19.4965 ellipse_path stroke
0 0 0 nodecolor
14 /Times-Roman set_font
857.5 1018.3 moveto 14 (29) alignedtext
grestore
% 28->29
gsave
1 setlinewidth
0 0 0 edgecolor
newpath 699.4114 975.8636 moveto
725.4046 977.4471 772.0564 981.8629 810 994 curveto
819.926 997.175 830.2364 1002.0206 839.1834 1006.7932 curveto
stroke
0 0 0 edgecolor
newpath 837.5003 1009.862 moveto
847.9403 1011.6671 lineto
840.9047 1003.7455 lineto
closepath fill
1 setlinewidth
solid
0 0 0 edgecolor
newpath 837.5003 1009.862 moveto
847.9403 1011.6671 lineto
840.9047 1003.7455 lineto
closepath stroke
0 0 0 edgecolor
14 /Times-Roman set_font
758 997.8 moveto 25 (85:0) alignedtext
grestore
% 29->1
gsave
1 setlinewidth
0 0 0 edgecolor
newpath 844.9208 1021.2983 moveto
739.3321 1017.7035 240.71 1003.202 191 1048 curveto
174.4424 1062.9215 161.4545 1207.7047 156.3496 1273.6137 curveto
stroke
0 0 0 edgecolor
newpath 152.8394 1273.6152 moveto
155.571 1283.8518 lineto
159.8193 1274.146 lineto
closepath fill
1 setlinewidth
solid
0 0 0 edgecolor
newpath 152.8394 1273.6152 moveto
155.571 1283.8518 lineto
159.8193 1274.146 lineto
closepath stroke
0 0 0 edgecolor
14 /Times-Roman set_font
467 1020.8 moveto 73 (92:0/0.69315) alignedtext
grestore
% 29->2
gsave
1 setlinewidth
0 0 0 edgecolor
newpath 883.8457 1019.1039 moveto
960.6168 1008.8525 1244.7247 982.9846 1350 1143 curveto
1375.6434 1181.9772 1381.36 1322.3642 1382.6344 1382.8977 curveto
stroke
0 0 0 edgecolor
newpath 1379.1349 1382.9649 moveto
1382.8193 1392.8984 lineto
1386.1338 1382.8354 lineto
closepath fill
1 setlinewidth
solid
0 0 0 edgecolor
newpath 1379.1349 1382.9649 moveto
1382.8193 1392.8984 lineto
1386.1338 1382.8354 lineto
closepath stroke
0 0 0 edgecolor
14 /Times-Roman set_font
1101 1033.8 moveto 73 (92:0/0.69315) alignedtext
grestore
% 32
gsave
1 setlinewidth
solid
0 0 0 nodecolor
679.5 1121 19.4965 19.4965 ellipse_path stroke
0 0 0 nodecolor
14 /Times-Roman set_font
672.5 1117.3 moveto 14 (32) alignedtext
grestore
% 31->32
gsave
1 setlinewidth
0 0 0 edgecolor
newpath 523.0075 1114.7759 moveto
553.6667 1115.9953 613.3538 1118.3692 649.5009 1119.8069 curveto
stroke
0 0 0 edgecolor
newpath 649.7739 1123.3204 moveto
659.9051 1120.2207 lineto
650.0521 1116.3259 lineto
closepath fill
1 setlinewidth
solid
0 0 0 edgecolor
newpath 649.7739 1123.3204 moveto
659.9051 1120.2207 lineto
650.0521 1116.3259 lineto
closepath stroke
0 0 0 edgecolor
14 /Times-Roman set_font
579 1122.8 moveto 25 (29:0) alignedtext
grestore
% 33
gsave
1 setlinewidth
solid
0 0 0 nodecolor
864.5 1121 19.4965 19.4965 ellipse_path stroke
0 0 0 nodecolor
14 /Times-Roman set_font
857.5 1117.3 moveto 14 (33) alignedtext
grestore
% 32->33
gsave
1 setlinewidth
0 0 0 edgecolor
newpath 699.2982 1121 moveto
731.7064 1121 796.279 1121 834.3884 1121 curveto
stroke
0 0 0 edgecolor
newpath 834.8441 1124.5001 moveto
844.8441 1121 lineto
834.8441 1117.5001 lineto
closepath fill
1 setlinewidth
solid
0 0 0 edgecolor
newpath 834.8441 1124.5001 moveto
844.8441 1121 lineto
834.8441 1117.5001 lineto
closepath stroke
0 0 0 edgecolor
14 /Times-Roman set_font
758 1124.8 moveto 25 (49:0) alignedtext
grestore
% 34
gsave
1 setlinewidth
solid
0 0 0 nodecolor
1046.5 1121 19.4965 19.4965 ellipse_path stroke
0 0 0 nodecolor
14 /Times-Roman set_font
1039.5 1117.3 moveto 14 (34) alignedtext
grestore
% 33->34
gsave
1 setlinewidth
0 0 0 edgecolor
newpath 884.3237 1121 moveto
916.2714 1121 979.3363 1121 1016.7131 1121 curveto
stroke
0 0 0 edgecolor
newpath 1016.9763 1124.5001 moveto
1026.9763 1121 lineto
1016.9762 1117.5001 lineto
closepath fill
1 setlinewidth
solid
0 0 0 edgecolor
newpath 1016.9763 1124.5001 moveto
1026.9763 1121 lineto
1016.9762 1117.5001 lineto
closepath stroke
0 0 0 edgecolor
14 /Times-Roman set_font
940 1124.8 moveto 31 (109:0) alignedtext
grestore
% 35
gsave
1 setlinewidth
solid
0 0 0 nodecolor
1225.5 1121 19.4965 19.4965 ellipse_path stroke
0 0 0 nodecolor
14 /Times-Roman set_font
1218.5 1117.3 moveto 14 (35) alignedtext
grestore
% 34->35
gsave
1 setlinewidth
0 0 0 edgecolor
newpath 1066.3401 1121 moveto
1097.7391 1121 1159.0736 1121 1195.7545 1121 curveto
stroke
0 0 0 edgecolor
newpath 1195.8439 1124.5001 moveto
1205.8439 1121 lineto
1195.8439 1117.5001 lineto
closepath fill
1 setlinewidth
solid
0 0 0 edgecolor
newpath 1195.8439 1124.5001 moveto
1205.8439 1121 lineto
1195.8439 1117.5001 lineto
closepath stroke
0 0 0 edgecolor
14 /Times-Roman set_font
1125 1124.8 moveto 25 (89:0) alignedtext
grestore
% 35->1
gsave
1 setlinewidth
0 0 0 edgecolor
newpath 1207.7034 1112.1789 moveto
1176.0804 1097.3431 1107.6625 1069 1046.5 1069 curveto
770.5 1069 770.5 1069 770.5 1069 curveto
188.5118 1069 270.0565 1020.6084 191 1106 curveto
168.8277 1129.949 159.384 1223.5909 155.8474 1273.7916 curveto
stroke
0 0 0 edgecolor
newpath 152.3529 1273.5931 moveto
155.1799 1283.8038 lineto
159.3374 1274.0588 lineto
closepath fill
1 setlinewidth
solid
0 0 0 edgecolor
newpath 152.3529 1273.5931 moveto
155.1799 1283.8038 lineto
159.3374 1274.0588 lineto
closepath stroke
0 0 0 edgecolor
14 /Times-Roman set_font
643 1072.8 moveto 73 (28:0/0.69315) alignedtext
grestore
% 35->2
gsave
1 setlinewidth
0 0 0 edgecolor
newpath 1243.8314 1128.657 moveto
1271.7315 1141.3407 1324.3144 1169.4979 1350 1211 curveto
1367.4761 1239.2375 1377.1199 1334.5376 1380.9816 1382.6747 curveto
stroke
0 0 0 edgecolor
newpath 1377.4991 1383.0374 moveto
1381.7595 1392.7379 lineto
1384.4783 1382.4979 lineto
closepath fill
1 setlinewidth
solid
0 0 0 edgecolor
newpath 1377.4991 1383.0374 moveto
1381.7595 1392.7379 lineto
1384.4783 1382.4979 lineto
closepath stroke
0 0 0 edgecolor
14 /Times-Roman set_font
1277 1214.8 moveto 73 (28:0/0.69315) alignedtext
grestore
% 38
gsave
1 setlinewidth
solid
0 0 0 nodecolor
679.5 917 19.4965 19.4965 ellipse_path stroke
0 0 0 nodecolor
14 /Times-Roman set_font
672.5 913.3 moveto 14 (38) alignedtext
grestore
% 37->38
gsave
1 setlinewidth
0 0 0 edgecolor
newpath 523.0075 912.5542 moveto
553.6667 913.4252 613.3538 915.1208 649.5009 916.1478 curveto
stroke
0 0 0 edgecolor
newpath 649.8097 919.6578 moveto
659.9051 916.4433 lineto
650.0085 912.6607 lineto
closepath fill
1 setlinewidth
solid
0 0 0 edgecolor
newpath 649.8097 919.6578 moveto
659.9051 916.4433 lineto
650.0085 912.6607 lineto
closepath stroke
0 0 0 edgecolor
14 /Times-Roman set_font
579 919.8 moveto 25 (29:0) alignedtext
grestore
% 39
gsave
1 setlinewidth
solid
0 0 0 nodecolor
864.5 917 19.4965 19.4965 ellipse_path stroke
0 0 0 nodecolor
14 /Times-Roman set_font
857.5 913.3 moveto 14 (39) alignedtext
grestore
% 38->39
gsave
1 setlinewidth
0 0 0 edgecolor
newpath 699.2982 917 moveto
731.7064 917 796.279 917 834.3884 917 curveto
stroke
0 0 0 edgecolor
newpath 834.8441 920.5001 moveto
844.8441 917 lineto
834.8441 913.5001 lineto
closepath fill
1 setlinewidth
solid
0 0 0 edgecolor
newpath 834.8441 920.5001 moveto
844.8441 917 lineto
834.8441 913.5001 lineto
closepath stroke
0 0 0 edgecolor
14 /Times-Roman set_font
758 920.8 moveto 25 (49:0) alignedtext
grestore
% 40
gsave
1 setlinewidth
solid
0 0 0 nodecolor
1046.5 917 19.4965 19.4965 ellipse_path stroke
0 0 0 nodecolor
14 /Times-Roman set_font
1039.5 913.3 moveto 14 (40) alignedtext
grestore
% 39->40
gsave
1 setlinewidth
0 0 0 edgecolor
newpath 884.3237 917 moveto
916.2714 917 979.3363 917 1016.7131 917 curveto
stroke
0 0 0 edgecolor
newpath 1016.9763 920.5001 moveto
1026.9763 917 lineto
1016.9762 913.5001 lineto
closepath fill
1 setlinewidth
solid
0 0 0 edgecolor
newpath 1016.9763 920.5001 moveto
1026.9763 917 lineto
1016.9762 913.5001 lineto
closepath stroke
0 0 0 edgecolor
14 /Times-Roman set_font
940 920.8 moveto 31 (109:0) alignedtext
grestore
% 41
gsave
1 setlinewidth
solid
0 0 0 nodecolor
1225.5 917 19.4965 19.4965 ellipse_path stroke
0 0 0 nodecolor
14 /Times-Roman set_font
1218.5 913.3 moveto 14 (41) alignedtext
grestore
% 40->41
gsave
1 setlinewidth
0 0 0 edgecolor
newpath 1066.3401 917 moveto
1097.7391 917 1159.0736 917 1195.7545 917 curveto
stroke
0 0 0 edgecolor
newpath 1195.8439 920.5001 moveto
1205.8439 917 lineto
1195.8439 913.5001 lineto
closepath fill
1 setlinewidth
solid
0 0 0 edgecolor
newpath 1195.8439 920.5001 moveto
1205.8439 917 lineto
1195.8439 913.5001 lineto
closepath stroke
0 0 0 edgecolor
14 /Times-Roman set_font
1125 920.8 moveto 25 (89:0) alignedtext
grestore
% 41->1
gsave
1 setlinewidth
0 0 0 edgecolor
newpath 1207.7034 908.1789 moveto
1176.0804 893.3431 1107.6625 865 1046.5 865 curveto
591.5 865 591.5 865 591.5 865 curveto
369.9797 865 236.5881 862.7144 191 916 curveto
167.9242 942.9721 157.8788 1185.3086 154.9573 1273.8206 curveto
stroke
0 0 0 edgecolor
newpath 151.4588 1273.7202 moveto
154.636 1283.8274 lineto
158.4552 1273.9449 lineto
closepath fill
1 setlinewidth
solid
0 0 0 edgecolor
newpath 151.4588 1273.7202 moveto
154.636 1283.8274 lineto
158.4552 1273.9449 lineto
closepath stroke
0 0 0 edgecolor
14 /Times-Roman set_font
643 868.8 moveto 73 (20:0/0.69315) alignedtext
grestore
% 41->2
gsave
1 setlinewidth
0 0 0 edgecolor
newpath 1244.2097 923.111 moveto
1272.616 933.4824 1325.8653 957.4495 1350 998 curveto
1369.6 1030.9313 1379.4363 1295.2432 1382.182 1382.8812 curveto
stroke
0 0 0 edgecolor
newpath 1378.6842 1383.0074 moveto
1382.4888 1392.8955 lineto
1385.6809 1382.793 lineto
closepath fill
1 setlinewidth
solid
0 0 0 edgecolor
newpath 1378.6842 1383.0074 moveto
1382.4888 1392.8955 lineto
1385.6809 1382.793 lineto
closepath stroke
0 0 0 edgecolor
14 /Times-Roman set_font
1277 1001.8 moveto 73 (20:0/0.69315) alignedtext
grestore
% 46->1
gsave
1 setlinewidth
0 0 0 edgecolor
newpath 483.8587 313.5103 moveto
420.884 312.4228 226.0831 312.9666 191 360 curveto
163.1411 397.3485 155.6043 1110.9531 154.2471 1273.3189 curveto
stroke
0 0 0 edgecolor
newpath 150.7448 1273.5948 moveto
154.1632 1283.623 lineto
157.7446 1273.6519 lineto
closepath fill
1 setlinewidth
solid
0 0 0 edgecolor
newpath 150.7448 1273.5948 moveto
154.1632 1283.623 lineto
157.7446 1273.6519 lineto
closepath stroke
0 0 0 edgecolor
14 /Times-Roman set_font
285 327.8 moveto 73 (56:0/0.69315) alignedtext
grestore
% 46->2
gsave
1 setlinewidth
0 0 0 edgecolor
newpath 523.028 314.9171 moveto
555.4976 316.3605 622.6437 319 679.5 319 curveto
679.5 319 679.5 319 1225.5 319 curveto
1299.0435 319 1318.5007 361.5437 1350 428 curveto
1370.9579 472.2164 1380.8436 1225.5291 1382.6808 1382.4884 curveto
stroke
0 0 0 edgecolor
newpath 1379.1839 1382.782 moveto
1382.7992 1392.7409 lineto
1386.1834 1382.7011 lineto
closepath fill
1 setlinewidth
solid
0 0 0 edgecolor
newpath 1379.1839 1382.782 moveto
1382.7992 1392.7409 lineto
1386.1834 1382.7011 lineto
closepath stroke
0 0 0 edgecolor
14 /Times-Roman set_font
919 322.8 moveto 73 (56:0/0.69315) alignedtext
grestore
% 49->1
gsave
1 setlinewidth
0 0 0 edgecolor
newpath 483.8 1467.7528 moveto
422.3718 1472.7876 235.7571 1484.6934 191 1448 curveto
174.1623 1434.1959 163.3143 1375.5198 157.9639 1338.0474 curveto
stroke
0 0 0 edgecolor
newpath 161.4255 1337.5276 moveto
156.6002 1328.0954 lineto
154.4903 1338.478 lineto
closepath fill
1 setlinewidth
solid
0 0 0 edgecolor
newpath 161.4255 1337.5276 moveto
156.6002 1328.0954 lineto
154.4903 1338.478 lineto
closepath stroke
0 0 0 edgecolor
14 /Times-Roman set_font
285 1477.8 moveto 73 (16:0/0.69315) alignedtext
grestore
% 49->2
gsave
1 setlinewidth
0 0 0 edgecolor
newpath 523.0258 1464.8995 moveto
555.492 1463.1674 622.6337 1460 679.5 1460 curveto
679.5 1460 679.5 1460 1225.5 1460 curveto
1274.0791 1460 1327.4363 1438.4833 1357.9073 1423.9663 curveto
stroke
0 0 0 edgecolor
newpath 1359.5178 1427.0749 moveto
1366.9612 1419.5351 lineto
1356.4406 1420.7875 lineto
closepath fill
1 setlinewidth
solid
0 0 0 edgecolor
newpath 1359.5178 1427.0749 moveto
1366.9612 1419.5351 lineto
1356.4406 1420.7875 lineto
closepath stroke
0 0 0 edgecolor
14 /Times-Roman set_font
919 1463.8 moveto 73 (16:0/0.69315) alignedtext
grestore
% 51->1
gsave
1 setlinewidth
0 0 0 edgecolor
newpath 485.543 198.7071 moveto
429.2898 174.0574 256.3502 108.6864 191 204 curveto
160.0042 249.2075 154.8538 1095.8587 154.1132 1273.4831 curveto
stroke
0 0 0 edgecolor
newpath 150.6132 1273.5048 moveto
154.0731 1283.5188 lineto
157.6131 1273.5329 lineto
closepath fill
1 setlinewidth
solid
0 0 0 edgecolor
newpath 150.6132 1273.5048 moveto
154.0731 1283.5188 lineto
157.6131 1273.5329 lineto
closepath stroke
0 0 0 edgecolor
14 /Times-Roman set_font
285 162.8 moveto 73 (28:0/0.69315) alignedtext
grestore
% 51->2
gsave
1 setlinewidth
0 0 0 edgecolor
newpath 522.0132 213.1767 moveto
553.8259 223.2245 621.0865 242 679.5 242 curveto
679.5 242 679.5 242 1225.5 242 curveto
1292.2499 242 1317.7743 267.5444 1350 326 curveto
1376.2093 373.5422 1381.9734 1214.7564 1382.8627 1382.1655 curveto
stroke
0 0 0 edgecolor
newpath 1379.365 1382.6384 moveto
1382.9165 1392.6202 lineto
1386.3649 1382.6023 lineto
closepath fill
1 setlinewidth
solid
0 0 0 edgecolor
newpath 1379.365 1382.6384 moveto
1382.9165 1392.6202 lineto
1386.3649 1382.6023 lineto
closepath stroke
0 0 0 edgecolor
14 /Times-Roman set_font
919 245.8 moveto 73 (28:0/0.69315) alignedtext
grestore
% 53->1
gsave
1 setlinewidth
0 0 0 edgecolor
newpath 483.6517 103.9729 moveto
420.9246 104.3504 228.8624 109.2058 191 154 curveto
172.4178 175.9842 157.3405 1089.655 154.4867 1273.8424 curveto
stroke
0 0 0 edgecolor
newpath 150.9852 1273.9156 moveto
154.3307 1283.9684 lineto
157.9844 1274.0235 lineto
closepath fill
1 setlinewidth
solid
0 0 0 edgecolor
newpath 150.9852 1273.9156 moveto
154.3307 1283.9684 lineto
157.9844 1274.0235 lineto
closepath stroke
0 0 0 edgecolor
14 /Times-Roman set_font
285 121.8 moveto 73 (28:0/0.69315) alignedtext
grestore
% 53->2
gsave
1 setlinewidth
0 0 0 edgecolor
newpath 521.5164 112.7093 moveto
552.8571 127.0347 619.7824 154 679.5 154 curveto
679.5 154 679.5 154 1225.5 154 curveto
1294.5668 154 1318.1809 185.6994 1350 247 curveto
1376.9556 298.9309 1382.1461 1209.0733 1382.892 1382.5612 curveto
stroke
0 0 0 edgecolor
newpath 1379.3925 1382.7057 moveto
1382.934 1392.6911 lineto
1386.3924 1382.6766 lineto
closepath fill
1 setlinewidth
solid
0 0 0 edgecolor
newpath 1379.3925 1382.7057 moveto
1382.934 1392.6911 lineto
1386.3924 1382.6766 lineto
closepath stroke
0 0 0 edgecolor
14 /Times-Roman set_font
919 157.8 moveto 73 (28:0/0.69315) alignedtext
grestore
% 55->1
gsave
1 setlinewidth
0 0 0 edgecolor
newpath 483.7419 571.847 moveto
421.2868 568.6729 229.9531 562.7071 191 606 curveto
168.4129 631.1035 157.1766 1139.0248 154.5897 1273.5447 curveto
stroke
0 0 0 edgecolor
newpath 151.0887 1273.5705 moveto
154.3985 1283.6351 lineto
158.0874 1273.7032 lineto
closepath fill
1 setlinewidth
solid
0 0 0 edgecolor
newpath 151.0887 1273.5705 moveto
154.3985 1283.6351 lineto
158.0874 1273.7032 lineto
closepath stroke
0 0 0 edgecolor
14 /Times-Roman set_font
285 578.8 moveto 73 (32:0/0.69315) alignedtext
grestore
% 55->2
gsave
1 setlinewidth
0 0 0 edgecolor
newpath 523.0083 575.0176 moveto
555.4494 578.1932 622.5558 584 679.5 584 curveto
679.5 584 679.5 584 1225.5 584 curveto
1300.8268 584 1318.2101 630.71 1350 699 curveto
1364.6524 730.4758 1378.9797 1254.1128 1382.2878 1382.6706 curveto
stroke
0 0 0 edgecolor
newpath 1378.7944 1382.9752 moveto
1382.5488 1392.8825 lineto
1385.7921 1382.7963 lineto
closepath fill
1 setlinewidth
solid
0 0 0 edgecolor
newpath 1378.7944 1382.9752 moveto
1382.5488 1392.8825 lineto
1385.7921 1382.7963 lineto
closepath stroke
0 0 0 edgecolor
14 /Times-Roman set_font
919 587.8 moveto 73 (32:0/0.69315) alignedtext
grestore
% 60
gsave
1 setlinewidth
solid
0 0 0 nodecolor
679.5 1957 19.4965 19.4965 ellipse_path stroke
0 0 0 nodecolor
14 /Times-Roman set_font
672.5 1953.3 moveto 14 (60) alignedtext
grestore
% 59->60
gsave
1 setlinewidth
0 0 0 edgecolor
newpath 523.0075 1957 moveto
553.6667 1957 613.3538 1957 649.5009 1957 curveto
stroke
0 0 0 edgecolor
newpath 649.9051 1960.5001 moveto
659.9051 1957 lineto
649.9051 1953.5001 lineto
closepath fill
1 setlinewidth
solid
0 0 0 edgecolor
newpath 649.9051 1960.5001 moveto
659.9051 1957 lineto
649.9051 1953.5001 lineto
closepath stroke
0 0 0 edgecolor
14 /Times-Roman set_font
579 1960.8 moveto 25 (97:0) alignedtext
grestore
% 60->1
gsave
1 setlinewidth
0 0 0 edgecolor
newpath 661.2508 1965.0104 moveto
651.5538 1968.9375 639.3266 1973.3757 628 1976 curveto
589.6995 1984.8741 579.2641 1982.9974 540 1985 curveto
426.8138 1990.7729 397.7113 1996.8578 285 1985 curveto
242.5215 1980.531 218.7971 1997.4302 191 1965 curveto
170.3956 1940.9614 157.7884 1467.1504 154.729 1338.1749 curveto
stroke
0 0 0 edgecolor
newpath 158.2271 1338.0479 moveto
154.4936 1328.1326 lineto
151.229 1338.2119 lineto
closepath fill
1 setlinewidth
solid
0 0 0 edgecolor
newpath 158.2271 1338.0479 moveto
154.4936 1328.1326 lineto
151.229 1338.2119 lineto
closepath stroke
0 0 0 edgecolor
14 /Times-Roman set_font
373 1994.8 moveto 79 (128:0/0.69315) alignedtext
grestore
% 60->2
gsave
1 setlinewidth
0 0 0 edgecolor
newpath 699.2102 1956.2941 moveto
733.0229 1955.1458 804.2646 1953 864.5 1953 curveto
864.5 1953 864.5 1953 1225.5 1953 curveto
1284.0407 1953 1314.4724 1956.5274 1350 1910 curveto
1364.3618 1891.1916 1378.1998 1542.3885 1381.9865 1439.3999 curveto
stroke
0 0 0 edgecolor
newpath 1385.4934 1439.2698 moveto
1382.3599 1429.1489 lineto
1378.4981 1439.0149 lineto
closepath fill
1 setlinewidth
solid
0 0 0 edgecolor
newpath 1385.4934 1439.2698 moveto
1382.3599 1429.1489 lineto
1378.4981 1439.0149 lineto
closepath stroke
0 0 0 edgecolor
14 /Times-Roman set_font
1007 1956.8 moveto 79 (128:0/0.69315) alignedtext
grestore
endpage
showpage
grestore
%%PageTrailer
%%EndPage: 1
%%Trailer
%%Pages: 1
%%BoundingBox: 36 151 828 641
end
restore
%%EOF
